	3938	2000415457763		1	1	19336746	2019-02-06 02:10:40	2:10:40 AM	1933674631280.301948PLM067	PLM067
	3938	2000416394562		1	1	19336746	2019-02-06 02:10:59	2:10:59 AM	1933674631280.301948PLM067	PLM067
	3938	2000416394562		1	1	19336746	2019-02-06 02:11:03	2:11:03 AM	1933674631280.301948PLM067	PLM067
	3938	2000416394579		1	1	19336746	2019-02-06 02:11:14	2:11:14 AM	1933674631280.301948PLM067	PLM067
	3938	2000416394579		1	1	19336746	2019-02-06 02:11:19	2:11:19 AM	1933674631280.301948PLM067	PLM067
	3938	2000416394562		1	1	19336746	2019-02-06 02:11:32	2:11:32 AM	1933674631280.301948PLM067	PLM067
	3938	2000416394579		1	1	19336746	2019-02-06 02:11:37	2:11:37 AM	1933674631280.301948PLM067	PLM067
	3938	2000416394579		1	1	19336746	2019-02-06 02:11:45	2:11:45 AM	1933674631280.301948PLM067	PLM067
	3938	2000416394579		1	1	19336746	2019-02-06 02:11:49	2:11:49 AM	1933674631280.301948PLM067	PLM067
	3938	2000416394562		1	1	19336746	2019-02-06 02:12:01	2:12:01 AM	1933674631280.301948PLM067	PLM067
	3938	2000415467199		1	1	19336746	2019-02-06 02:12:08	2:12:08 AM	1933674631280.301948PLM067	PLM067
	3938	2000416394579		1	1	19336746	2019-02-06 02:12:22	2:12:22 AM	1933674631280.301948PLM067	PLM067
	3938	2000416394579		1	1	19336746	2019-02-06 02:12:29	2:12:29 AM	1933674631280.301948PLM067	PLM067
	3938	2000415467205		1	1	19336746	2019-02-06 02:12:45	2:12:45 AM	1933674631280.301948PLM067	PLM067
	3938	2000416395439		1	1	19336746	2019-02-06 02:13:01	2:13:01 AM	1933674631280.301948PLM067	PLM067
	3938	2000416402878		1	1	19336746	2019-02-06 02:13:04	2:13:04 AM	1933674631280.301948PLM067	PLM067
	3938	2000415452744		1	1	19336746	2019-02-06 02:14:13	2:14:13 AM	1933674631280.301948PLM067	PLM067
	3938	2000415460732		1	1	19336746	2019-02-06 02:14:23	2:14:23 AM	1933674631280.301948PLM067	PLM067
	3938	2000416577347		1	1	19336746	2019-02-06 02:14:28	2:14:28 AM	1933674631280.301948PLM067	PLM067
	3938	2000416577354		1	1	19336746	2019-02-06 02:14:36	2:14:36 AM	1933674631280.301948PLM067	PLM067
	3938	2000415458364		1	1	19336746	2019-02-06 02:14:38	2:14:38 AM	1933674631280.301948PLM067	PLM067
	3938	2000415460732		1	1	19336746	2019-02-06 02:14:51	2:14:51 AM	1933674631280.301948PLM067	PLM067
	3938	2000415452744		1	1	19336746	2019-02-06 02:15:28	2:15:28 AM	1933674631280.301948PLM067	PLM067
	3938	2000416400874		1	1	19336746	2019-02-06 02:15:30	2:15:30 AM	1933674631280.301948PLM067	PLM067
	3938	2000416400881		1	1	19336746	2019-02-06 02:15:36	2:15:36 AM	1933674631280.301948PLM067	PLM067
	3938	2000416397563		1	1	19336746	2019-02-06 02:15:49	2:15:49 AM	1933674631280.301948PLM067	PLM067
	3938	2000416400874		1	1	19336746	2019-02-06 02:16:03	2:16:03 AM	1933674631280.301948PLM067	PLM067
	3938	2000415458265		1	1	19336746	2019-02-06 02:16:20	2:16:20 AM	1933674631280.301948PLM067	PLM067
	3938	2000416400911		1	1	19336746	2019-02-06 02:16:31	2:16:31 AM	1933674631280.301948PLM067	PLM067
	3938	2000416400911		1	1	19336746	2019-02-06 02:16:44	2:16:44 AM	1933674631280.301948PLM067	PLM067
	3938	2000415481478		1	1	19336746	2019-02-06 02:17:05	2:17:05 AM	1933674631280.301948PLM067	PLM067
	3528	2000416402656		1	1	19336746	2019-02-06 02:30:58	2:30:58 AM	1933674631280.301948PLM067	PLM067
	3528	2000416402656		1	1	19336746	2019-02-06 02:31:06	2:31:06 AM	1933674631280.301948PLM067	PLM067
	3528	2000416449125		1	1	19336746	2019-02-06 02:31:12	2:31:12 AM	1933674631280.301948PLM067	PLM067
	3528	2000416686162		1	1	19336746	2019-02-06 02:31:22	2:31:22 AM	1933674631280.301948PLM067	PLM067
	3528	2000416512133		1	1	19336746	2019-02-06 02:31:27	2:31:27 AM	1933674631280.301948PLM067	PLM067
	3528	2000416401901		1	1	19336746	2019-02-06 02:31:31	2:31:31 AM	1933674631280.301948PLM067	PLM067
	3528	2000416397532		1	1	19336746	2019-02-06 02:31:39	2:31:39 AM	1933674631280.301948PLM067	PLM067
	3528	2000415202042		1	1	19336746	2019-02-06 02:32:02	2:32:02 AM	1933674631280.301948PLM067	PLM067
	3528	2000416390557		1	1	19336746	2019-02-06 02:32:10	2:32:10 AM	1933674631280.301948PLM067	PLM067
	3528	2000416401925		1	1	19336746	2019-02-06 02:32:28	2:32:28 AM	1933674631280.301948PLM067	PLM067
	3528	2000416401949		1	1	19336746	2019-02-06 02:32:39	2:32:39 AM	1933674631280.301948PLM067	PLM067
	3528	2000416402656		1	1	19336746	2019-02-06 02:32:45	2:32:45 AM	1933674631280.301948PLM067	PLM067
	3528	2000416401901		1	1	19336746	2019-02-06 02:33:04	2:33:04 AM	1933674631280.301948PLM067	PLM067
	3528	2000416402656		1	1	19336746	2019-02-06 02:33:15	2:33:15 AM	1933674631280.301948PLM067	PLM067
	3528	2000416512508		1	1	19336746	2019-02-06 02:33:21	2:33:21 AM	1933674631280.301948PLM067	PLM067
	3528	2000416401901		1	1	19336746	2019-02-06 02:33:27	2:33:27 AM	1933674631280.301948PLM067	PLM067
	3528	2000416401949		1	1	19336746	2019-02-06 02:33:32	2:33:32 AM	1933674631280.301948PLM067	PLM067
	3528	2000416397532		1	1	19336746	2019-02-06 02:33:37	2:33:37 AM	1933674631280.301948PLM067	PLM067
	3528	2000416394708		1	1	19336746	2019-02-06 02:33:41	2:33:41 AM	1933674631280.301948PLM067	PLM067
	3528	2000416401956		1	1	19336746	2019-02-06 02:33:45	2:33:45 AM	1933674631280.301948PLM067	PLM067
	3528	2000416401956		1	1	19336746	2019-02-06 02:33:47	2:33:47 AM	1933674631280.301948PLM067	PLM067
	3528	2000416397471		1	1	19336746	2019-02-06 02:33:55	2:33:55 AM	1933674631280.301948PLM067	PLM067
	3528	2000416394722		1	1	19336746	2019-02-06 02:34:00	2:34:00 AM	1933674631280.301948PLM067	PLM067
	3528	2000416459377		1	1	19336746	2019-02-06 02:34:08	2:34:08 AM	1933674631280.301948PLM067	PLM067
	3528	2000415188896		1	1	19336746	2019-02-06 02:34:13	2:34:13 AM	1933674631280.301948PLM067	PLM067
	3528	2000416686179		1	1	19336746	2019-02-06 02:34:30	2:34:30 AM	1933674631280.301948PLM067	PLM067
	3528	2000416686162		1	1	19336746	2019-02-06 02:34:42	2:34:42 AM	1933674631280.301948PLM067	PLM067
	3528	2000416397433		1	1	19336746	2019-02-06 02:34:57	2:34:57 AM	1933674631280.301948PLM067	PLM067
	3528	2000416402618		1	1	19336746	2019-02-06 02:37:03	2:37:03 AM	1933674631280.301948PLM067	PLM067
	3528	2000416390267		1	1	19336746	2019-02-06 02:37:12	2:37:12 AM	1933674631280.301948PLM067	PLM067
	3528	2000416401956		1	1	19336746	2019-02-06 02:37:18	2:37:18 AM	1933674631280.301948PLM067	PLM067
	3528	2000416402656		1	1	19336746	2019-02-06 02:37:23	2:37:23 AM	1933674631280.301948PLM067	PLM067
	3528	2000416401956		1	1	19336746	2019-02-06 02:37:47	2:37:47 AM	1933674631280.301948PLM067	PLM067
	3528	2000416402618		1	1	19336746	2019-02-06 02:38:09	2:38:09 AM	1933674631280.301948PLM067	PLM067
	3528	2000416738144		1	1	19336746	2019-02-06 02:38:14	2:38:14 AM	1933674631280.301948PLM067	PLM067
	3528	2000416394692		1	1	19336746	2019-02-06 02:38:20	2:38:20 AM	1933674631280.301948PLM067	PLM067
	3528	2000416401895		1	1	19336746	2019-02-06 02:38:26	2:38:26 AM	1933674631280.301948PLM067	PLM067
	3528	2000416397471		1	1	19336746	2019-02-06 02:38:38	2:38:38 AM	1933674631280.301948PLM067	PLM067
	3528	2000417121839		1	1	19336746	2019-02-06 02:38:49	2:38:49 AM	1933674631280.301948PLM067	PLM067
	3528	2000415188643		1	1	19336746	2019-02-06 02:39:05	2:39:05 AM	1933674631280.301948PLM067	PLM067
	3528	2000416401956		1	1	19336746	2019-02-06 02:39:15	2:39:15 AM	1933674631280.301948PLM067	PLM067
	3528	2000415457442		1	1	19336746	2019-02-06 02:39:27	2:39:27 AM	1933674631280.301948PLM067	PLM067
	3528	2000416449125		1	1	19336746	2019-02-06 02:39:36	2:39:36 AM	1933674631280.301948PLM067	PLM067
	3528	2000416401956		1	1	19336746	2019-02-06 02:39:43	2:39:43 AM	1933674631280.301948PLM067	PLM067
	3528	2000416398102		1	1	19336746	2019-02-06 02:39:57	2:39:57 AM	1933674631280.301948PLM067	PLM067
	3528	2000416528219		1	1	19336746	2019-02-06 02:40:02	2:40:02 AM	1933674631280.301948PLM067	PLM067
	3528	2000416453450		1	1	19336746	2019-02-06 02:40:14	2:40:14 AM	1933674631280.301948PLM067	PLM067
	3528	2000415457190		1	1	19336746	2019-02-06 02:40:30	2:40:30 AM	1933674631280.301948PLM067	PLM067
	3528	2000416458196		1	1	19336746	2019-02-06 02:40:36	2:40:36 AM	1933674631280.301948PLM067	PLM067
	3528	2000416524303		1	1	19336746	2019-02-06 02:40:41	2:40:41 AM	1933674631280.301948PLM067	PLM067
	3528	2000416401949		1	1	19336746	2019-02-06 02:40:53	2:40:53 AM	1933674631280.301948PLM067	PLM067
	3528	2000415202042		1	1	19336746	2019-02-06 02:41:00	2:41:00 AM	1933674631280.301948PLM067	PLM067
	3528	2000416739264		1	1	19336746	2019-02-06 02:41:05	2:41:05 AM	1933674631280.301948PLM067	PLM067
	3528	2000416935512		1	1	19336746	2019-02-06 02:41:34	2:41:34 AM	1933674631280.301948PLM067	PLM067
	3528	2000416402656		1	1	19336746	2019-02-06 02:41:47	2:41:47 AM	1933674631280.301948PLM067	PLM067
	3528	2000416401987		1	1	19336746	2019-02-06 02:42:03	2:42:03 AM	1933674631280.301948PLM067	PLM067
	3528	2000416397433		1	1	19336746	2019-02-06 02:42:08	2:42:08 AM	1933674631280.301948PLM067	PLM067
	3528	2000416397426		1	1	19336746	2019-02-06 02:42:11	2:42:11 AM	1933674631280.301948PLM067	PLM067
	3528	2000415188483		1	1	19336746	2019-02-06 02:42:31	2:42:31 AM	1933674631280.301948PLM067	PLM067
	3528	2000416459315		1	1	19336746	2019-02-06 02:42:37	2:42:37 AM	1933674631280.301948PLM067	PLM067
	3528	2000416528226		1	1	19336746	2019-02-06 02:42:53	2:42:53 AM	1933674631280.301948PLM067	PLM067
	3528	2000416686070		1	1	19336746	2019-02-06 02:42:58	2:42:58 AM	1933674631280.301948PLM067	PLM067
	3528	2000416397488		1	1	19336746	2019-02-06 02:43:04	2:43:04 AM	1933674631280.301948PLM067	PLM067
	3528	2000416390731		1	1	19336746	2019-02-06 02:43:19	2:43:19 AM	1933674631280.301948PLM067	PLM067
	3528	2000416397938		1	1	19336746	2019-02-06 02:43:29	2:43:29 AM	1933674631280.301948PLM067	PLM067
	3528	2000416524440		1	1	19336746	2019-02-06 02:43:33	2:43:33 AM	1933674631280.301948PLM067	PLM067
	3528	2000416398096		1	1	19336746	2019-02-06 02:43:51	2:43:51 AM	1933674631280.301948PLM067	PLM067
	3528	2000416398126		1	1	19336746	2019-02-06 02:44:06	2:44:06 AM	1933674631280.301948PLM067	PLM067
	3528	2000416394715		1	1	19336746	2019-02-06 02:44:13	2:44:13 AM	1933674631280.301948PLM067	PLM067
	3528	2000416348589		1	1	19336746	2019-02-06 02:44:17	2:44:17 AM	1933674631280.301948PLM067	PLM067
	3528	2000416402649		1	1	19336746	2019-02-06 02:44:23	2:44:23 AM	1933674631280.301948PLM067	PLM067
	3528	2000416401925		1	1	19336746	2019-02-06 02:44:30	2:44:30 AM	1933674631280.301948PLM067	PLM067
	3528	2000416401918		1	1	19336746	2019-02-06 02:44:34	2:44:34 AM	1933674631280.301948PLM067	PLM067
	3528	2000416401956		1	1	19336746	2019-02-06 02:44:55	2:44:55 AM	1933674631280.301948PLM067	PLM067
	3528	2000416401956		1	1	19336746	2019-02-06 02:44:56	2:44:56 AM	1933674631280.301948PLM067	PLM067
	3528	2000416390557		1	1	19336746	2019-02-06 02:45:13	2:45:13 AM	1933674631280.301948PLM067	PLM067
	3528	2000416524259		1	1	19336746	2019-02-06 02:45:20	2:45:20 AM	1933674631280.301948PLM067	PLM067
	3528	2000416390557		1	1	19336746	2019-02-06 02:45:30	2:45:30 AM	1933674631280.301948PLM067	PLM067
	3528	2000417121839		1	1	19336746	2019-02-06 02:45:36	2:45:36 AM	1933674631280.301948PLM067	PLM067
	3528	2000416398119		1	1	19336746	2019-02-06 02:45:40	2:45:40 AM	1933674631280.301948PLM067	PLM067
	3528	2000416458219		1	1	19336746	2019-02-06 02:45:46	2:45:46 AM	1933674631280.301948PLM067	PLM067
	3528	2000415522140		1	1	19336746	2019-02-06 02:46:06	2:46:06 AM	1933674631280.301948PLM067	PLM067
	3528	2000416401956		1	1	19336746	2019-02-06 02:46:26	2:46:26 AM	1933674631280.301948PLM067	PLM067
	3528	2000416397556		1	1	19336746	2019-02-06 02:46:29	2:46:29 AM	1933674631280.301948PLM067	PLM067
	3528	2000416397914		1	1	19336746	2019-02-06 02:46:47	2:46:47 AM	1933674631280.301948PLM067	PLM067
	3528	2000416398119		1	1	19336746	2019-02-06 02:46:51	2:46:51 AM	1933674631280.301948PLM067	PLM067
	3528	2000416398102		1	1	19336746	2019-02-06 02:46:55	2:46:55 AM	1933674631280.301948PLM067	PLM067
	3528	2000416390557		1	1	19336746	2019-02-06 02:47:11	2:47:11 AM	1933674631280.301948PLM067	PLM067
	3528	2000416397488		1	1	19336746	2019-02-06 02:47:21	2:47:21 AM	1933674631280.301948PLM067	PLM067
	3528	2000415457954		1	1	19336746	2019-02-06 02:47:36	2:47:36 AM	1933674631280.301948PLM067	PLM067
	3528	2000416398102		1	1	19336746	2019-02-06 02:47:41	2:47:41 AM	1933674631280.301948PLM067	PLM067
	3528	2000416390304		1	1	19336746	2019-02-06 02:47:57	2:47:57 AM	1933674631280.301948PLM067	PLM067
	3528	2000416398119		1	1	19336746	2019-02-06 02:48:01	2:48:01 AM	1933674631280.301948PLM067	PLM067
	3528	2000416401932		1	1	19336746	2019-02-06 02:48:08	2:48:08 AM	1933674631280.301948PLM067	PLM067
	3528	2000416401932		1	1	19336746	2019-02-06 02:48:14	2:48:14 AM	1933674631280.301948PLM067	PLM067
	3528	2000416401956		1	1	19336746	2019-02-06 02:48:19	2:48:19 AM	1933674631280.301948PLM067	PLM067
	3528	2000416390311		1	1	19336746	2019-02-06 02:48:29	2:48:29 AM	1933674631280.301948PLM067	PLM067
	3528	2000416398119		1	1	19336746	2019-02-06 02:48:34	2:48:34 AM	1933674631280.301948PLM067	PLM067
	3528	2000416539420		1	1	19336746	2019-02-06 02:48:39	2:48:39 AM	1933674631280.301948PLM067	PLM067
	3528	2000416401949		1	1	19336746	2019-02-06 02:48:48	2:48:48 AM	1933674631280.301948PLM067	PLM067
	3528	2000416401871		1	1	19336746	2019-02-06 02:48:50	2:48:50 AM	1933674631280.301948PLM067	PLM067
	3528	2000415188469		1	1	19336746	2019-02-06 02:49:17	2:49:17 AM	1933674631280.301948PLM067	PLM067
	3528	2000416402618		1	1	19336746	2019-02-06 02:49:33	2:49:33 AM	1933674631280.301948PLM067	PLM067
	3528	2000416398096		1	1	19336746	2019-02-06 02:49:37	2:49:37 AM	1933674631280.301948PLM067	PLM067
	3528	2000416401925		1	1	19336746	2019-02-06 02:49:42	2:49:42 AM	1933674631280.301948PLM067	PLM067
	3528	2000415202042		1	1	19336746	2019-02-06 02:50:04	2:50:04 AM	1933674631280.301948PLM067	PLM067
	3528	2000407689417		1	1	19336746	2019-02-06 02:50:16	2:50:16 AM	1933674631280.301948PLM067	PLM067
	3528	2000415202035		1	1	19336746	2019-02-06 02:50:38	2:50:38 AM	1933674631280.301948PLM067	PLM067
	3528	2000416402663		1	1	19336746	2019-02-06 02:50:42	2:50:42 AM	1933674631280.301948PLM067	PLM067
	3528	2000416512355		1	1	19336746	2019-02-06 02:50:50	2:50:50 AM	1933674631280.301948PLM067	PLM067
	3528	2000416401956		1	1	19336746	2019-02-06 02:50:54	2:50:54 AM	1933674631280.301948PLM067	PLM067
	3528	2000416398102		1	1	19336746	2019-02-06 02:50:59	2:50:59 AM	1933674631280.301948PLM067	PLM067
	3528	2000415202042		1	1	19336746	2019-02-06 02:51:16	2:51:16 AM	1933674631280.301948PLM067	PLM067
	3528	2000416398126		1	1	19336746	2019-02-06 02:51:20	2:51:20 AM	1933674631280.301948PLM067	PLM067
	3528	2000416402656		1	1	19336746	2019-02-06 02:51:24	2:51:24 AM	1933674631280.301948PLM067	PLM067
	3528	2000417121839		1	1	19336746	2019-02-06 02:51:30	2:51:30 AM	1933674631280.301948PLM067	PLM067
	3528	2000415202042		1	1	19336746	2019-02-06 02:51:47	2:51:47 AM	1933674631280.301948PLM067	PLM067
	3528	2000416448937		1	1	19336746	2019-02-06 02:51:54	2:51:54 AM	1933674631280.301948PLM067	PLM067
	3528	2000416524471		1	1	19336746	2019-02-06 02:51:57	2:51:57 AM	1933674631280.301948PLM067	PLM067
	3528	2000416348480		1	1	19336746	2019-02-06 02:51:59	2:51:59 AM	1933674631280.301948PLM067	PLM067
	3528	2000416401932		1	1	19336746	2019-02-06 02:52:17	2:52:17 AM	1933674631280.301948PLM067	PLM067
	3528	2000416401932		1	1	19336746	2019-02-06 02:52:21	2:52:21 AM	1933674631280.301948PLM067	PLM067
	3528	2000416402618		1	1	19336746	2019-02-06 02:52:44	2:52:44 AM	1933674631280.301948PLM067	PLM067
	3528	2000416401949		1	1	19336746	2019-02-06 02:52:50	2:52:50 AM	1933674631280.301948PLM067	PLM067
	3528	2000416398102		1	1	19336746	2019-02-06 02:52:56	2:52:56 AM	1933674631280.301948PLM067	PLM067
	3528	2000417121839		1	1	19336746	2019-02-06 02:53:01	2:53:01 AM	1933674631280.301948PLM067	PLM067
	3528	2000416402656		1	1	19336746	2019-02-06 02:53:06	2:53:06 AM	1933674631280.301948PLM067	PLM067
	3528	2000416401956		1	1	19336746	2019-02-06 02:53:10	2:53:10 AM	1933674631280.301948PLM067	PLM067
	3528	2000416398102		1	1	19336746	2019-02-06 02:53:26	2:53:26 AM	1933674631280.301948PLM067	PLM067
	3528	2000416402656		1	1	19336746	2019-02-06 02:54:34	2:54:34 AM	1933674631280.301948PLM067	PLM067
	3528	2000416524433		1	1	19336746	2019-02-06 02:54:38	2:54:38 AM	1933674631280.301948PLM067	PLM067
	3528	2000415188469		1	1	19336746	2019-02-06 02:54:42	2:54:42 AM	1933674631280.301948PLM067	PLM067
	3528	2000416398102		1	1	19336746	2019-02-06 02:54:58	2:54:58 AM	1933674631280.301948PLM067	PLM067
	3528	2000416394722		1	1	19336746	2019-02-06 02:55:02	2:55:02 AM	1933674631280.301948PLM067	PLM067
	3528	2000416398089		1	1	19336746	2019-02-06 02:55:06	2:55:06 AM	1933674631280.301948PLM067	PLM067
	3528	2000416390779		1	1	19336746	2019-02-06 02:55:13	2:55:13 AM	1933674631280.301948PLM067	PLM067
	3528	2000416686186		1	1	19336746	2019-02-06 02:55:18	2:55:18 AM	1933674631280.301948PLM067	PLM067
	3528	2000416402649		1	1	19336746	2019-02-06 02:55:45	2:55:45 AM	1933674631280.301948PLM067	PLM067
	3528	2000416401895		1	1	19336746	2019-02-06 02:55:49	2:55:49 AM	1933674631280.301948PLM067	PLM067
	3528	2000416398096		1	1	19336746	2019-02-06 02:56:24	2:56:24 AM	1933674631280.301948PLM067	PLM067
	3528	2000416402656		1	1	19336746	2019-02-06 02:56:31	2:56:31 AM	1933674631280.301948PLM067	PLM067
	3528	2000415416722		1	1	19336746	2019-02-06 02:57:00	2:57:00 AM	1933674631280.301948PLM067	PLM067
	3528	2000416402649		1	1	19336746	2019-02-06 02:57:19	2:57:19 AM	1933674631280.301948PLM067	PLM067
	3528	2000416512126		1	1	19336746	2019-02-06 02:57:25	2:57:25 AM	1933674631280.301948PLM067	PLM067
	3528	2000415202035		1	1	19336746	2019-02-06 02:57:29	2:57:29 AM	1933674631280.301948PLM067	PLM067
	3528	2000416402656		1	1	19336746	2019-02-06 02:57:33	2:57:33 AM	1933674631280.301948PLM067	PLM067
	3528	2000416449125		1	1	19336746	2019-02-06 02:57:40	2:57:40 AM	1933674631280.301948PLM067	PLM067
	3528	2000416402656		1	1	19336746	2019-02-06 02:58:17	2:58:17 AM	1933674631280.301948PLM067	PLM067
	3528	2000416401932		1	1	19336746	2019-02-06 02:58:24	2:58:24 AM	1933674631280.301948PLM067	PLM067
	3528	2000416401956		1	1	19336746	2019-02-06 02:58:35	2:58:35 AM	1933674631280.301948PLM067	PLM067
	3528	2000416401956		1	1	19336746	2019-02-06 02:58:36	2:58:36 AM	1933674631280.301948PLM067	PLM067
	3528	2000416401956		1	1	19336746	2019-02-06 02:58:37	2:58:37 AM	1933674631280.301948PLM067	PLM067
	3528	2000416401956		1	1	19336746	2019-02-06 02:58:47	2:58:47 AM	1933674631280.301948PLM067	PLM067
	3528	2000416512171		1	1	19336746	2019-02-06 02:58:53	2:58:53 AM	1933674631280.301948PLM067	PLM067
	3528	2000416397488		1	1	19336746	2019-02-06 02:58:58	2:58:58 AM	1933674631280.301948PLM067	PLM067
	3528	2000416511594		1	1	19336746	2019-02-06 02:59:04	2:59:04 AM	1933674631280.301948PLM067	PLM067
	3528	2000415188483		1	1	19336746	2019-02-06 02:59:10	2:59:10 AM	1933674631280.301948PLM067	PLM067
	3528	2000416401901		1	1	19336746	2019-02-06 02:59:16	2:59:16 AM	1933674631280.301948PLM067	PLM067
	3528	2000415443957		1	1	19336746	2019-02-06 02:59:24	2:59:24 AM	1933674631280.301948PLM067	PLM067
	3528	2000416401956		1	1	19336746	2019-02-06 02:59:32	2:59:32 AM	1933674631280.301948PLM067	PLM067
	3528	2000416390540		1	1	19336746	2019-02-06 02:59:38	2:59:38 AM	1933674631280.301948PLM067	PLM067
	3528	2000416402656		1	1	19336746	2019-02-06 03:00:01	3:00:01 AM	1933674631280.301948PLM067	PLM067
	3528	2000416397938		1	1	19336746	2019-02-06 03:00:07	3:00:07 AM	1933674631280.301948PLM067	PLM067
	3528	2000416512171		1	1	19336746	2019-02-06 03:00:12	3:00:12 AM	1933674631280.301948PLM067	PLM067
	3528	2000416348480		1	1	19336746	2019-02-06 03:00:25	3:00:25 AM	1933674631280.301948PLM067	PLM067
	3528	2000416397969		1	1	19336746	2019-02-06 03:00:29	3:00:29 AM	1933674631280.301948PLM067	PLM067
	3528	2000416401956		1	1	19336746	2019-02-06 03:00:48	3:00:48 AM	1933674631280.301948PLM067	PLM067
	3528	2000416398096		1	1	19336746	2019-02-06 03:00:54	3:00:54 AM	1933674631280.301948PLM067	PLM067
	3528	2000416458219		1	1	19336746	2019-02-06 03:01:01	3:01:01 AM	1933674631280.301948PLM067	PLM067
	3528	2000416401994		1	1	19336746	2019-02-06 03:01:07	3:01:07 AM	1933674631280.301948PLM067	PLM067
	3528	2000416401994		1	1	19336746	2019-02-06 03:01:12	3:01:12 AM	1933674631280.301948PLM067	PLM067
	3528	2000416401994		1	1	19336746	2019-02-06 03:01:19	3:01:19 AM	1933674631280.301948PLM067	PLM067
	3528	2000416401994		1	1	19336746	2019-02-06 03:01:26	3:01:26 AM	1933674631280.301948PLM067	PLM067
	3528	2000416401994		1	1	19336746	2019-02-06 03:01:33	3:01:33 AM	1933674631280.301948PLM067	PLM067
	3528	2000416401994		1	1	19336746	2019-02-06 03:01:40	3:01:40 AM	1933674631280.301948PLM067	PLM067
	3528	2000416401994		1	1	19336746	2019-02-06 03:01:44	3:01:44 AM	1933674631280.301948PLM067	PLM067
	3528	2000416401901		1	1	19336746	2019-02-06 03:01:54	3:01:54 AM	1933674631280.301948PLM067	PLM067
	3528	2000416401901		1	1	19336746	2019-02-06 03:02:01	3:02:01 AM	1933674631280.301948PLM067	PLM067
	3528	2000416401901		1	1	19336746	2019-02-06 03:02:09	3:02:09 AM	1933674631280.301948PLM067	PLM067
	3528	2000416401901		1	1	19336746	2019-02-06 03:02:17	3:02:17 AM	1933674631280.301948PLM067	PLM067
	3528	2000416401901		1	1	19336746	2019-02-06 03:02:22	3:02:22 AM	1933674631280.301948PLM067	PLM067
	3528	2000416401901		1	1	19336746	2019-02-06 03:02:29	3:02:29 AM	1933674631280.301948PLM067	PLM067
	3528	2000416401901		1	1	19336746	2019-02-06 03:02:34	3:02:34 AM	1933674631280.301948PLM067	PLM067
	3528	2000416401901		1	1	19336746	2019-02-06 03:02:38	3:02:38 AM	1933674631280.301948PLM067	PLM067
	3528	2000415487203		1	1	19336746	2019-02-06 03:03:09	3:03:09 AM	1933674631280.301948PLM067	PLM067
	3528	2000416401925		1	1	19336746	2019-02-06 03:03:18	3:03:18 AM	1933674631280.301948PLM067	PLM067
	3528	2000416398102		1	1	19336746	2019-02-06 03:03:21	3:03:21 AM	1933674631280.301948PLM067	PLM067
	3528	2000415207870		1	1	19336746	2019-02-06 03:03:25	3:03:25 AM	1933674631280.301948PLM067	PLM067
	3528	2000416402656		1	1	19336746	2019-02-06 03:03:40	3:03:40 AM	1933674631280.301948PLM067	PLM067
	3528	2000416512522		1	1	19336746	2019-02-06 03:03:46	3:03:46 AM	1933674631280.301948PLM067	PLM067
	3528	2000416686148		1	1	19336746	2019-02-06 03:03:50	3:03:50 AM	1933674631280.301948PLM067	PLM067
	3528	2000416397914		1	1	19336746	2019-02-06 03:03:58	3:03:58 AM	1933674631280.301948PLM067	PLM067
	3528	2000416402656		1	1	19336746	2019-02-06 03:04:13	3:04:13 AM	1933674631280.301948PLM067	PLM067
	3528	2000416401956		1	1	19336746	2019-02-06 03:04:37	3:04:37 AM	1933674631280.301948PLM067	PLM067
	3528	2000416390281		1	1	19336746	2019-02-06 03:05:15	3:05:15 AM	1933674631280.301948PLM067	PLM067
	3528	2000416401888		1	1	19336746	2019-02-06 03:05:19	3:05:19 AM	1933674631280.301948PLM067	PLM067
	3528	2000416458387		1	1	19336746	2019-02-06 03:05:25	3:05:25 AM	1933674631280.301948PLM067	PLM067
	3528	2000416396030		1	1	19336746	2019-02-06 03:05:33	3:05:33 AM	1933674631280.301948PLM067	PLM067
	3528	2000416401956		1	1	19336746	2019-02-06 03:05:37	3:05:37 AM	1933674631280.301948PLM067	PLM067
	3528	2000415188483		1	1	19336746	2019-02-06 03:05:48	3:05:48 AM	1933674631280.301948PLM067	PLM067
	3528	2000416402656		1	1	19336746	2019-02-06 03:05:53	3:05:53 AM	1933674631280.301948PLM067	PLM067
	3528	2000416398102		1	1	19336746	2019-02-06 03:06:07	3:06:07 AM	1933674631280.301948PLM067	PLM067
	3528	2000416402656		1	1	19336746	2019-02-06 03:06:18	3:06:18 AM	1933674631280.301948PLM067	PLM067
	3528	2000416397457		1	1	19336746	2019-02-06 03:06:22	3:06:22 AM	1933674631280.301948PLM067	PLM067
	3528	2000416402656		1	1	19336746	2019-02-06 03:06:27	3:06:27 AM	1933674631280.301948PLM067	PLM067
	3528	2000416512133		1	1	19336746	2019-02-06 03:06:33	3:06:33 AM	1933674631280.301948PLM067	PLM067
	3528	2000416401956		1	1	19336746	2019-02-06 03:06:37	3:06:37 AM	1933674631280.301948PLM067	PLM067
	3528	2000416686131		1	1	19336746	2019-02-06 03:06:42	3:06:42 AM	1933674631280.301948PLM067	PLM067
	3528	2000416401932		1	1	19336746	2019-02-06 03:06:47	3:06:47 AM	1933674631280.301948PLM067	PLM067
	3528	2000416398119		1	1	19336746	2019-02-06 03:06:50	3:06:50 AM	1933674631280.301948PLM067	PLM067
	3528	2000416394715		1	1	19336746	2019-02-06 03:06:53	3:06:53 AM	1933674631280.301948PLM067	PLM067
	3528	2000415245100		1	1	19336746	2019-02-06 03:06:59	3:06:59 AM	1933674631280.301948PLM067	PLM067
	3528	2000416398102		1	1	19336746	2019-02-06 03:07:04	3:07:04 AM	1933674631280.301948PLM067	PLM067
	3528	2000416459513		1	1	19336746	2019-02-06 03:07:41	3:07:41 AM	1933674631280.301948PLM067	PLM067
	3528	2000416401956		1	1	19336746	2019-02-06 03:07:57	3:07:57 AM	1933674631280.301948PLM067	PLM067
	3528	2000416401932		1	1	19336746	2019-02-06 03:08:02	3:08:02 AM	1933674631280.301948PLM067	PLM067
	3528	2000415202035		1	1	19336746	2019-02-06 03:08:07	3:08:07 AM	1933674631280.301948PLM067	PLM067
	3528	2000417152451		1	1	19336746	2019-02-06 03:08:10	3:08:10 AM	1933674631280.301948PLM067	PLM067
	3528	2000416453726		1	1	19336746	2019-02-06 03:08:15	3:08:15 AM	1933674631280.301948PLM067	PLM067
	3528	2000416401932		1	1	19336746	2019-02-06 03:08:30	3:08:30 AM	1933674631280.301948PLM067	PLM067
	3528	2000416401994		1	1	19336746	2019-02-06 03:08:33	3:08:33 AM	1933674631280.301948PLM067	PLM067
	3528	2000416390588		1	1	19336746	2019-02-06 03:08:38	3:08:38 AM	1933674631280.301948PLM067	PLM067
