	5159	7750164000875		22	2	19336746	2019-02-06 03:38:36	3:38 AM	19336746444390.7747401PLM067	PLM067
	5159	7752992001673		27	2	19336746	2019-02-06 03:39:33	3:39 AM	19336746444390.7747401PLM067	PLM067
	5159	7752992001581		23	2	19336746	2019-02-06 03:40:53	3:40 AM	19336746444390.7747401PLM067	PLM067
	5159	7750164000882		28	2	19336746	2019-02-06 03:43:54	3:43 AM	19336746444390.7747401PLM067	PLM067
	5160	2000409237500		10	2	19336746	2019-02-06 03:46:16	3:46 AM	19336746444390.7747401PLM067	PLM067
	5160	7750164000899		15	2	19336746	2019-02-06 03:48:10	3:48 AM	19336746444390.7747401PLM067	PLM067
	5160	2000409316526		26	2	19336746	2019-02-06 03:51:03	3:51 AM	19336746444390.7747401PLM067	PLM067
	5160	2000409237517		42	2	19336746	2019-02-06 03:53:15	3:53 AM	19336746444390.7747401PLM067	PLM067
	5160	7750164000875		19	2	19336746	2019-02-06 03:55:50	3:55 AM	19336746444390.7747401PLM067	PLM067
	5161	2000409237517		26	2	19336746	2019-02-06 03:58:53	3:58 AM	19336746444390.7747401PLM067	PLM067
	5161	2000409316540		39	2	19336746	2019-02-06 04:04:52	4:04 AM	19336746444390.7747401PLM067	PLM067
	5161	2000411255073		54	2	19336746	2019-02-06 04:08:05	4:08 AM	19336746444390.7747401PLM067	PLM067
	5161	7752992000775		8	2	19336746	2019-02-06 04:09:17	4:09 AM	19336746444390.7747401PLM067	PLM067
	5162	2000409237494		64	2	19336746	2019-02-06 04:14:10	4:14 AM	19336746444390.7747401PLM067	PLM067
	5162	2000409237494		1	2	19336746	2019-02-06 04:14:44	4:14 AM	19336746444390.7747401PLM067	PLM067
	5162	2000413073576		24	2	19336746	2019-02-06 04:18:13	4:18 AM	19336746444390.7747401PLM067	PLM067
	5162	2000413073576		3	2	19336746	2019-02-06 04:18:54	4:18 AM	19336746444390.7747401PLM067	PLM067
	5162	2000413073514		15	2	19336746	2019-02-06 04:20:36	4:20 AM	19336746444390.7747401PLM067	PLM067
	5162	2000413073538		26	2	19336746	2019-02-06 04:22:58	4:22 AM	19336746444390.7747401PLM067	PLM067
	5162	2000413073545		29	2	19336746	2019-02-06 04:25:15	4:25 AM	19336746444390.7747401PLM067	PLM067
	5162	2000409237487		9	2	19336746	2019-02-06 04:26:38	4:26 AM	19336746444390.7747401PLM067	PLM067
	5162	7750164000912		2	2	19336746	2019-02-06 04:28:33	4:28 AM	19336746444390.7747401PLM067	PLM067
	5162	7752992000812		1	2	19336746	2019-02-06 04:28:43	4:28 AM	19336746444390.7747401PLM067	PLM067
	5162	7750164000882		2	2	19336746	2019-02-06 04:31:25	4:31 AM	19336746444390.7747401PLM067	PLM067
	5162	2000409316540		3	2	19336746	2019-02-06 04:32:47	4:32 AM	19336746444390.7747401PLM067	PLM067
	5162	2000409316540		1	2	19336746	2019-02-06 04:33:16	4:33 AM	19336746444390.7747401PLM067	PLM067
	5162	7750164000820		1	2	19336746	2019-02-06 04:33:25	4:33 AM	19336746444390.7747401PLM067	PLM067
	5162	2000409237517		1	2	19336746	2019-02-06 04:33:54	4:33 AM	19336746444390.7747401PLM067	PLM067
	5162	2000409237531		1	2	19336746	2019-02-06 04:34:03	4:34 AM	19336746444390.7747401PLM067	PLM067
	5162	7750164000912		1	2	19336746	2019-02-06 04:34:10	4:34 AM	19336746444390.7747401PLM067	PLM067
	5162	7750164000882		1	2	19336746	2019-02-06 04:34:15	4:34 AM	19336746444390.7747401PLM067	PLM067
	5162	2000409237517		1	2	19336746	2019-02-06 04:34:21	4:34 AM	19336746444390.7747401PLM067	PLM067
	5162	7750164000936		1	2	19336746	2019-02-06 04:34:37	4:34 AM	19336746444390.7747401PLM067	PLM067
	5162	2000409237487		1	2	19336746	2019-02-06 04:34:42	4:34 AM	19336746444390.7747401PLM067	PLM067
	5162	2000409316540		1	2	19336746	2019-02-06 04:34:56	4:34 AM	19336746444390.7747401PLM067	PLM067
	5162	7752992000812		1	2	19336746	2019-02-06 04:35:02	4:35 AM	19336746444390.7747401PLM067	PLM067
	5162	7750427002585		2	2	19336746	2019-02-06 04:35:13	4:35 AM	19336746444390.7747401PLM067	PLM067
	5162	2000409237494		1	2	19336746	2019-02-06 04:35:45	4:35 AM	19336746444390.7747401PLM067	PLM067
	5162	2000413073514		1	2	19336746	2019-02-06 04:36:28	4:36 AM	19336746444390.7747401PLM067	PLM067
	5162	7750164000882		1	2	19336746	2019-02-06 04:36:48	4:36 AM	19336746444390.7747401PLM067	PLM067
