	5757	7613035860858		261	2	44112387	2019-02-06 04:22:03	4:22 AM	44112387424430.7607236PLM024	PLM024
	5758	2000403755307		149	2	44112387	2019-02-06 04:22:22	4:22 AM	44112387424430.7607236PLM024	PLM024
	5759	7751160000425		156	2	44112387	2019-02-06 04:23:19	4:23 AM	44112387424430.7607236PLM024	PLM024
	5760	2006405465541		155	2	44112387	2019-02-06 04:23:47	4:23 AM	44112387424430.7607236PLM024	PLM024
	5761	2000406987361		860	2	44112387	2019-02-06 04:24:14	4:24 AM	44112387424430.7607236PLM024	PLM024
