	4704	7750408001675		161	2	46294267	2019-02-06 02:39:48	2:39 AM	4629426731310.04535276PLM072	PLM072
	3482	7751271021975		900	2	46294267	2019-02-06 02:40:10	2:40 AM	4629426731310.04535276PLM072	PLM072
	3482	7751271021975		900	2	46294267	2019-02-06 02:40:12	2:40 AM	4629426731310.04535276PLM072	PLM072
	3482	7751271021975		466	2	46294267	2019-02-06 02:40:18	2:40 AM	4629426731310.04535276PLM072	PLM072
	5658	7751271018838		266	2	46294267	2019-02-06 02:40:37	2:40 AM	4629426731310.04535276PLM072	PLM072
	4703	7750408076161		168	2	46294267	2019-02-06 02:41:30	2:41 AM	4629426731310.04535276PLM072	PLM072
	4703	7750408000449		72	2	46294267	2019-02-06 02:41:36	2:41 AM	4629426731310.04535276PLM072	PLM072
	4702	7750408076161		89	2	46294267	2019-02-06 02:42:37	2:42 AM	4629426731310.04535276PLM072	PLM072
	4702	7750408000449		63	2	46294267	2019-02-06 02:43:06	2:43 AM	4629426731310.04535276PLM072	PLM072
	4701	7750885006293		17	2	46294267	2019-02-06 02:43:43	2:43 AM	4629426731310.04535276PLM072	PLM072
	4701	7750118000012		20	2	46294267	2019-02-06 02:43:53	2:43 AM	4629426731310.04535276PLM072	PLM072
	4701	7750885005821		74	2	46294267	2019-02-06 02:44:35	2:44 AM	4629426731310.04535276PLM072	PLM072
	4701	7750408000449		44	2	46294267	2019-02-06 02:44:46	2:44 AM	4629426731310.04535276PLM072	PLM072
	4705	7750408001675		294	2	46294267	2019-02-06 02:47:56	2:47 AM	4629426731310.04535276PLM072	PLM072
	4705	2000406944890		613	2	46294267	2019-02-06 02:51:11	2:51 AM	4629426731310.04535276PLM072	PLM072
	4707	2000409170876		111	2	46294267	2019-02-06 02:52:45	2:52 AM	4629426731310.04535276PLM072	PLM072
	4707	2000406944883		85	2	46294267	2019-02-06 02:53:43	2:53 AM	4629426731310.04535276PLM072	PLM072
	4708	2000409170883		8	2	46294267	2019-02-06 02:54:12	2:54 AM	4629426731310.04535276PLM072	PLM072
	4708	2000406944883		94	2	46294267	2019-02-06 02:54:22	2:54 AM	4629426731310.04535276PLM072	PLM072
	4709	2000406944883		189	2	46294267	2019-02-06 02:55:42	2:55 AM	4629426731310.04535276PLM072	PLM072
	4709	2000411617215		8	2	46294267	2019-02-06 02:55:55	2:55 AM	4629426731310.04535276PLM072	PLM072
	4706	2000409170876		48	2	46294267	2019-02-06 02:56:46	2:56 AM	4629426731310.04535276PLM072	PLM072
	4706	2000411774253		25	2	46294267	2019-02-06 02:57:07	2:57 AM	4629426731310.04535276PLM072	PLM072
	4706	2000411774260		166	2	46294267	2019-02-06 02:58:52	2:58 AM	4629426731310.04535276PLM072	PLM072
	4710	2000406944890		900	2	46294267	2019-02-06 03:02:09	3:02 AM	4629426731310.04535276PLM072	PLM072
	4710	2000406944890		583	2	46294267	2019-02-06 03:02:16	3:02 AM	4629426731310.04535276PLM072	PLM072
	4719	2000403447295		29	2	46294267	2019-02-06 03:03:07	3:03 AM	4629426731310.04535276PLM072	PLM072
	4719	7754487000925		15	2	46294267	2019-02-06 03:03:24	3:03 AM	4629426731310.04535276PLM072	PLM072
	4719	7754487121415		25	2	46294267	2019-02-06 03:03:36	3:03 AM	4629426731310.04535276PLM072	PLM072
	4720	2000406940540		12	2	46294267	2019-02-06 03:04:38	3:04 AM	4629426731310.04535276PLM072	PLM072
	4720	2000406940472		29	2	46294267	2019-02-06 03:04:59	3:04 AM	4629426731310.04535276PLM072	PLM072
	4720	7752414002448		23	2	46294267	2019-02-06 03:07:01	3:07 AM	4629426731310.04535276PLM072	PLM072
	4720	2000415147343		38	2	46294267	2019-02-06 03:07:14	3:07 AM	4629426731310.04535276PLM072	PLM072
	4720	2000415147350		10	2	46294267	2019-02-06 03:08:40	3:08 AM	4629426731310.04535276PLM072	PLM072
	4720	2000415147336		34	2	46294267	2019-02-06 03:09:05	3:09 AM	4629426731310.04535276PLM072	PLM072
	4718	2000403447295		14	2	46294267	2019-02-06 03:10:26	3:10 AM	4629426731310.04535276PLM072	PLM072
	4718	7754487000925		33	2	46294267	2019-02-06 03:10:41	3:10 AM	4629426731310.04535276PLM072	PLM072
	4718	7754487121415		15	2	46294267	2019-02-06 03:10:59	3:10 AM	4629426731310.04535276PLM072	PLM072
