	5601	2000417646875		45	2	47142818	2019-02-06 03:34:30	3:34 AM	47142818418330.2895625PLM022	PLM022
	5601	2000403440968		1	2	47142818	2019-02-06 03:34:34	3:34 AM	47142818418330.2895625PLM022	PLM022
	5601	2000409124848		1	2	47142818	2019-02-06 03:34:45	3:34 AM	47142818418330.2895625PLM022	PLM022
	5601	2000417130893		1	2	47142818	2019-02-06 03:35:39	3:35 AM	47142818418330.2895625PLM022	PLM022
	5602	2000417646875		15	2	47142818	2019-02-06 03:37:13	3:37 AM	47142818418330.2895625PLM022	PLM022
	5603	2000417646875		29	2	47142818	2019-02-06 03:39:23	3:39 AM	47142818418330.2895625PLM022	PLM022
	5605	2000417646875		6	2	47142818	2019-02-06 03:39:48	3:39 AM	47142818418330.2895625PLM022	PLM022
	5605	2000417130893		3	2	47142818	2019-02-06 03:39:58	3:39 AM	47142818418330.2895625PLM022	PLM022
	5606	2000417646882		14	2	47142818	2019-02-06 03:41:04	3:41 AM	47142818418330.2895625PLM022	PLM022
	5606	2000417130893		10	2	47142818	2019-02-06 03:41:17	3:41 AM	47142818418330.2895625PLM022	PLM022
	5607	2000417130893		1	2	47142818	2019-02-06 03:41:36	3:41 AM	47142818418330.2895625PLM022	PLM022
	5607	2000416205929		1	2	47142818	2019-02-06 03:41:43	3:41 AM	47142818418330.2895625PLM022	PLM022
	5607	2000416205943		1	2	47142818	2019-02-06 03:41:45	3:41 AM	47142818418330.2895625PLM022	PLM022
	5607	2000409124848		1	2	47142818	2019-02-06 03:42:08	3:42 AM	47142818418330.2895625PLM022	PLM022
	5608	2000409124848		6	2	47142818	2019-02-06 03:42:33	3:42 AM	47142818418330.2895625PLM022	PLM022
	5608	2000417130893		1	2	47142818	2019-02-06 03:42:35	3:42 AM	47142818418330.2895625PLM022	PLM022
	5609	2000417130893		5	2	47142818	2019-02-06 03:42:59	3:42 AM	47142818418330.2895625PLM022	PLM022
	5609	2000409124848		7	2	47142818	2019-02-06 03:43:30	3:43 AM	47142818418330.2895625PLM022	PLM022
	5610	2000409124848		11	2	47142818	2019-02-06 03:44:00	3:44 AM	47142818418330.2895625PLM022	PLM022
	5610	7751297000282		1	2	47142818	2019-02-06 03:44:05	3:44 AM	47142818418330.2895625PLM022	PLM022
	5610	2000417130893		1	2	47142818	2019-02-06 03:44:09	3:44 AM	47142818418330.2895625PLM022	PLM022
	5611	2000409124848		11	2	47142818	2019-02-06 03:44:32	3:44 AM	47142818418330.2895625PLM022	PLM022
	5611	7751297000282		1	2	47142818	2019-02-06 03:44:41	3:44 AM	47142818418330.2895625PLM022	PLM022
	5612	2000409124848		11	2	47142818	2019-02-06 03:45:09	3:45 AM	47142818418330.2895625PLM022	PLM022
	5612	7751297000282		4	2	47142818	2019-02-06 03:45:23	3:45 AM	47142818418330.2895625PLM022	PLM022
	5613	7751297000282		7	2	47142818	2019-02-06 03:45:51	3:45 AM	47142818418330.2895625PLM022	PLM022
	5613	7751503000686		3	2	47142818	2019-02-06 03:45:58	3:45 AM	47142818418330.2895625PLM022	PLM022
	5614	7751297000282		11	2	47142818	2019-02-06 03:46:24	3:46 AM	47142818418330.2895625PLM022	PLM022
	5614	7751503000686		1	2	47142818	2019-02-06 03:46:30	3:46 AM	47142818418330.2895625PLM022	PLM022
	5615	7751297000282		11	2	47142818	2019-02-06 03:46:56	3:46 AM	47142818418330.2895625PLM022	PLM022
	5616	7750182003346		28	2	47142818	2019-02-06 03:47:36	3:47 AM	47142818418330.2895625PLM022	PLM022
	5616	7750236000185		10	2	47142818	2019-02-06 03:48:24	3:48 AM	47142818418330.2895625PLM022	PLM022
	5617	7750182003346		29	2	47142818	2019-02-06 03:49:20	3:49 AM	47142818418330.2895625PLM022	PLM022
	5617	7750236000185		20	2	47142818	2019-02-06 03:49:54	3:49 AM	47142818418330.2895625PLM022	PLM022
	5618	7750182003346		18	2	47142818	2019-02-06 03:50:29	3:50 AM	47142818418330.2895625PLM022	PLM022
	5618	7750236000185		8	2	47142818	2019-02-06 03:51:41	3:51 AM	47142818418330.2895625PLM022	PLM022
	5618	7750236000185		8	2	47142818	2019-02-06 03:51:49	3:51 AM	47142818418330.2895625PLM022	PLM022
	5619	7750182003346		11	2	47142818	2019-02-06 03:52:29	3:52 AM	47142818418330.2895625PLM022	PLM022
	5619	7750236000185		8	2	47142818	2019-02-06 03:52:34	3:52 AM	47142818418330.2895625PLM022	PLM022
	5619	7750236000185		8	2	47142818	2019-02-06 03:52:39	3:52 AM	47142818418330.2895625PLM022	PLM022
	5620	7750236000185		7	2	47142818	2019-02-06 03:53:08	3:53 AM	47142818418330.2895625PLM022	PLM022
	5620	2000415182313		1	2	47142818	2019-02-06 03:53:12	3:53 AM	47142818418330.2895625PLM022	PLM022
	5620	2000411785334		1	2	47142818	2019-02-06 03:53:17	3:53 AM	47142818418330.2895625PLM022	PLM022
	5620	7751271017718		35	2	47142818	2019-02-06 03:53:58	3:53 AM	47142818418330.2895625PLM022	PLM022
	5620	7750670011686		8	2	47142818	2019-02-06 03:54:31	3:54 AM	47142818418330.2895625PLM022	PLM022
	5621	7750236000185		9	2	47142818	2019-02-06 03:55:01	3:55 AM	47142818418330.2895625PLM022	PLM022
	5621	7751271017718		32	2	47142818	2019-02-06 03:55:26	3:55 AM	47142818418330.2895625PLM022	PLM022
	5621	7750670011686		4	2	47142818	2019-02-06 03:55:40	3:55 AM	47142818418330.2895625PLM022	PLM022
	5621	2000416897063		1	2	47142818	2019-02-06 03:55:47	3:55 AM	47142818418330.2895625PLM022	PLM022
	5622	7750236000185		8	2	47142818	2019-02-06 03:56:19	3:56 AM	47142818418330.2895625PLM022	PLM022
	5622	7750236000185		8	2	47142818	2019-02-06 03:56:24	3:56 AM	47142818418330.2895625PLM022	PLM022
	5622	7750236000185		8	2	47142818	2019-02-06 03:56:31	3:56 AM	47142818418330.2895625PLM022	PLM022
	5622	7751271016216		20	2	47142818	2019-02-06 03:56:53	3:56 AM	47142818418330.2895625PLM022	PLM022
	5622	7750670011686		4	2	47142818	2019-02-06 03:57:16	3:57 AM	47142818418330.2895625PLM022	PLM022
	5623	7750236000185		8	2	47142818	2019-02-06 03:57:40	3:57 AM	47142818418330.2895625PLM022	PLM022
	5623	7750236000185		8	2	47142818	2019-02-06 03:57:45	3:57 AM	47142818418330.2895625PLM022	PLM022
	5623	7751271016216		31	2	47142818	2019-02-06 03:58:23	3:58 AM	47142818418330.2895625PLM022	PLM022
	5623	7751271016186		8	2	47142818	2019-02-06 03:58:33	3:58 AM	47142818418330.2895625PLM022	PLM022
	5623	7750236000185		8	2	47142818	2019-02-06 03:59:11	3:59 AM	47142818418330.2895625PLM022	PLM022
	5624	2000404719131		11	2	47142818	2019-02-06 04:00:00	4:00 AM	47142818418330.2895625PLM022	PLM022
	5624	7750298000727		5	2	47142818	2019-02-06 04:00:05	4:00 AM	47142818418330.2895625PLM022	PLM022
	5624	7750182004893		17	2	47142818	2019-02-06 04:00:16	4:00 AM	47142818418330.2895625PLM022	PLM022
	5625	2000404719131		15	2	47142818	2019-02-06 04:00:59	4:00 AM	47142818418330.2895625PLM022	PLM022
	5625	7750298000727		7	2	47142818	2019-02-06 04:01:06	4:01 AM	47142818418330.2895625PLM022	PLM022
	5625	7750182004893		20	2	47142818	2019-02-06 04:01:19	4:01 AM	47142818418330.2895625PLM022	PLM022
	5626	2000404719131		17	2	47142818	2019-02-06 04:02:03	4:02 AM	47142818418330.2895625PLM022	PLM022
	5626	7750298000727		6	2	47142818	2019-02-06 04:02:16	4:02 AM	47142818418330.2895625PLM022	PLM022
	5626	7750182004893		17	2	47142818	2019-02-06 04:02:43	4:02 AM	47142818418330.2895625PLM022	PLM022
	5627	7750182001236		24	2	47142818	2019-02-06 04:04:11	4:04 AM	47142818418330.2895625PLM022	PLM022
	5627	7750182001205		15	2	47142818	2019-02-06 04:04:21	4:04 AM	47142818418330.2895625PLM022	PLM022
	5628	7750182001236		24	2	47142818	2019-02-06 04:04:52	4:04 AM	47142818418330.2895625PLM022	PLM022
	5628	7750182001205		22	2	47142818	2019-02-06 04:05:19	4:05 AM	47142818418330.2895625PLM022	PLM022
	5629	7750182001236		24	2	47142818	2019-02-06 04:06:09	4:06 AM	47142818418330.2895625PLM022	PLM022
	5629	7750182001205		29	2	47142818	2019-02-06 04:06:48	4:06 AM	47142818418330.2895625PLM022	PLM022
	5630	7750182001236		18	2	47142818	2019-02-06 04:07:26	4:07 AM	47142818418330.2895625PLM022	PLM022
	5630	7750182001205		30	2	47142818	2019-02-06 04:07:46	4:07 AM	47142818418330.2895625PLM022	PLM022
	5631	7750182001205		15	2	47142818	2019-02-06 04:08:12	4:08 AM	47142818418330.2895625PLM022	PLM022
	5631	7750182003650		9	2	47142818	2019-02-06 04:09:09	4:09 AM	47142818418330.2895625PLM022	PLM022
	5631	7752748008697		14	2	47142818	2019-02-06 04:10:27	4:10 AM	47142818418330.2895625PLM022	PLM022
	5632	7750182001205		14	2	47142818	2019-02-06 04:11:00	4:11 AM	47142818418330.2895625PLM022	PLM022
	5632	7750182003650		12	2	47142818	2019-02-06 04:11:44	4:11 AM	47142818418330.2895625PLM022	PLM022
	5632	7752748008697		18	2	47142818	2019-02-06 04:12:02	4:12 AM	47142818418330.2895625PLM022	PLM022
	5633	7750182001205		15	2	47142818	2019-02-06 04:12:29	4:12 AM	47142818418330.2895625PLM022	PLM022
	5633	7750182003650		10	2	47142818	2019-02-06 04:13:02	4:13 AM	47142818418330.2895625PLM022	PLM022
	5633	7750182003650		3	2	47142818	2019-02-06 04:15:40	4:15 AM	47142818418330.2895625PLM022	PLM022
	5633	7752748008697		9	2	47142818	2019-02-06 04:15:59	4:15 AM	47142818418330.2895625PLM022	PLM022
	5633	7750236000185		1	2	47142818	2019-02-06 04:16:04	4:16 AM	47142818418330.2895625PLM022	PLM022
	5634	7750182001205		15	2	47142818	2019-02-06 04:17:11	4:17 AM	47142818418330.2895625PLM022	PLM022
	5634	7750182003650		8	2	47142818	2019-02-06 04:17:34	4:17 AM	47142818418330.2895625PLM022	PLM022
	5634	7752748008697		10	2	47142818	2019-02-06 04:17:56	4:17 AM	47142818418330.2895625PLM022	PLM022
	5634	7750182001205		15	2	47142818	2019-02-06 04:18:09	4:18 AM	47142818418330.2895625PLM022	PLM022
