	5785	2000407241486		71	2	47295452	2019-02-06 05:41:27	5:41 AM	47295452543210.8626193PLM055	PLM055
	5785	7702031575337		36	2	47295452	2019-02-06 05:41:48	5:41 AM	47295452543210.8626193PLM055	PLM055
	5784	7702425804753		96	2	47295452	2019-02-06 05:42:09	5:42 AM	47295452543210.8626193PLM055	PLM055
	5784	2000412150278		66	2	47295452	2019-02-06 05:43:04	5:43 AM	47295452543210.8626193PLM055	PLM055
