	4043	2000415653417		6	2	47295452	2019-02-06 04:00:32	4:00 AM	47295452439260.01401764PLM055	PLM055
	4043	2000415653271		6	2	47295452	2019-02-06 04:00:36	4:00 AM	47295452439260.01401764PLM055	PLM055
	4043	2000415654223		1	2	47295452	2019-02-06 04:00:41	4:00 AM	47295452439260.01401764PLM055	PLM055
	4043	2000414604021		2	2	47295452	2019-02-06 04:00:43	4:00 AM	47295452439260.01401764PLM055	PLM055
	4043	2000416897032		10	2	47295452	2019-02-06 04:00:53	4:00 AM	47295452439260.01401764PLM055	PLM055
	4043	2000416897049		8	2	47295452	2019-02-06 04:01:07	4:01 AM	47295452439260.01401764PLM055	PLM055
	4043	2000416895649		12	2	47295452	2019-02-06 04:01:21	4:01 AM	47295452439260.01401764PLM055	PLM055
	4044	2000415653448		5	2	47295452	2019-02-06 04:01:36	4:01 AM	47295452439260.01401764PLM055	PLM055
	4044	2000414603994		3	2	47295452	2019-02-06 04:01:39	4:01 AM	47295452439260.01401764PLM055	PLM055
	4044	2000415653271		6	2	47295452	2019-02-06 04:01:43	4:01 AM	47295452439260.01401764PLM055	PLM055
	4044	2000416205905		3	2	47295452	2019-02-06 04:01:48	4:01 AM	47295452439260.01401764PLM055	PLM055
	4044	2000416897056		7	2	47295452	2019-02-06 04:01:54	4:01 AM	47295452439260.01401764PLM055	PLM055
	4044	2000416897056		10	2	47295452	2019-02-06 04:02:03	4:02 AM	47295452439260.01401764PLM055	PLM055
	4044	2000416897032		1	2	47295452	2019-02-06 04:02:13	4:02 AM	47295452439260.01401764PLM055	PLM055
	4044	2000416897049		9	2	47295452	2019-02-06 04:02:21	4:02 AM	47295452439260.01401764PLM055	PLM055
	4044	2000416897032		6	2	47295452	2019-02-06 04:02:36	4:02 AM	47295452439260.01401764PLM055	PLM055
	4045	2000415653448		8	2	47295452	2019-02-06 04:02:53	4:02 AM	47295452439260.01401764PLM055	PLM055
	4045	2000415653271		9	2	47295452	2019-02-06 04:03:03	4:03 AM	47295452439260.01401764PLM055	PLM055
	4045	2000415654223		6	2	47295452	2019-02-06 04:03:08	4:03 AM	47295452439260.01401764PLM055	PLM055
	4045	2000416897056		1	2	47295452	2019-02-06 04:03:10	4:03 AM	47295452439260.01401764PLM055	PLM055
	4045	2000416895649		4	2	47295452	2019-02-06 04:03:15	4:03 AM	47295452439260.01401764PLM055	PLM055
	4045	2000416895625		1	2	47295452	2019-02-06 04:03:19	4:03 AM	47295452439260.01401764PLM055	PLM055
	4045	2000416895649		1	2	47295452	2019-02-06 04:03:25	4:03 AM	47295452439260.01401764PLM055	PLM055
	4045	2000416895625		4	2	47295452	2019-02-06 04:03:33	4:03 AM	47295452439260.01401764PLM055	PLM055
	4045	2000415648963		2	2	47295452	2019-02-06 04:03:39	4:03 AM	47295452439260.01401764PLM055	PLM055
	4046	2000415653417		10	2	47295452	2019-02-06 04:04:11	4:04 AM	47295452439260.01401764PLM055	PLM055
	4046	2000416205998		1	2	47295452	2019-02-06 04:04:15	4:04 AM	47295452439260.01401764PLM055	PLM055
	4046	2000415653240		7	2	47295452	2019-02-06 04:04:20	4:04 AM	47295452439260.01401764PLM055	PLM055
	4046	2000414510025		1	2	47295452	2019-02-06 04:04:24	4:04 AM	47295452439260.01401764PLM055	PLM055
	4046	2000416897070		1	2	47295452	2019-02-06 04:04:28	4:04 AM	47295452439260.01401764PLM055	PLM055
	4046	2000415654186		4	2	47295452	2019-02-06 04:04:33	4:04 AM	47295452439260.01401764PLM055	PLM055
	4046	2000414604021		1	2	47295452	2019-02-06 04:04:35	4:04 AM	47295452439260.01401764PLM055	PLM055
	4046	2000415653271		1	2	47295452	2019-02-06 04:04:38	4:04 AM	47295452439260.01401764PLM055	PLM055
	4046	2000416897025		1	2	47295452	2019-02-06 04:04:41	4:04 AM	47295452439260.01401764PLM055	PLM055
	4046	2000416897056		1	2	47295452	2019-02-06 04:04:44	4:04 AM	47295452439260.01401764PLM055	PLM055
	4046	2000416895649		5	2	47295452	2019-02-06 04:04:54	4:04 AM	47295452439260.01401764PLM055	PLM055
	4046	2000415421061		16	2	47295452	2019-02-06 04:05:02	4:05 AM	47295452439260.01401764PLM055	PLM055
	4046	2000415643555		1	2	47295452	2019-02-06 04:05:08	4:05 AM	47295452439260.01401764PLM055	PLM055
	4046	2000416895625		5	2	47295452	2019-02-06 04:05:13	4:05 AM	47295452439260.01401764PLM055	PLM055
	4036	2000416897070		10	2	47295452	2019-02-06 04:06:01	4:06 AM	47295452439260.01401764PLM055	PLM055
	4036	2000415184560		7	2	47295452	2019-02-06 04:06:08	4:06 AM	47295452439260.01401764PLM055	PLM055
	4036	2000415421078		6	2	47295452	2019-02-06 04:06:15	4:06 AM	47295452439260.01401764PLM055	PLM055
	4036	2000415184584		7	2	47295452	2019-02-06 04:06:25	4:06 AM	47295452439260.01401764PLM055	PLM055
	4036	2000415184584		10	2	47295452	2019-02-06 04:06:42	4:06 AM	47295452439260.01401764PLM055	PLM055
	4036	2000415653424		5	2	47295452	2019-02-06 04:06:56	4:06 AM	47295452439260.01401764PLM055	PLM055
	4036	2000415653431		6	2	47295452	2019-02-06 04:07:10	4:07 AM	47295452439260.01401764PLM055	PLM055
	4036	2000415653516		2	2	47295452	2019-02-06 04:07:21	4:07 AM	47295452439260.01401764PLM055	PLM055
	4036	2000415654100		7	2	47295452	2019-02-06 04:07:39	4:07 AM	47295452439260.01401764PLM055	PLM055
	4037	2000415421061		15	2	47295452	2019-02-06 04:08:51	4:08 AM	47295452439260.01401764PLM055	PLM055
	4037	2000415184607		7	2	47295452	2019-02-06 04:08:57	4:08 AM	47295452439260.01401764PLM055	PLM055
	4037	2000415184607		7	2	47295452	2019-02-06 04:09:03	4:09 AM	47295452439260.01401764PLM055	PLM055
	4037	2000415184607		5	2	47295452	2019-02-06 04:09:08	4:09 AM	47295452439260.01401764PLM055	PLM055
	4037	2000415654186		8	2	47295452	2019-02-06 04:09:17	4:09 AM	47295452439260.01401764PLM055	PLM055
	4037	2000415654186		9	2	47295452	2019-02-06 04:09:24	4:09 AM	47295452439260.01401764PLM055	PLM055
	4037	2000415654186		5	2	47295452	2019-02-06 04:09:31	4:09 AM	47295452439260.01401764PLM055	PLM055
	4037	2000415653431		3	2	47295452	2019-02-06 04:09:37	4:09 AM	47295452439260.01401764PLM055	PLM055
	4037	2000415653431		6	2	47295452	2019-02-06 04:09:47	4:09 AM	47295452439260.01401764PLM055	PLM055
	4037	2000415654100		8	2	47295452	2019-02-06 04:09:54	4:09 AM	47295452439260.01401764PLM055	PLM055
	4038	2000416205929		7	2	47295452	2019-02-06 04:10:16	4:10 AM	47295452439260.01401764PLM055	PLM055
	4038	2000416205882		6	2	47295452	2019-02-06 04:10:25	4:10 AM	47295452439260.01401764PLM055	PLM055
	4038	2000416205967		14	2	47295452	2019-02-06 04:10:46	4:10 AM	47295452439260.01401764PLM055	PLM055
	4038	2000416205943		1	2	47295452	2019-02-06 04:10:48	4:10 AM	47295452439260.01401764PLM055	PLM055
	4038	2000416205981		6	2	47295452	2019-02-06 04:10:54	4:10 AM	47295452439260.01401764PLM055	PLM055
	4038	2000416205936		6	2	47295452	2019-02-06 04:11:03	4:11 AM	47295452439260.01401764PLM055	PLM055
	4038	2000416381234		10	2	47295452	2019-02-06 04:11:17	4:11 AM	47295452439260.01401764PLM055	PLM055
	4038	2000416381258		13	2	47295452	2019-02-06 04:11:46	4:11 AM	47295452439260.01401764PLM055	PLM055
	4038	2000414311356		1	2	47295452	2019-02-06 04:11:55	4:11 AM	47295452439260.01401764PLM055	PLM055
	4038	2000416381258		1	2	47295452	2019-02-06 04:11:59	4:11 AM	47295452439260.01401764PLM055	PLM055
	4038	2000416897070		6	2	47295452	2019-02-06 04:12:11	4:12 AM	47295452439260.01401764PLM055	PLM055
	4038	2000415653431		9	2	47295452	2019-02-06 04:12:19	4:12 AM	47295452439260.01401764PLM055	PLM055
	4038	2000415653226		1	2	47295452	2019-02-06 04:12:21	4:12 AM	47295452439260.01401764PLM055	PLM055
	4038	2000415654186		7	2	47295452	2019-02-06 04:12:28	4:12 AM	47295452439260.01401764PLM055	PLM055
	4038	2000416205998		1	2	47295452	2019-02-06 04:12:31	4:12 AM	47295452439260.01401764PLM055	PLM055
	4038	2000415654124		9	2	47295452	2019-02-06 04:12:37	4:12 AM	47295452439260.01401764PLM055	PLM055
	4039	2000416381258		11	2	47295452	2019-02-06 04:13:27	4:13 AM	47295452439260.01401764PLM055	PLM055
	4039	2000416381210		12	2	47295452	2019-02-06 04:13:42	4:13 AM	47295452439260.01401764PLM055	PLM055
	4039	2000416381234		9	2	47295452	2019-02-06 04:13:54	4:13 AM	47295452439260.01401764PLM055	PLM055
	4039	2000416897070		1	2	47295452	2019-02-06 04:13:58	4:13 AM	47295452439260.01401764PLM055	PLM055
	4039	2000416205929		1	2	47295452	2019-02-06 04:14:03	4:14 AM	47295452439260.01401764PLM055	PLM055
	4039	2000416897070		1	2	47295452	2019-02-06 04:14:20	4:14 AM	47295452439260.01401764PLM055	PLM055
	4039	2000416381258		2	2	47295452	2019-02-06 04:14:33	4:14 AM	47295452439260.01401764PLM055	PLM055
	4039	2000416381241		9	2	47295452	2019-02-06 04:14:42	4:14 AM	47295452439260.01401764PLM055	PLM055
	4039	2000416897070		7	2	47295452	2019-02-06 04:15:04	4:15 AM	47295452439260.01401764PLM055	PLM055
	4039	2000416381227		1	2	47295452	2019-02-06 04:15:06	4:15 AM	47295452439260.01401764PLM055	PLM055
	4039	2000415653424		1	2	47295452	2019-02-06 04:15:11	4:15 AM	47295452439260.01401764PLM055	PLM055
	4039	2000416205882		1	2	47295452	2019-02-06 04:15:16	4:15 AM	47295452439260.01401764PLM055	PLM055
	4039	2000416205875		5	2	47295452	2019-02-06 04:15:30	4:15 AM	47295452439260.01401764PLM055	PLM055
	4039	2000416205974		7	2	47295452	2019-02-06 04:15:37	4:15 AM	47295452439260.01401764PLM055	PLM055
	4039	2000416205905		1	2	47295452	2019-02-06 04:15:44	4:15 AM	47295452439260.01401764PLM055	PLM055
	4039	2000416205905		1	2	47295452	2019-02-06 04:15:47	4:15 AM	47295452439260.01401764PLM055	PLM055
	4039	2000416897070		6	2	47295452	2019-02-06 04:15:56	4:15 AM	47295452439260.01401764PLM055	PLM055
	4039	2000415653431		6	2	47295452	2019-02-06 04:16:00	4:16 AM	47295452439260.01401764PLM055	PLM055
	4039	2000415653417		1	2	47295452	2019-02-06 04:16:02	4:16 AM	47295452439260.01401764PLM055	PLM055
	4039	2000416897070		1	2	47295452	2019-02-06 04:16:05	4:16 AM	47295452439260.01401764PLM055	PLM055
	4039	2000415653493		7	2	47295452	2019-02-06 04:16:13	4:16 AM	47295452439260.01401764PLM055	PLM055
	4039	2000415654124		9	2	47295452	2019-02-06 04:16:24	4:16 AM	47295452439260.01401764PLM055	PLM055
	4023	2000415649045		5	2	47295452	2019-02-06 04:19:20	4:19 AM	47295452439260.01401764PLM055	PLM055
	4023	2000415648987		1	2	47295452	2019-02-06 04:19:31	4:19 AM	47295452439260.01401764PLM055	PLM055
	4023	2000414491997		2	2	47295452	2019-02-06 04:19:36	4:19 AM	47295452439260.01401764PLM055	PLM055
	4023	2000415649045		2	2	47295452	2019-02-06 04:19:40	4:19 AM	47295452439260.01401764PLM055	PLM055
	4023	2000415649045		1	2	47295452	2019-02-06 04:19:50	4:19 AM	47295452439260.01401764PLM055	PLM055
	4023	2000415649007		1	2	47295452	2019-02-06 04:20:04	4:20 AM	47295452439260.01401764PLM055	PLM055
	4023	2000414491997		5	2	47295452	2019-02-06 04:20:20	4:20 AM	47295452439260.01401764PLM055	PLM055
	4023	2000415648970		1	2	47295452	2019-02-06 04:20:25	4:20 AM	47295452439260.01401764PLM055	PLM055
	4023	2000414492024		1	2	47295452	2019-02-06 04:20:31	4:20 AM	47295452439260.01401764PLM055	PLM055
	4023	2000405558975		7	2	47295452	2019-02-06 04:21:12	4:21 AM	47295452439260.01401764PLM055	PLM055
	4023	2000415421054		6	2	47295452	2019-02-06 04:21:20	4:21 AM	47295452439260.01401764PLM055	PLM055
	4023	2000415421054		12	2	47295452	2019-02-06 04:21:35	4:21 AM	47295452439260.01401764PLM055	PLM055
	4024	2000415649045		2	2	47295452	2019-02-06 04:22:23	4:22 AM	47295452439260.01401764PLM055	PLM055
	4024	2000414491997		1	2	47295452	2019-02-06 04:22:29	4:22 AM	47295452439260.01401764PLM055	PLM055
	4024	2000414492017		2	2	47295452	2019-02-06 04:22:52	4:22 AM	47295452439260.01401764PLM055	PLM055
	4024	2000414491997		2	2	47295452	2019-02-06 04:22:59	4:22 AM	47295452439260.01401764PLM055	PLM055
	4024	2000415649045		1	2	47295452	2019-02-06 04:23:05	4:23 AM	47295452439260.01401764PLM055	PLM055
	4024	2000414491997		2	2	47295452	2019-02-06 04:23:09	4:23 AM	47295452439260.01401764PLM055	PLM055
	4025	2000414491997		1	2	47295452	2019-02-06 04:23:30	4:23 AM	47295452439260.01401764PLM055	PLM055
	4025	2000414492024		3	2	47295452	2019-02-06 04:23:34	4:23 AM	47295452439260.01401764PLM055	PLM055
	4025	2000406745510		1	2	47295452	2019-02-06 04:23:37	4:23 AM	47295452439260.01401764PLM055	PLM055
	4025	2000414491997		1	2	47295452	2019-02-06 04:23:40	4:23 AM	47295452439260.01401764PLM055	PLM055
	4025	2000406745510		2	2	47295452	2019-02-06 04:23:43	4:23 AM	47295452439260.01401764PLM055	PLM055
	4025	2000406745510		1	2	47295452	2019-02-06 04:23:56	4:23 AM	47295452439260.01401764PLM055	PLM055
	4025	2000406745503		1	2	47295452	2019-02-06 04:23:58	4:23 AM	47295452439260.01401764PLM055	PLM055
	4025	2000406745510		1	2	47295452	2019-02-06 04:24:02	4:24 AM	47295452439260.01401764PLM055	PLM055
	4025	2000406745527		3	2	47295452	2019-02-06 04:24:08	4:24 AM	47295452439260.01401764PLM055	PLM055
	4025	2000406745510		1	2	47295452	2019-02-06 04:24:13	4:24 AM	47295452439260.01401764PLM055	PLM055
	4025	2000405558975		9	2	47295452	2019-02-06 04:24:25	4:24 AM	47295452439260.01401764PLM055	PLM055
	4025	2000415421122		15	2	47295452	2019-02-06 04:24:43	4:24 AM	47295452439260.01401764PLM055	PLM055
	4025	2000415421122		6	2	47295452	2019-02-06 04:24:50	4:24 AM	47295452439260.01401764PLM055	PLM055
	4025	2000415421054		6	2	47295452	2019-02-06 04:25:03	4:25 AM	47295452439260.01401764PLM055	PLM055
	4026	2000414492024		1	2	47295452	2019-02-06 04:25:47	4:25 AM	47295452439260.01401764PLM055	PLM055
	4026	2000414534212		1	2	47295452	2019-02-06 04:25:50	4:25 AM	47295452439260.01401764PLM055	PLM055
	4026	2000406745527		2	2	47295452	2019-02-06 04:26:01	4:26 AM	47295452439260.01401764PLM055	PLM055
	4026	2000405558975		1	2	47295452	2019-02-06 04:26:06	4:26 AM	47295452439260.01401764PLM055	PLM055
	4026	2000414492024		1	2	47295452	2019-02-06 04:26:14	4:26 AM	47295452439260.01401764PLM055	PLM055
	4026	2000406745527		2	2	47295452	2019-02-06 04:26:16	4:26 AM	47295452439260.01401764PLM055	PLM055
	4026	2000406745503		1	2	47295452	2019-02-06 04:26:19	4:26 AM	47295452439260.01401764PLM055	PLM055
	4026	2000414491997		1	2	47295452	2019-02-06 04:26:23	4:26 AM	47295452439260.01401764PLM055	PLM055
	4026	2000406745510		2	2	47295452	2019-02-06 04:26:25	4:26 AM	47295452439260.01401764PLM055	PLM055
	4026	2000405558975		9	2	47295452	2019-02-06 04:26:44	4:26 AM	47295452439260.01401764PLM055	PLM055
	4026	2000416896059		9	2	47295452	2019-02-06 04:26:55	4:26 AM	47295452439260.01401764PLM055	PLM055
	4026	2000416889051		15	2	47295452	2019-02-06 04:27:11	4:27 AM	47295452439260.01401764PLM055	PLM055
	4027	2000406745527		7	2	47295452	2019-02-06 04:28:10	4:28 AM	47295452439260.01401764PLM055	PLM055
	4027	2000414534212		1	2	47295452	2019-02-06 04:28:22	4:28 AM	47295452439260.01401764PLM055	PLM055
	4027	2000406745503		1	2	47295452	2019-02-06 04:28:26	4:28 AM	47295452439260.01401764PLM055	PLM055
	4027	2000406745510		1	2	47295452	2019-02-06 04:28:31	4:28 AM	47295452439260.01401764PLM055	PLM055
	4027	2000406745527		2	2	47295452	2019-02-06 04:28:38	4:28 AM	47295452439260.01401764PLM055	PLM055
	4027	2000406745510		2	2	47295452	2019-02-06 04:28:43	4:28 AM	47295452439260.01401764PLM055	PLM055
	4027	2000406745503		1	2	47295452	2019-02-06 04:28:47	4:28 AM	47295452439260.01401764PLM055	PLM055
	4027	2000406745527		1	2	47295452	2019-02-06 04:28:53	4:28 AM	47295452439260.01401764PLM055	PLM055
	4027	2000406745503		1	2	47295452	2019-02-06 04:29:01	4:29 AM	47295452439260.01401764PLM055	PLM055
	4027	2000406745527		1	2	47295452	2019-02-06 04:29:04	4:29 AM	47295452439260.01401764PLM055	PLM055
	4027	2000406745527		7	2	47295452	2019-02-06 04:29:23	4:29 AM	47295452439260.01401764PLM055	PLM055
	4027	2000414491997		1	2	47295452	2019-02-06 04:29:30	4:29 AM	47295452439260.01401764PLM055	PLM055
	4027	2000405558975		7	2	47295452	2019-02-06 04:29:45	4:29 AM	47295452439260.01401764PLM055	PLM055
	4027	2000416896059		7	2	47295452	2019-02-06 04:29:55	4:29 AM	47295452439260.01401764PLM055	PLM055
	4027	2000415421047		9	2	47295452	2019-02-06 04:30:06	4:30 AM	47295452439260.01401764PLM055	PLM055
	4027	2000415421122		3	2	47295452	2019-02-06 04:30:10	4:30 AM	47295452439260.01401764PLM055	PLM055
	4030	2000415654148		12	2	47295452	2019-02-06 04:31:05	4:31 AM	47295452439260.01401764PLM055	PLM055
	4030	2000415654131		6	2	47295452	2019-02-06 04:31:10	4:31 AM	47295452439260.01401764PLM055	PLM055
	4030	2000414494134		8	2	47295452	2019-02-06 04:31:18	4:31 AM	47295452439260.01401764PLM055	PLM055
	4030	2000416897094		8	2	47295452	2019-02-06 04:31:26	4:31 AM	47295452439260.01401764PLM055	PLM055
	4030	2000416897087		13	2	47295452	2019-02-06 04:31:43	4:31 AM	47295452439260.01401764PLM055	PLM055
	4030	2000416897070		9	2	47295452	2019-02-06 04:32:13	4:32 AM	47295452439260.01401764PLM055	PLM055
	4031	2000415654148		14	2	47295452	2019-02-06 04:32:44	4:32 AM	47295452439260.01401764PLM055	PLM055
	4031	2000415654131		7	2	47295452	2019-02-06 04:32:50	4:32 AM	47295452439260.01401764PLM055	PLM055
	4031	2000414494134		10	2	47295452	2019-02-06 04:32:57	4:32 AM	47295452439260.01401764PLM055	PLM055
	4031	2000416897094		12	2	47295452	2019-02-06 04:33:31	4:33 AM	47295452439260.01401764PLM055	PLM055
	4031	2000416205998		1	2	47295452	2019-02-06 04:33:35	4:33 AM	47295452439260.01401764PLM055	PLM055
	4031	2000416897087		10	2	47295452	2019-02-06 04:33:43	4:33 AM	47295452439260.01401764PLM055	PLM055
	4031	2000416205912		5	2	47295452	2019-02-06 04:33:49	4:33 AM	47295452439260.01401764PLM055	PLM055
	4031	2000416205998		7	2	47295452	2019-02-06 04:33:56	4:33 AM	47295452439260.01401764PLM055	PLM055
	4032	2000415654148		11	2	47295452	2019-02-06 04:34:35	4:34 AM	47295452439260.01401764PLM055	PLM055
	4032	2000415654131		4	2	47295452	2019-02-06 04:34:48	4:34 AM	47295452439260.01401764PLM055	PLM055
	4032	2000415654162		1	2	47295452	2019-02-06 04:34:51	4:34 AM	47295452439260.01401764PLM055	PLM055
	4032	2000415654131		6	2	47295452	2019-02-06 04:35:00	4:35 AM	47295452439260.01401764PLM055	PLM055
	4032	2000415654131		1	2	47295452	2019-02-06 04:35:06	4:35 AM	47295452439260.01401764PLM055	PLM055
	4032	2000415654100		1	2	47295452	2019-02-06 04:35:08	4:35 AM	47295452439260.01401764PLM055	PLM055
	4032	2000415653202		5	2	47295452	2019-02-06 04:35:14	4:35 AM	47295452439260.01401764PLM055	PLM055
	4032	2000416205950		4	2	47295452	2019-02-06 04:35:27	4:35 AM	47295452439260.01401764PLM055	PLM055
	4032	2000416897100		9	2	47295452	2019-02-06 04:35:35	4:35 AM	47295452439260.01401764PLM055	PLM055
	4032	2000416205875		1	2	47295452	2019-02-06 04:35:38	4:35 AM	47295452439260.01401764PLM055	PLM055
	4032	2000416897070		9	2	47295452	2019-02-06 04:35:47	4:35 AM	47295452439260.01401764PLM055	PLM055
	4032	2000416205912		3	2	47295452	2019-02-06 04:35:52	4:35 AM	47295452439260.01401764PLM055	PLM055
	4032	2000416205905		5	2	47295452	2019-02-06 04:36:01	4:36 AM	47295452439260.01401764PLM055	PLM055
	4032	2000416205998		7	2	47295452	2019-02-06 04:36:11	4:36 AM	47295452439260.01401764PLM055	PLM055
	4033	2000415654148		7	2	47295452	2019-02-06 04:36:35	4:36 AM	47295452439260.01401764PLM055	PLM055
	4033	2000415654131		9	2	47295452	2019-02-06 04:36:41	4:36 AM	47295452439260.01401764PLM055	PLM055
	4033	2000415653196		6	2	47295452	2019-02-06 04:36:46	4:36 AM	47295452439260.01401764PLM055	PLM055
	4033	2000415653196		1	2	47295452	2019-02-06 04:36:47	4:36 AM	47295452439260.01401764PLM055	PLM055
	4033	2000415653332		8	2	47295452	2019-02-06 04:36:54	4:36 AM	47295452439260.01401764PLM055	PLM055
	4033	2000414534212		1	2	47295452	2019-02-06 04:36:58	4:36 AM	47295452439260.01401764PLM055	PLM055
	4033	2000416205899		11	2	47295452	2019-02-06 04:37:22	4:37 AM	47295452439260.01401764PLM055	PLM055
	4033	2000416381258		1	2	47295452	2019-02-06 04:37:30	4:37 AM	47295452439260.01401764PLM055	PLM055
	4033	2000415640578		1	2	47295452	2019-02-06 04:37:36	4:37 AM	47295452439260.01401764PLM055	PLM055
	4033	2000415653332		1	2	47295452	2019-02-06 04:37:52	4:37 AM	47295452439260.01401764PLM055	PLM055
	4033	2000416897100		9	2	47295452	2019-02-06 04:38:00	4:38 AM	47295452439260.01401764PLM055	PLM055
	4033	2000416381258		2	2	47295452	2019-02-06 04:38:04	4:38 AM	47295452439260.01401764PLM055	PLM055
	4033	2000416897063		4	2	47295452	2019-02-06 04:38:09	4:38 AM	47295452439260.01401764PLM055	PLM055
	4033	2000416381302		1	2	47295452	2019-02-06 04:38:33	4:38 AM	47295452439260.01401764PLM055	PLM055
	4033	2000416381241		1	2	47295452	2019-02-06 04:38:52	4:38 AM	47295452439260.01401764PLM055	PLM055
	4033	2000416381234		12	2	47295452	2019-02-06 04:38:58	4:38 AM	47295452439260.01401764PLM055	PLM055
	4033	2000416381296		8	2	47295452	2019-02-06 04:39:06	4:39 AM	47295452439260.01401764PLM055	PLM055
