	5106	7750670010238		14	2	47586862	2019-02-06 02:26:13	2:26 AM	4758686235110.7747401PLM015	PLM015
	5106	7750670011686		28	2	47586862	2019-02-06 02:28:34	2:28 AM	4758686235110.7747401PLM015	PLM015
	5106	7751655000596		9	2	47586862	2019-02-06 02:28:48	2:28 AM	4758686235110.7747401PLM015	PLM015
	5107	7750670011686		38	2	47586862	2019-02-06 02:31:44	2:31 AM	4758686235110.7747401PLM015	PLM015
	5108	7622210108524		17	2	47586862	2019-02-06 02:33:43	2:33 AM	4758686235110.7747401PLM015	PLM015
	5108	7622210108524		138	2	47586862	2019-02-06 02:35:52	2:35 AM	4758686235110.7747401PLM015	PLM015
	5108	7622210108456		70	2	47586862	2019-02-06 02:36:38	2:36 AM	4758686235110.7747401PLM015	PLM015
	5108	7622210108616		3	2	47586862	2019-02-06 02:36:44	2:36 AM	4758686235110.7747401PLM015	PLM015
	5108	7622210108456		1	2	47586862	2019-02-06 02:36:47	2:36 AM	4758686235110.7747401PLM015	PLM015
	5108	7622210108524		4	2	47586862	2019-02-06 02:36:52	2:36 AM	4758686235110.7747401PLM015	PLM015
	5109	7622210108616		160	2	47586862	2019-02-06 02:39:16	2:39 AM	4758686235110.7747401PLM015	PLM015
	5109	7622210108616		172	2	47586862	2019-02-06 02:40:42	2:40 AM	4758686235110.7747401PLM015	PLM015
	5109	7622210108456		78	2	47586862	2019-02-06 02:41:32	2:41 AM	4758686235110.7747401PLM015	PLM015
	5110	7750670012164		48	2	47586862	2019-02-06 02:42:26	2:42 AM	4758686235110.7747401PLM015	PLM015
	5110	7750670012171		24	2	47586862	2019-02-06 02:42:42	2:42 AM	4758686235110.7747401PLM015	PLM015
	5110	7750308275565		1	2	47586862	2019-02-06 02:42:50	2:42 AM	4758686235110.7747401PLM015	PLM015
	5110	7751271010214		24	2	47586862	2019-02-06 02:43:14	2:43 AM	4758686235110.7747401PLM015	PLM015
	5111	7750670012164		13	2	47586862	2019-02-06 02:43:51	2:43 AM	4758686235110.7747401PLM015	PLM015
	5111	7750670012171		25	2	47586862	2019-02-06 02:44:11	2:44 AM	4758686235110.7747401PLM015	PLM015
	5111	7750670012164		1	2	47586862	2019-02-06 02:44:13	2:44 AM	4758686235110.7747401PLM015	PLM015
	5111	7751655001111		37	2	47586862	2019-02-06 02:44:42	2:44 AM	4758686235110.7747401PLM015	PLM015
	5111	7751271010214		40	2	47586862	2019-02-06 02:44:54	2:44 AM	4758686235110.7747401PLM015	PLM015
	5112	7750670012355		5	2	47586862	2019-02-06 02:45:54	2:45 AM	4758686235110.7747401PLM015	PLM015
	5112	7622210108524		18	2	47586862	2019-02-06 02:46:20	2:46 AM	4758686235110.7747401PLM015	PLM015
	5112	7622210108524		72	2	47586862	2019-02-06 02:46:40	2:46 AM	4758686235110.7747401PLM015	PLM015
	5112	7622210108456		75	2	47586862	2019-02-06 02:47:01	2:47 AM	4758686235110.7747401PLM015	PLM015
	5112	7750670012362		23	2	47586862	2019-02-06 02:47:11	2:47 AM	4758686235110.7747401PLM015	PLM015
	5113	7750670011686		11	2	47586862	2019-02-06 02:50:40	2:50 AM	4758686235110.7747401PLM015	PLM015
	5113	7750670012362		22	2	47586862	2019-02-06 02:50:47	2:50 AM	4758686235110.7747401PLM015	PLM015
	5114	7750182001410		24	2	47586862	2019-02-06 02:52:14	2:52 AM	4758686235110.7747401PLM015	PLM015
	5114	7750182001397		36	2	47586862	2019-02-06 02:53:09	2:53 AM	4758686235110.7747401PLM015	PLM015
	5114	7750182001373		36	2	47586862	2019-02-06 02:53:33	2:53 AM	4758686235110.7747401PLM015	PLM015
	5114	24474005668		12	2	47586862	2019-02-06 02:53:51	2:53 AM	4758686235110.7747401PLM015	PLM015
	5115	7750182001410		52	2	47586862	2019-02-06 02:55:35	2:55 AM	4758686235110.7747401PLM015	PLM015
	5115	7750182001397		52	2	47586862	2019-02-06 02:56:14	2:56 AM	4758686235110.7747401PLM015	PLM015
	5115	7750182001373		40	2	47586862	2019-02-06 02:57:01	2:57 AM	4758686235110.7747401PLM015	PLM015
	5115	24474005668		11	2	47586862	2019-02-06 02:57:13	2:57 AM	4758686235110.7747401PLM015	PLM015
	5116	7750182001403		32	2	47586862	2019-02-06 02:58:56	2:58 AM	4758686235110.7747401PLM015	PLM015
	5116	7750182001366		12	2	47586862	2019-02-06 02:59:10	2:59 AM	4758686235110.7747401PLM015	PLM015
	5116	7750182001366		4	2	47586862	2019-02-06 02:59:13	2:59 AM	4758686235110.7747401PLM015	PLM015
	5771	7750182000925		31	2	47586862	2019-02-06 02:59:50	2:59 AM	4758686235110.7747401PLM015	PLM015
	5771	7750670000734		6	2	47586862	2019-02-06 03:00:03	3:00 AM	4758686235110.7747401PLM015	PLM015
	5771	2000404719124		12	2	47586862	2019-02-06 03:00:13	3:00 AM	4758686235110.7747401PLM015	PLM015
	5772	7750670009454		6	2	47586862	2019-02-06 03:01:52	3:01 AM	4758686235110.7747401PLM015	PLM015
	5772	7755064072656		19	2	47586862	2019-02-06 03:01:57	3:01 AM	4758686235110.7747401PLM015	PLM015
	5119	7750298000727		27	2	47586862	2019-02-06 03:04:12	3:04 AM	4758686235110.7747401PLM015	PLM015
	5119	7750298000710		2	2	47586862	2019-02-06 03:04:23	3:04 AM	4758686235110.7747401PLM015	PLM015
	5119	7750670313537		1	2	47586862	2019-02-06 03:04:26	3:04 AM	4758686235110.7747401PLM015	PLM015
	5119	7750182003414		1	2	47586862	2019-02-06 03:04:35	3:04 AM	4758686235110.7747401PLM015	PLM015
