	5333	7759826001687		2	2	47586862	2019-02-06 04:45:21	4:45 AM	4758686252580.01401764PLM007	PLM007
	5333	7759826000031		15	2	47586862	2019-02-06 04:45:47	4:45 AM	4758686252580.01401764PLM007	PLM007
	5333	7759826001281		8	2	47586862	2019-02-06 04:46:10	4:46 AM	4758686252580.01401764PLM007	PLM007
	5334	7759826001687		2	2	47586862	2019-02-06 04:46:41	4:46 AM	4758686252580.01401764PLM007	PLM007
	5334	7759826000031		3	2	47586862	2019-02-06 04:46:54	4:46 AM	4758686252580.01401764PLM007	PLM007
	5334	7759826001359		1	2	47586862	2019-02-06 04:46:57	4:46 AM	4758686252580.01401764PLM007	PLM007
	5334	2000414037676		1	2	47586862	2019-02-06 04:47:01	4:47 AM	4758686252580.01401764PLM007	PLM007
	5334	7759826001281		11	2	47586862	2019-02-06 04:47:23	4:47 AM	4758686252580.01401764PLM007	PLM007
	5335	2000409816132		18	2	47586862	2019-02-06 04:48:37	4:48 AM	4758686252580.01401764PLM007	PLM007
	5335	2000409816149		16	2	47586862	2019-02-06 04:49:06	4:49 AM	4758686252580.01401764PLM007	PLM007
	5336	7756763000339		5	2	47586862	2019-02-06 04:49:38	4:49 AM	4758686252580.01401764PLM007	PLM007
	5336	7759826002844		14	2	47586862	2019-02-06 04:50:31	4:50 AM	4758686252580.01401764PLM007	PLM007
	5336	7622210108524		1	2	47586862	2019-02-06 04:50:36	4:50 AM	4758686252580.01401764PLM007	PLM007
	5336	7759826000086		1	2	47586862	2019-02-06 04:50:43	4:50 AM	4758686252580.01401764PLM007	PLM007
	5336	7759826001359		27	2	47586862	2019-02-06 04:51:17	4:51 AM	4758686252580.01401764PLM007	PLM007
	5336	7759826001359		1	2	47586862	2019-02-06 04:51:23	4:51 AM	4758686252580.01401764PLM007	PLM007
	5336	7756763000360		3	2	47586862	2019-02-06 04:51:28	4:51 AM	4758686252580.01401764PLM007	PLM007
	5337	7756763000339		15	2	47586862	2019-02-06 04:52:50	4:52 AM	4758686252580.01401764PLM007	PLM007
	5337	7759826002844		11	2	47586862	2019-02-06 04:53:41	4:53 AM	4758686252580.01401764PLM007	PLM007
	5337	2000409816149		1	2	47586862	2019-02-06 04:53:53	4:53 AM	4758686252580.01401764PLM007	PLM007
	5337	7759826000079		3	2	47586862	2019-02-06 04:54:04	4:54 AM	4758686252580.01401764PLM007	PLM007
	5337	7759826001359		1	2	47586862	2019-02-06 04:54:09	4:54 AM	4758686252580.01401764PLM007	PLM007
	5337	7756763000360		6	2	47586862	2019-02-06 04:54:24	4:54 AM	4758686252580.01401764PLM007	PLM007
	5342	7759826001304		12	2	47586862	2019-02-06 04:55:08	4:55 AM	4758686252580.01401764PLM007	PLM007
	5342	7759826000086		8	2	47586862	2019-02-06 04:55:31	4:55 AM	4758686252580.01401764PLM007	PLM007
	5342	7759826000086		2	2	47586862	2019-02-06 04:55:40	4:55 AM	4758686252580.01401764PLM007	PLM007
	5342	7613035421523		4	2	47586862	2019-02-06 04:55:46	4:55 AM	4758686252580.01401764PLM007	PLM007
	5341	7759826001281		1	2	47586862	2019-02-06 04:56:01	4:56 AM	4758686252580.01401764PLM007	PLM007
	5341	7759826001304		3	2	47586862	2019-02-06 04:56:05	4:56 AM	4758686252580.01401764PLM007	PLM007
	5341	7759826002844		1	2	47586862	2019-02-06 04:56:10	4:56 AM	4758686252580.01401764PLM007	PLM007
	5341	7759826003605		2	2	47586862	2019-02-06 04:56:16	4:56 AM	4758686252580.01401764PLM007	PLM007
	5341	7759826000055		15	2	47586862	2019-02-06 04:56:59	4:56 AM	4758686252580.01401764PLM007	PLM007
	5340	2000409816149		17	2	47586862	2019-02-06 04:57:50	4:57 AM	4758686252580.01401764PLM007	PLM007
	5340	7613035421523		1	2	47586862	2019-02-06 04:58:03	4:58 AM	4758686252580.01401764PLM007	PLM007
	5340	7759826001670		6	2	47586862	2019-02-06 04:58:17	4:58 AM	4758686252580.01401764PLM007	PLM007
	5339	7759826000369		8	2	47586862	2019-02-06 04:58:43	4:58 AM	4758686252580.01401764PLM007	PLM007
	5339	7759826000017		2	2	47586862	2019-02-06 04:59:01	4:59 AM	4758686252580.01401764PLM007	PLM007
	5339	7759826001670		8	2	47586862	2019-02-06 04:59:26	4:59 AM	4758686252580.01401764PLM007	PLM007
	5339	7751451000035		5	2	47586862	2019-02-06 04:59:42	4:59 AM	4758686252580.01401764PLM007	PLM007
	5338	7759826000369		6	2	47586862	2019-02-06 05:00:08	5:00 AM	4758686252580.01401764PLM007	PLM007
	5338	7759826000017		9	2	47586862	2019-02-06 05:00:24	5:00 AM	4758686252580.01401764PLM007	PLM007
	5338	7751451000035		6	2	47586862	2019-02-06 05:00:42	5:00 AM	4758686252580.01401764PLM007	PLM007
