	4058	2000415659686		1	1	47586862	2019-02-06 05:24:24	5:24:24 AM	47586862529590.7090379PLM007	PLM007
	4058	2000415659648		1	1	47586862	2019-02-06 05:24:29	5:24:29 AM	47586862529590.7090379PLM007	PLM007
	4058	2000415678434		1	1	47586862	2019-02-06 05:24:33	5:24:33 AM	47586862529590.7090379PLM007	PLM007
	4058	2000415659648		1	1	47586862	2019-02-06 05:24:37	5:24:37 AM	47586862529590.7090379PLM007	PLM007
	4058	2000415659655		1	1	47586862	2019-02-06 05:24:39	5:24:39 AM	47586862529590.7090379PLM007	PLM007
	4058	2000415659709		1	1	47586862	2019-02-06 05:24:42	5:24:42 AM	47586862529590.7090379PLM007	PLM007
	4058	2000415678434		1	1	47586862	2019-02-06 05:24:47	5:24:47 AM	47586862529590.7090379PLM007	PLM007
	4058	2000415659709		1	1	47586862	2019-02-06 05:24:50	5:24:50 AM	47586862529590.7090379PLM007	PLM007
	4058	2000415678458		1	1	47586862	2019-02-06 05:24:55	5:24:55 AM	47586862529590.7090379PLM007	PLM007
	4058	2000415659709		1	1	47586862	2019-02-06 05:25:00	5:25:00 AM	47586862529590.7090379PLM007	PLM007
	4058	2000415659655		1	1	47586862	2019-02-06 05:25:05	5:25:05 AM	47586862529590.7090379PLM007	PLM007
	4058	2000415659648		1	1	47586862	2019-02-06 05:25:10	5:25:10 AM	47586862529590.7090379PLM007	PLM007
	4058	2000415659709		1	1	47586862	2019-02-06 05:25:14	5:25:14 AM	47586862529590.7090379PLM007	PLM007
	4058	2000415678434		1	1	47586862	2019-02-06 05:25:19	5:25:19 AM	47586862529590.7090379PLM007	PLM007
	4058	2000415659648		1	1	47586862	2019-02-06 05:25:21	5:25:21 AM	47586862529590.7090379PLM007	PLM007
	4058	2000415659709		1	1	47586862	2019-02-06 05:25:25	5:25:25 AM	47586862529590.7090379PLM007	PLM007
	4058	2000415678434		1	1	47586862	2019-02-06 05:26:07	5:26:07 AM	47586862529590.7090379PLM007	PLM007
	4058	2000415659709		1	1	47586862	2019-02-06 05:26:14	5:26:14 AM	47586862529590.7090379PLM007	PLM007
	4058	2000415678434		1	1	47586862	2019-02-06 05:26:18	5:26:18 AM	47586862529590.7090379PLM007	PLM007
	4058	2000415678434		1	1	47586862	2019-02-06 05:26:20	5:26:20 AM	47586862529590.7090379PLM007	PLM007
	4058	2000415678434		1	1	47586862	2019-02-06 05:26:23	5:26:23 AM	47586862529590.7090379PLM007	PLM007
	4058	2000415678434		1	1	47586862	2019-02-06 05:26:25	5:26:25 AM	47586862529590.7090379PLM007	PLM007
	4058	2000415678434		1	1	47586862	2019-02-06 05:26:27	5:26:27 AM	47586862529590.7090379PLM007	PLM007
	4058	2000415678434		1	1	47586862	2019-02-06 05:26:29	5:26:29 AM	47586862529590.7090379PLM007	PLM007
	4058	2000415678434		1	1	47586862	2019-02-06 05:26:31	5:26:31 AM	47586862529590.7090379PLM007	PLM007
	4058	2000415678458		1	1	47586862	2019-02-06 05:26:33	5:26:33 AM	47586862529590.7090379PLM007	PLM007
	4058	2000415678458		1	1	47586862	2019-02-06 05:26:34	5:26:34 AM	47586862529590.7090379PLM007	PLM007
	4058	2000415678458		1	1	47586862	2019-02-06 05:26:38	5:26:38 AM	47586862529590.7090379PLM007	PLM007
	4058	2000415678458		1	1	47586862	2019-02-06 05:26:40	5:26:40 AM	47586862529590.7090379PLM007	PLM007
	4058	2000415678458		1	1	47586862	2019-02-06 05:26:43	5:26:43 AM	47586862529590.7090379PLM007	PLM007
	4058	2000415659709		1	1	47586862	2019-02-06 05:27:26	5:27:26 AM	47586862529590.7090379PLM007	PLM007
	4058	2000415678458		1	1	47586862	2019-02-06 05:27:29	5:27:29 AM	47586862529590.7090379PLM007	PLM007
	4058	2000415678458		1	1	47586862	2019-02-06 05:27:32	5:27:32 AM	47586862529590.7090379PLM007	PLM007
	4058	2000415659709		1	1	47586862	2019-02-06 05:27:36	5:27:36 AM	47586862529590.7090379PLM007	PLM007
	4058	2000415678458		1	1	47586862	2019-02-06 05:27:45	5:27:45 AM	47586862529590.7090379PLM007	PLM007
	4058	2000415678434		1	1	47586862	2019-02-06 05:27:47	5:27:47 AM	47586862529590.7090379PLM007	PLM007
	4058	2000415659709		1	1	47586862	2019-02-06 05:27:50	5:27:50 AM	47586862529590.7090379PLM007	PLM007
	4058	2000415659709		1	1	47586862	2019-02-06 05:27:52	5:27:52 AM	47586862529590.7090379PLM007	PLM007
	4058	2000415678458		1	1	47586862	2019-02-06 05:27:54	5:27:54 AM	47586862529590.7090379PLM007	PLM007
	4058	2000415659709		1	1	47586862	2019-02-06 05:27:57	5:27:57 AM	47586862529590.7090379PLM007	PLM007
	4058	2000415659716		1	1	47586862	2019-02-06 05:28:23	5:28:23 AM	47586862529590.7090379PLM007	PLM007
	4058	2000415659648		1	1	47586862	2019-02-06 05:28:27	5:28:27 AM	47586862529590.7090379PLM007	PLM007
	4058	2000415659648		1	1	47586862	2019-02-06 05:28:29	5:28:29 AM	47586862529590.7090379PLM007	PLM007
	4058	2000415659648		1	1	47586862	2019-02-06 05:28:31	5:28:31 AM	47586862529590.7090379PLM007	PLM007
	4058	2000415659648		1	1	47586862	2019-02-06 05:28:33	5:28:33 AM	47586862529590.7090379PLM007	PLM007
	4058	2000415659648		1	1	47586862	2019-02-06 05:28:34	5:28:34 AM	47586862529590.7090379PLM007	PLM007
	4058	2000415659648		1	1	47586862	2019-02-06 05:28:37	5:28:37 AM	47586862529590.7090379PLM007	PLM007
	4058	2000415659648		1	1	47586862	2019-02-06 05:28:38	5:28:38 AM	47586862529590.7090379PLM007	PLM007
	4058	2000415659709		1	1	47586862	2019-02-06 05:29:03	5:29:03 AM	47586862529590.7090379PLM007	PLM007
	4058	2000415659709		1	1	47586862	2019-02-06 05:29:05	5:29:05 AM	47586862529590.7090379PLM007	PLM007
	4058	2000415659716		1	1	47586862	2019-02-06 05:29:07	5:29:07 AM	47586862529590.7090379PLM007	PLM007
	4058	2000415659709		1	1	47586862	2019-02-06 05:29:12	5:29:12 AM	47586862529590.7090379PLM007	PLM007
	4058	2000415659648		1	1	47586862	2019-02-06 05:29:14	5:29:14 AM	47586862529590.7090379PLM007	PLM007
	4058	2000415659709		1	1	47586862	2019-02-06 05:29:17	5:29:17 AM	47586862529590.7090379PLM007	PLM007
	4058	2000415659648		1	1	47586862	2019-02-06 05:29:19	5:29:19 AM	47586862529590.7090379PLM007	PLM007
	4058	2000415659648		1	1	47586862	2019-02-06 05:29:21	5:29:21 AM	47586862529590.7090379PLM007	PLM007
	4058	2000415659648		1	1	47586862	2019-02-06 05:29:23	5:29:23 AM	47586862529590.7090379PLM007	PLM007
