	3981	2000415454410		1	1	48449829	2019-02-06 01:35:43	1:35:43 AM	4844982929130.533424HASR101	HASR101
	3981	2000415454410		1	1	48449829	2019-02-06 01:35:58	1:35:58 AM	4844982929130.533424HASR101	HASR101
	3981	2000415454410		1	1	48449829	2019-02-06 01:36:13	1:36:13 AM	4844982929130.533424HASR101	HASR101
	3981	2000415454410		1	1	48449829	2019-02-06 01:36:28	1:36:28 AM	4844982929130.533424HASR101	HASR101
	3981	2000415454410		1	1	48449829	2019-02-06 01:36:39	1:36:39 AM	4844982929130.533424HASR101	HASR101
	3981	2000415454403		1	1	48449829	2019-02-06 01:36:46	1:36:46 AM	4844982929130.533424HASR101	HASR101
	3981	2000415454403		1	1	48449829	2019-02-06 01:36:53	1:36:53 AM	4844982929130.533424HASR101	HASR101
	3981	2000415454403		1	1	48449829	2019-02-06 01:37:40	1:37:40 AM	4844982929130.533424HASR101	HASR101
	3981	2000415454403		1	1	48449829	2019-02-06 01:37:48	1:37:48 AM	4844982929130.533424HASR101	HASR101
	3981	2000415454403		1	1	48449829	2019-02-06 01:38:00	1:38:00 AM	4844982929130.533424HASR101	HASR101
	3981	2000415454403		1	1	48449829	2019-02-06 01:38:06	1:38:06 AM	4844982929130.533424HASR101	HASR101
	3981	2000416444304		1	1	48449829	2019-02-06 01:38:58	1:38:58 AM	4844982929130.533424HASR101	HASR101
	3981	2000416444304		1	1	48449829	2019-02-06 01:39:04	1:39:04 AM	4844982929130.533424HASR101	HASR101
	3981	2000416394982		1	1	48449829	2019-02-06 01:39:20	1:39:20 AM	4844982929130.533424HASR101	HASR101
	3981	2000416394982		1	1	48449829	2019-02-06 01:39:29	1:39:29 AM	4844982929130.533424HASR101	HASR101
	3981	2000416394982		1	1	48449829	2019-02-06 01:39:36	1:39:36 AM	4844982929130.533424HASR101	HASR101
	3981	2000416394982		1	1	48449829	2019-02-06 01:39:44	1:39:44 AM	4844982929130.533424HASR101	HASR101
	3981	2000416394982		1	1	48449829	2019-02-06 01:39:53	1:39:53 AM	4844982929130.533424HASR101	HASR101
	3981	2000416394982		1	1	48449829	2019-02-06 01:39:57	1:39:57 AM	4844982929130.533424HASR101	HASR101
	3981	2000416458141		1	1	48449829	2019-02-06 01:40:12	1:40:12 AM	4844982929130.533424HASR101	HASR101
	3981	2000416458141		1	1	48449829	2019-02-06 01:40:21	1:40:21 AM	4844982929130.533424HASR101	HASR101
	3981	2000416458141		1	1	48449829	2019-02-06 01:40:29	1:40:29 AM	4844982929130.533424HASR101	HASR101
	3981	2000416458141		1	1	48449829	2019-02-06 01:40:33	1:40:33 AM	4844982929130.533424HASR101	HASR101
	3981	2000416458141		1	1	48449829	2019-02-06 01:40:44	1:40:44 AM	4844982929130.533424HASR101	HASR101
	3981	2000416458141		1	1	48449829	2019-02-06 01:40:51	1:40:51 AM	4844982929130.533424HASR101	HASR101
	3981	2000416458141		1	1	48449829	2019-02-06 01:40:56	1:40:56 AM	4844982929130.533424HASR101	HASR101
	3981	2000416444267		1	1	48449829	2019-02-06 01:41:01	1:41:01 AM	4844982929130.533424HASR101	HASR101
	3981	2000415446040		1	1	48449829	2019-02-06 01:41:08	1:41:08 AM	4844982929130.533424HASR101	HASR101
	3981	2000415446040		1	1	48449829	2019-02-06 01:41:17	1:41:17 AM	4844982929130.533424HASR101	HASR101
	3981	2000415446040		1	1	48449829	2019-02-06 01:41:22	1:41:22 AM	4844982929130.533424HASR101	HASR101
	3981	2000415446040		1	1	48449829	2019-02-06 01:41:28	1:41:28 AM	4844982929130.533424HASR101	HASR101
	3981	2000415446040		1	1	48449829	2019-02-06 01:41:37	1:41:37 AM	4844982929130.533424HASR101	HASR101
	3981	2000415446040		1	1	48449829	2019-02-06 01:41:43	1:41:43 AM	4844982929130.533424HASR101	HASR101
	3978	2000415446033		1	1	48449829	2019-02-06 01:42:49	1:42:49 AM	4844982929130.533424HASR101	HASR101
	3978	2000415446033		1	1	48449829	2019-02-06 01:42:59	1:42:59 AM	4844982929130.533424HASR101	HASR101
	3978	2000415446033		1	1	48449829	2019-02-06 01:43:03	1:43:03 AM	4844982929130.533424HASR101	HASR101
	3978	2000415446033		1	1	48449829	2019-02-06 01:43:14	1:43:14 AM	4844982929130.533424HASR101	HASR101
	3978	2000415446033		1	1	48449829	2019-02-06 01:43:19	1:43:19 AM	4844982929130.533424HASR101	HASR101
	3978	2000415446033		1	1	48449829	2019-02-06 01:43:23	1:43:23 AM	4844982929130.533424HASR101	HASR101
	3978	2000415446040		1	1	48449829	2019-02-06 01:43:40	1:43:40 AM	4844982929130.533424HASR101	HASR101
	3978	2000415446040		1	1	48449829	2019-02-06 01:43:47	1:43:47 AM	4844982929130.533424HASR101	HASR101
	3978	2000415446040		1	1	48449829	2019-02-06 01:43:53	1:43:53 AM	4844982929130.533424HASR101	HASR101
	3978	2000415446040		1	1	48449829	2019-02-06 01:43:56	1:43:56 AM	4844982929130.533424HASR101	HASR101
	3978	2000415446040		1	1	48449829	2019-02-06 01:44:02	1:44:02 AM	4844982929130.533424HASR101	HASR101
	3978	2000415446040		1	1	48449829	2019-02-06 01:44:08	1:44:08 AM	4844982929130.533424HASR101	HASR101
	3978	2000415446057		1	1	48449829	2019-02-06 01:44:16	1:44:16 AM	4844982929130.533424HASR101	HASR101
	3978	2000415446057		1	1	48449829	2019-02-06 01:44:46	1:44:46 AM	4844982929130.533424HASR101	HASR101
	3978	2000415446057		1	1	48449829	2019-02-06 01:44:51	1:44:51 AM	4844982929130.533424HASR101	HASR101
	3978	2000415446057		1	1	48449829	2019-02-06 01:44:59	1:44:59 AM	4844982929130.533424HASR101	HASR101
	3978	2000415446057		1	1	48449829	2019-02-06 01:45:03	1:45:03 AM	4844982929130.533424HASR101	HASR101
	3978	2000415446057		1	1	48449829	2019-02-06 01:45:09	1:45:09 AM	4844982929130.533424HASR101	HASR101
	3978	2000415446057		1	1	48449829	2019-02-06 01:46:13	1:46:13 AM	4844982929130.533424HASR101	HASR101
	3978	2000415446057		1	1	48449829	2019-02-06 01:46:28	1:46:28 AM	4844982929130.533424HASR101	HASR101
	3978	2000415446057		1	1	48449829	2019-02-06 01:46:34	1:46:34 AM	4844982929130.533424HASR101	HASR101
	3978	2000415446057		1	1	48449829	2019-02-06 01:46:39	1:46:39 AM	4844982929130.533424HASR101	HASR101
	3978	2000415446057		1	1	48449829	2019-02-06 01:46:45	1:46:45 AM	4844982929130.533424HASR101	HASR101
	3978	2000415446057		1	1	48449829	2019-02-06 01:46:51	1:46:51 AM	4844982929130.533424HASR101	HASR101
	3978	2000415446040		1	1	48449829	2019-02-06 01:47:06	1:47:06 AM	4844982929130.533424HASR101	HASR101
	3978	2000415446040		1	1	48449829	2019-02-06 01:47:13	1:47:13 AM	4844982929130.533424HASR101	HASR101
	3978	2000415446040		1	1	48449829	2019-02-06 01:47:18	1:47:18 AM	4844982929130.533424HASR101	HASR101
	3978	2000415446040		1	1	48449829	2019-02-06 01:47:22	1:47:22 AM	4844982929130.533424HASR101	HASR101
	3978	2000415446040		1	1	48449829	2019-02-06 01:47:28	1:47:28 AM	4844982929130.533424HASR101	HASR101
	3978	2000415446040		1	1	48449829	2019-02-06 01:47:34	1:47:34 AM	4844982929130.533424HASR101	HASR101
	3978	2000416395026		1	1	48449829	2019-02-06 01:48:05	1:48:05 AM	4844982929130.533424HASR101	HASR101
	3978	2000416458196		1	1	48449829	2019-02-06 01:48:15	1:48:15 AM	4844982929130.533424HASR101	HASR101
	3978	2000416453566		1	1	48449829	2019-02-06 01:48:24	1:48:24 AM	4844982929130.533424HASR101	HASR101
	3978	2000416395026		1	1	48449829	2019-02-06 01:48:36	1:48:36 AM	4844982929130.533424HASR101	HASR101
	3978	2000416395026		1	1	48449829	2019-02-06 01:48:42	1:48:42 AM	4844982929130.533424HASR101	HASR101
	3978	2000416395026		1	1	48449829	2019-02-06 01:48:48	1:48:48 AM	4844982929130.533424HASR101	HASR101
	3978	2000416395026		1	1	48449829	2019-02-06 01:48:57	1:48:57 AM	4844982929130.533424HASR101	HASR101
	3978	2000416395026		1	1	48449829	2019-02-06 01:49:09	1:49:09 AM	4844982929130.533424HASR101	HASR101
	3978	2000416395026		1	1	48449829	2019-02-06 01:49:20	1:49:20 AM	4844982929130.533424HASR101	HASR101
	3978	2000416395026		1	1	48449829	2019-02-06 01:49:25	1:49:25 AM	4844982929130.533424HASR101	HASR101
	3978	2000416395026		1	1	48449829	2019-02-06 01:49:31	1:49:31 AM	4844982929130.533424HASR101	HASR101
	3978	2000416395026		1	1	48449829	2019-02-06 01:49:34	1:49:34 AM	4844982929130.533424HASR101	HASR101
	3978	2000416395026		1	1	48449829	2019-02-06 01:49:39	1:49:39 AM	4844982929130.533424HASR101	HASR101
	3978	2000416395026		1	1	48449829	2019-02-06 01:49:43	1:49:43 AM	4844982929130.533424HASR101	HASR101
	3978	2000416459360		1	1	48449829	2019-02-06 01:50:10	1:50:10 AM	4844982929130.533424HASR101	HASR101
	3978	2000416459360		1	1	48449829	2019-02-06 01:50:24	1:50:24 AM	4844982929130.533424HASR101	HASR101
	3978	2000416459360		1	1	48449829	2019-02-06 01:50:43	1:50:43 AM	4844982929130.533424HASR101	HASR101
	3978	2000416459360		1	1	48449829	2019-02-06 01:51:00	1:51:00 AM	4844982929130.533424HASR101	HASR101
	3978	2000416459360		1	1	48449829	2019-02-06 01:51:08	1:51:08 AM	4844982929130.533424HASR101	HASR101
	3978	2000416459360		1	1	48449829	2019-02-06 01:51:17	1:51:17 AM	4844982929130.533424HASR101	HASR101
	3978	2000416453566		1	1	48449829	2019-02-06 01:51:34	1:51:34 AM	4844982929130.533424HASR101	HASR101
	3978	2000416453566		1	1	48449829	2019-02-06 01:52:19	1:52:19 AM	4844982929130.533424HASR101	HASR101
	3978	2000416453566		1	1	48449829	2019-02-06 01:52:38	1:52:38 AM	4844982929130.533424HASR101	HASR101
	3978	2000416453566		1	1	48449829	2019-02-06 01:52:44	1:52:44 AM	4844982929130.533424HASR101	HASR101
	3978	2000416453566		1	1	48449829	2019-02-06 01:52:53	1:52:53 AM	4844982929130.533424HASR101	HASR101
	3978	2000416453566		1	1	48449829	2019-02-06 01:53:08	1:53:08 AM	4844982929130.533424HASR101	HASR101
	3978	2000416512676		1	1	48449829	2019-02-06 01:53:15	1:53:15 AM	4844982929130.533424HASR101	HASR101
	3978	2000416394975		1	1	48449829	2019-02-06 01:53:28	1:53:28 AM	4844982929130.533424HASR101	HASR101
	3978	2000416459360		1	1	48449829	2019-02-06 01:53:35	1:53:35 AM	4844982929130.533424HASR101	HASR101
	3978	2000416453504		1	1	48449829	2019-02-06 01:53:46	1:53:46 AM	4844982929130.533424HASR101	HASR101
	3978	2000416458103		1	1	48449829	2019-02-06 01:54:05	1:54:05 AM	4844982929130.533424HASR101	HASR101
	3978	2000416453504		1	1	48449829	2019-02-06 01:54:14	1:54:14 AM	4844982929130.533424HASR101	HASR101
	3978	2000416456505		1	1	48449829	2019-02-06 01:54:24	1:54:24 AM	4844982929130.533424HASR101	HASR101
	4070	2000416453566		1	1	48449829	2019-02-06 01:56:59	1:56:59 AM	4844982929130.533424HASR101	HASR101
	4070	2000416453504		1	1	48449829	2019-02-06 01:57:19	1:57:19 AM	4844982929130.533424HASR101	HASR101
	4070	2000416453504		1	1	48449829	2019-02-06 01:57:26	1:57:26 AM	4844982929130.533424HASR101	HASR101
	4070	2000416453504		1	1	48449829	2019-02-06 01:57:48	1:57:48 AM	4844982929130.533424HASR101	HASR101
	4070	2000416458196		1	1	48449829	2019-02-06 01:58:02	1:58:02 AM	4844982929130.533424HASR101	HASR101
	4070	2000416458196		1	1	48449829	2019-02-06 01:58:53	1:58:53 AM	4844982929130.533424HASR101	HASR101
	4070	2000416458196		1	1	48449829	2019-02-06 01:59:12	1:59:12 AM	4844982929130.533424HASR101	HASR101
	4070	2000416453566		1	1	48449829	2019-02-06 01:59:23	1:59:23 AM	4844982929130.533424HASR101	HASR101
	4070	2000416458196		1	1	48449829	2019-02-06 01:59:34	1:59:34 AM	4844982929130.533424HASR101	HASR101
	4070	2000416453481		1	1	48449829	2019-02-06 01:59:42	1:59:42 AM	4844982929130.533424HASR101	HASR101
	4070	2000416453481		1	1	48449829	2019-02-06 01:59:52	1:59:52 AM	4844982929130.533424HASR101	HASR101
	4070	2000416453542		1	1	48449829	2019-02-06 01:59:59	1:59:59 AM	4844982929130.533424HASR101	HASR101
	4070	2000416453566		1	1	48449829	2019-02-06 02:00:07	2:00:07 AM	4844982929130.533424HASR101	HASR101
	4070	2000416453566		1	1	48449829	2019-02-06 02:00:13	2:00:13 AM	4844982929130.533424HASR101	HASR101
	4070	2000416453566		1	1	48449829	2019-02-06 02:00:28	2:00:28 AM	4844982929130.533424HASR101	HASR101
	4070	2000416448852		1	1	48449829	2019-02-06 02:00:42	2:00:42 AM	4844982929130.533424HASR101	HASR101
	4070	2000416458219		1	1	48449829	2019-02-06 02:00:50	2:00:50 AM	4844982929130.533424HASR101	HASR101
	4070	2000416453481		1	1	48449829	2019-02-06 02:00:55	2:00:55 AM	4844982929130.533424HASR101	HASR101
	4070	2000416458219		1	1	48449829	2019-02-06 02:01:08	2:01:08 AM	4844982929130.533424HASR101	HASR101
	4070	2000416458219		1	1	48449829	2019-02-06 02:01:13	2:01:13 AM	4844982929130.533424HASR101	HASR101
	4070	2000414114865		1	1	48449829	2019-02-06 02:01:19	2:01:19 AM	4844982929130.533424HASR101	HASR101
	4070	2000416453450		1	1	48449829	2019-02-06 02:01:25	2:01:25 AM	4844982929130.533424HASR101	HASR101
	4070	2000416458219		1	1	48449829	2019-02-06 02:01:31	2:01:31 AM	4844982929130.533424HASR101	HASR101
	4070	2000416453566		1	1	48449829	2019-02-06 02:01:53	2:01:53 AM	4844982929130.533424HASR101	HASR101
	4070	2000416524280		1	1	48449829	2019-02-06 02:01:59	2:01:59 AM	4844982929130.533424HASR101	HASR101
	4070	2000416453504		1	1	48449829	2019-02-06 02:02:09	2:02:09 AM	4844982929130.533424HASR101	HASR101
	4070	2000416458196		1	1	48449829	2019-02-06 02:02:18	2:02:18 AM	4844982929130.533424HASR101	HASR101
	4070	2000416453504		1	1	48449829	2019-02-06 02:02:23	2:02:23 AM	4844982929130.533424HASR101	HASR101
	4070	2000416453504		1	1	48449829	2019-02-06 02:02:54	2:02:54 AM	4844982929130.533424HASR101	HASR101
	4070	2000416458110		1	1	48449829	2019-02-06 02:02:59	2:02:59 AM	4844982929130.533424HASR101	HASR101
	4070	2000416453566		1	1	48449829	2019-02-06 02:03:16	2:03:16 AM	4844982929130.533424HASR101	HASR101
	4070	2000416458103		1	1	48449829	2019-02-06 02:03:23	2:03:23 AM	4844982929130.533424HASR101	HASR101
	4070	2000416458219		1	1	48449829	2019-02-06 02:03:31	2:03:31 AM	4844982929130.533424HASR101	HASR101
	4070	2000416458196		1	1	48449829	2019-02-06 02:03:52	2:03:52 AM	4844982929130.533424HASR101	HASR101
	4070	2000416453566		1	1	48449829	2019-02-06 02:05:02	2:05:02 AM	4844982929130.533424HASR101	HASR101
	4070	2000416453566		1	1	48449829	2019-02-06 02:05:11	2:05:11 AM	4844982929130.533424HASR101	HASR101
	4070	2000416453566		1	1	48449829	2019-02-06 02:05:24	2:05:24 AM	4844982929130.533424HASR101	HASR101
	4070	2000416458196		1	1	48449829	2019-02-06 02:05:35	2:05:35 AM	4844982929130.533424HASR101	HASR101
	4070	2000416453504		1	1	48449829	2019-02-06 02:05:44	2:05:44 AM	4844982929130.533424HASR101	HASR101
	4070	2000416448869		1	1	48449829	2019-02-06 02:06:04	2:06:04 AM	4844982929130.533424HASR101	HASR101
	4070	2000416458110		1	1	48449829	2019-02-06 02:06:09	2:06:09 AM	4844982929130.533424HASR101	HASR101
	4070	2000416444304		1	1	48449829	2019-02-06 02:06:14	2:06:14 AM	4844982929130.533424HASR101	HASR101
	4070	2000416453566		1	1	48449829	2019-02-06 02:06:19	2:06:19 AM	4844982929130.533424HASR101	HASR101
	4070	2000416458196		1	1	48449829	2019-02-06 02:06:36	2:06:36 AM	4844982929130.533424HASR101	HASR101
	4070	2000416453504		1	1	48449829	2019-02-06 02:06:43	2:06:43 AM	4844982929130.533424HASR101	HASR101
	4070	2000416453566		1	1	48449829	2019-02-06 02:06:57	2:06:57 AM	4844982929130.533424HASR101	HASR101
	4070	2000416453566		1	1	48449829	2019-02-06 02:07:03	2:07:03 AM	4844982929130.533424HASR101	HASR101
	4070	2000416458752		1	1	48449829	2019-02-06 02:07:18	2:07:18 AM	4844982929130.533424HASR101	HASR101
	4070	2000416453481		1	1	48449829	2019-02-06 02:07:37	2:07:37 AM	4844982929130.533424HASR101	HASR101
	4070	2000416458196		1	1	48449829	2019-02-06 02:07:47	2:07:47 AM	4844982929130.533424HASR101	HASR101
	4070	2000416453566		1	1	48449829	2019-02-06 02:08:15	2:08:15 AM	4844982929130.533424HASR101	HASR101
	4070	2000416453504		1	1	48449829	2019-02-06 02:08:22	2:08:22 AM	4844982929130.533424HASR101	HASR101
	4070	2000416444304		1	1	48449829	2019-02-06 02:08:32	2:08:32 AM	4844982929130.533424HASR101	HASR101
	4070	2000416458219		1	1	48449829	2019-02-06 02:08:47	2:08:47 AM	4844982929130.533424HASR101	HASR101
	4070	2000416453504		1	1	48449829	2019-02-06 02:08:53	2:08:53 AM	4844982929130.533424HASR101	HASR101
	4070	2000416458219		1	1	48449829	2019-02-06 02:08:59	2:08:59 AM	4844982929130.533424HASR101	HASR101
