	3539	2000416597413		1	1	70890458	2019-02-06 05:00:12	5:00:12 AM	70890458536220.81449PLM003	PLM003
	3539	2000416201167		1	1	70890458	2019-02-06 05:01:06	5:01:06 AM	70890458536220.81449PLM003	PLM003
	3539	2000416242146		1	1	70890458	2019-02-06 05:01:24	5:01:24 AM	70890458536220.81449PLM003	PLM003
	3539	2000416201327		1	1	70890458	2019-02-06 05:01:49	5:01:49 AM	70890458536220.81449PLM003	PLM003
	3539	2000413952840		1	1	70890458	2019-02-06 05:01:53	5:01:53 AM	70890458536220.81449PLM003	PLM003
	3539	2000415574071		1	1	70890458	2019-02-06 05:02:43	5:02:43 AM	70890458536220.81449PLM003	PLM003
	3540	2000414442722		1	1	70890458	2019-02-06 05:04:14	5:04:14 AM	70890458536220.81449PLM003	PLM003
	3540	2000414153499		1	1	70890458	2019-02-06 05:04:23	5:04:23 AM	70890458536220.81449PLM003	PLM003
	3540	2000414153499		1	1	70890458	2019-02-06 05:04:33	5:04:33 AM	70890458536220.81449PLM003	PLM003
	3540	2000414153499		1	1	70890458	2019-02-06 05:04:41	5:04:41 AM	70890458536220.81449PLM003	PLM003
	3540	2000414442739		1	1	70890458	2019-02-06 05:04:47	5:04:47 AM	70890458536220.81449PLM003	PLM003
	3540	2000414442692		1	1	70890458	2019-02-06 05:04:55	5:04:55 AM	70890458536220.81449PLM003	PLM003
	3540	7751551000188		1	1	70890458	2019-02-06 05:05:06	5:05:06 AM	70890458536220.81449PLM003	PLM003
	3540	2000403303409		1	1	70890458	2019-02-06 05:05:24	5:05:24 AM	70890458536220.81449PLM003	PLM003
	3540	41205634614		1	1	70890458	2019-02-06 05:05:42	5:05:42 AM	70890458536220.81449PLM003	PLM003
	3540	2000411838450		1	1	70890458	2019-02-06 05:05:51	5:05:51 AM	70890458536220.81449PLM003	PLM003
	3540	2000411838450		1	1	70890458	2019-02-06 05:05:56	5:05:56 AM	70890458536220.81449PLM003	PLM003
	3540	2000416107650		1	1	70890458	2019-02-06 05:06:01	5:06:01 AM	70890458536220.81449PLM003	PLM003
	3540	2000414151815		1	1	70890458	2019-02-06 05:06:08	5:06:08 AM	70890458536220.81449PLM003	PLM003
	3540	2000411838450		1	1	70890458	2019-02-06 05:06:30	5:06:30 AM	70890458536220.81449PLM003	PLM003
	3540	7755206015251		1	1	70890458	2019-02-06 05:06:46	5:06:46 AM	70890458536220.81449PLM003	PLM003
	3540	7750062594445		1	1	70890458	2019-02-06 05:07:13	5:07:13 AM	70890458536220.81449PLM003	PLM003
	3540	2000417800772		1	1	70890458	2019-02-06 05:07:19	5:07:19 AM	70890458536220.81449PLM003	PLM003
	3540	2000403433540		1	1	70890458	2019-02-06 05:07:24	5:07:24 AM	70890458536220.81449PLM003	PLM003
	3540	2000403433540		1	1	70890458	2019-02-06 05:07:28	5:07:28 AM	70890458536220.81449PLM003	PLM003
	3540	2000416959174		1	1	70890458	2019-02-06 05:07:36	5:07:36 AM	70890458536220.81449PLM003	PLM003
	3540	2000416597994		1	1	70890458	2019-02-06 05:07:46	5:07:46 AM	70890458536220.81449PLM003	PLM003
	3540	2000410609976		1	1	70890458	2019-02-06 05:08:02	5:08:02 AM	70890458536220.81449PLM003	PLM003
	3540	2000409955275		1	1	70890458	2019-02-06 05:08:17	5:08:17 AM	70890458536220.81449PLM003	PLM003
	3540	2000409955275		1	1	70890458	2019-02-06 05:08:24	5:08:24 AM	70890458536220.81449PLM003	PLM003
	3540	7755206008079		1	1	70890458	2019-02-06 05:08:42	5:08:42 AM	70890458536220.81449PLM003	PLM003
	3540	2000400558697		1	1	70890458	2019-02-06 05:09:26	5:09:26 AM	70890458536220.81449PLM003	PLM003
	3538	7754807138840		1	1	70890458	2019-02-06 05:12:47	5:12:47 AM	70890458536220.81449PLM003	PLM003
	3538	2000408666134		1	1	70890458	2019-02-06 05:13:07	5:13:07 AM	70890458536220.81449PLM003	PLM003
	3538	191726000600		1	1	70890458	2019-02-06 05:13:25	5:13:25 AM	70890458536220.81449PLM003	PLM003
	3538	2000409698578		1	1	70890458	2019-02-06 05:13:40	5:13:40 AM	70890458536220.81449PLM003	PLM003
	3538	2000407121269		1	1	70890458	2019-02-06 05:13:47	5:13:47 AM	70890458536220.81449PLM003	PLM003
	3538	8436563302619		1	1	70890458	2019-02-06 05:13:59	5:13:59 AM	70890458536220.81449PLM003	PLM003
	3538	2000413654980		1	1	70890458	2019-02-06 05:14:12	5:14:12 AM	70890458536220.81449PLM003	PLM003
	3538	887961385168		1	1	70890458	2019-02-06 05:14:23	5:14:23 AM	70890458536220.81449PLM003	PLM003
	3538	4895038543164		1	1	70890458	2019-02-06 05:14:36	5:14:36 AM	70890458536220.81449PLM003	PLM003
	3538	2000410609976		1	1	70890458	2019-02-06 05:14:51	5:14:51 AM	70890458536220.81449PLM003	PLM003
	3538	2000410609976		1	1	70890458	2019-02-06 05:15:00	5:15:00 AM	70890458536220.81449PLM003	PLM003
	3538	2000410609976		1	1	70890458	2019-02-06 05:15:10	5:15:10 AM	70890458536220.81449PLM003	PLM003
	3538	2000410609976		1	1	70890458	2019-02-06 05:15:33	5:15:33 AM	70890458536220.81449PLM003	PLM003
	3538	887961496383		1	1	70890458	2019-02-06 05:15:43	5:15:43 AM	70890458536220.81449PLM003	PLM003
	3538	191726000624		1	1	70890458	2019-02-06 05:15:57	5:15:57 AM	70890458536220.81449PLM003	PLM003
	3538	2000404709637		1	1	70890458	2019-02-06 05:16:06	5:16:06 AM	70890458536220.81449PLM003	PLM003
	3538	5013138668597		1	1	70890458	2019-02-06 05:16:12	5:16:12 AM	70890458536220.81449PLM003	PLM003
	3538	2000413634227		1	1	70890458	2019-02-06 05:16:49	5:16:49 AM	70890458536220.81449PLM003	PLM003
	3538	2000411783682		1	1	70890458	2019-02-06 05:17:08	5:17:08 AM	70890458536220.81449PLM003	PLM003
	3538	630509308453		1	1	70890458	2019-02-06 05:17:19	5:17:19 AM	70890458536220.81449PLM003	PLM003
	3538	2000403304956		1	1	70890458	2019-02-06 05:17:28	5:17:28 AM	70890458536220.81449PLM003	PLM003
	3538	2000413631905		1	1	70890458	2019-02-06 05:17:40	5:17:40 AM	70890458536220.81449PLM003	PLM003
	3538	2000409670208		1	1	70890458	2019-02-06 05:17:48	5:17:48 AM	70890458536220.81449PLM003	PLM003
	3538	630509263141		1	1	70890458	2019-02-06 05:17:58	5:17:58 AM	70890458536220.81449PLM003	PLM003
	3538	630509490974		1	1	70890458	2019-02-06 05:18:06	5:18:06 AM	70890458536220.81449PLM003	PLM003
	3538	2000413626598		1	1	70890458	2019-02-06 05:18:16	5:18:16 AM	70890458536220.81449PLM003	PLM003
	3538	39897569253		1	1	70890458	2019-02-06 05:18:24	5:18:24 AM	70890458536220.81449PLM003	PLM003
	3538	653569975434		1	1	70890458	2019-02-06 05:18:29	5:18:29 AM	70890458536220.81449PLM003	PLM003
	3538	2000411312202		1	1	70890458	2019-02-06 05:18:36	5:18:36 AM	70890458536220.81449PLM003	PLM003
	3535	191726000600		1	1	70890458	2019-02-06 05:21:04	5:21:04 AM	70890458536220.81449PLM003	PLM003
	3535	2000416000029		1	1	70890458	2019-02-06 05:21:26	5:21:26 AM	70890458536220.81449PLM003	PLM003
	3535	2000416012701		1	1	70890458	2019-02-06 05:21:44	5:21:44 AM	70890458536220.81449PLM003	PLM003
	3535	2000414529348		1	1	70890458	2019-02-06 05:22:06	5:22:06 AM	70890458536220.81449PLM003	PLM003
	3535	2000414108703		1	1	70890458	2019-02-06 05:22:19	5:22:19 AM	70890458536220.81449PLM003	PLM003
	3535	7750062863480		1	1	70890458	2019-02-06 05:22:35	5:22:35 AM	70890458536220.81449PLM003	PLM003
	3535	2000416373420		1	1	70890458	2019-02-06 05:24:09	5:24:09 AM	70890458536220.81449PLM003	PLM003
	3535	2000414448335		1	1	70890458	2019-02-06 05:24:29	5:24:29 AM	70890458536220.81449PLM003	PLM003
	3535	27084930689		1	1	70890458	2019-02-06 05:24:44	5:24:44 AM	70890458536220.81449PLM003	PLM003
	3535	2000415182368		1	1	70890458	2019-02-06 05:24:52	5:24:52 AM	70890458536220.81449PLM003	PLM003
	3535	2000416598007		1	1	70890458	2019-02-06 05:25:04	5:25:04 AM	70890458536220.81449PLM003	PLM003
	3535	7755206012854		1	1	70890458	2019-02-06 05:25:18	5:25:18 AM	70890458536220.81449PLM003	PLM003
	3535	8803733608022		1	1	70890458	2019-02-06 05:25:26	5:25:26 AM	70890458536220.81449PLM003	PLM003
	3535	630509490974		1	1	70890458	2019-02-06 05:25:40	5:25:40 AM	70890458536220.81449PLM003	PLM003
	3535	2000414257654		1	1	70890458	2019-02-06 05:25:57	5:25:57 AM	70890458536220.81449PLM003	PLM003
	3535	2000415487890		1	1	70890458	2019-02-06 05:26:15	5:26:15 AM	70890458536220.81449PLM003	PLM003
	3535	2000416205448		1	1	70890458	2019-02-06 05:26:21	5:26:21 AM	70890458536220.81449PLM003	PLM003
	3535	2000416531257		1	1	70890458	2019-02-06 05:26:34	5:26:34 AM	70890458536220.81449PLM003	PLM003
	3535	2000415182313		1	1	70890458	2019-02-06 05:27:53	5:27:53 AM	70890458536220.81449PLM003	PLM003
	3535	2000416278169		1	1	70890458	2019-02-06 05:28:08	5:28:08 AM	70890458536220.81449PLM003	PLM003
	3535	7750062013953		1	1	70890458	2019-02-06 05:28:22	5:28:22 AM	70890458536220.81449PLM003	PLM003
	3535	7750062696668		1	1	70890458	2019-02-06 05:28:29	5:28:29 AM	70890458536220.81449PLM003	PLM003
	3535	39897643816		1	1	70890458	2019-02-06 05:28:35	5:28:35 AM	70890458536220.81449PLM003	PLM003
	3535	2000414494363		1	1	70890458	2019-02-06 05:28:45	5:28:45 AM	70890458536220.81449PLM003	PLM003
	3535	2000414442708		1	1	70890458	2019-02-06 05:28:51	5:28:51 AM	70890458536220.81449PLM003	PLM003
	3535	2000405469899		1	1	70890458	2019-02-06 05:29:01	5:29:01 AM	70890458536220.81449PLM003	PLM003
	3535	2000405469899		1	1	70890458	2019-02-06 05:29:07	5:29:07 AM	70890458536220.81449PLM003	PLM003
	3535	2000405469899		1	1	70890458	2019-02-06 05:29:14	5:29:14 AM	70890458536220.81449PLM003	PLM003
	3535	2000405005530		1	1	70890458	2019-02-06 05:29:19	5:29:19 AM	70890458536220.81449PLM003	PLM003
	3535	630509494545		1	1	70890458	2019-02-06 05:29:32	5:29:32 AM	70890458536220.81449PLM003	PLM003
	3535	2000415012559		1	1	70890458	2019-02-06 05:29:44	5:29:44 AM	70890458536220.81449PLM003	PLM003
	3535	2000416201143		1	1	70890458	2019-02-06 05:29:55	5:29:55 AM	70890458536220.81449PLM003	PLM003
	3535	2000413208541		1	1	70890458	2019-02-06 05:30:02	5:30:02 AM	70890458536220.81449PLM003	PLM003
	3535	7750062001837		1	1	70890458	2019-02-06 05:30:19	5:30:19 AM	70890458536220.81449PLM003	PLM003
	3535	2000413634227		1	1	70890458	2019-02-06 05:30:29	5:30:29 AM	70890458536220.81449PLM003	PLM003
	3535	2000416373468		1	1	70890458	2019-02-06 05:30:43	5:30:43 AM	70890458536220.81449PLM003	PLM003
	3535	2000417389161		1	1	70890458	2019-02-06 05:31:30	5:31:30 AM	70890458536220.81449PLM003	PLM003
	3535	2000407157312		1	1	70890458	2019-02-06 05:31:39	5:31:39 AM	70890458536220.81449PLM003	PLM003
	3535	2000405580211		1	1	70890458	2019-02-06 05:31:46	5:31:46 AM	70890458536220.81449PLM003	PLM003
	3535	2000405580211		1	1	70890458	2019-02-06 05:32:10	5:32:10 AM	70890458536220.81449PLM003	PLM003
	3535	2000417387877		1	1	70890458	2019-02-06 05:32:58	5:32:58 AM	70890458536220.81449PLM003	PLM003
	3535	2000410170711		1	1	70890458	2019-02-06 05:33:05	5:33:05 AM	70890458536220.81449PLM003	PLM003
	3535	2000416393565		1	1	70890458	2019-02-06 05:33:37	5:33:37 AM	70890458536220.81449PLM003	PLM003
	3535	887961234633		1	1	70890458	2019-02-06 05:33:44	5:33:44 AM	70890458536220.81449PLM003	PLM003
	3535	7755206015268		1	1	70890458	2019-02-06 05:33:50	5:33:50 AM	70890458536220.81449PLM003	PLM003
	3535	2000416494675		1	1	70890458	2019-02-06 05:33:59	5:33:59 AM	70890458536220.81449PLM003	PLM003
	3535	7750062011614		1	1	70890458	2019-02-06 05:34:08	5:34:08 AM	70890458536220.81449PLM003	PLM003
	3535	2000416088898		1	1	70890458	2019-02-06 05:34:24	5:34:24 AM	70890458536220.81449PLM003	PLM003
	3535	2000412478716		1	1	70890458	2019-02-06 05:34:37	5:34:37 AM	70890458536220.81449PLM003	PLM003
	3535	2000415182375		1	1	70890458	2019-02-06 05:34:42	5:34:42 AM	70890458536220.81449PLM003	PLM003
