	4779	7613034416902		6	2	71584402	2019-02-06 01:49:17	1:49 AM	7158440226520.7747401PLM014	PLM014
	4778	7613034418937		10	2	71584402	2019-02-06 01:50:29	1:50 AM	7158440226520.7747401PLM014	PLM014
	4778	7613034416865		6	2	71584402	2019-02-06 01:51:07	1:51 AM	7158440226520.7747401PLM014	PLM014
	4778	6922428602670		1	2	71584402	2019-02-06 01:51:15	1:51 AM	7158440226520.7747401PLM014	PLM014
	4777	2000410682993		1	2	71584402	2019-02-06 01:53:04	1:53 AM	7158440226520.7747401PLM014	PLM014
	4777	7613034419224		15	2	71584402	2019-02-06 01:54:32	1:54 AM	7158440226520.7747401PLM014	PLM014
	4782	7753176000635		49	2	71584402	2019-02-06 01:56:17	1:56 AM	7158440226520.7747401PLM014	PLM014
	4782	7753176000567		42	2	71584402	2019-02-06 01:57:33	1:57 AM	7158440226520.7747401PLM014	PLM014
	4782	7753176000611		42	2	71584402	2019-02-06 01:59:23	1:59 AM	7158440226520.7747401PLM014	PLM014
	4781	7753176001205		11	2	71584402	2019-02-06 02:01:02	2:01 AM	7158440226520.7747401PLM014	PLM014
	4781	7753176001281		8	2	71584402	2019-02-06 02:01:59	2:01 AM	7158440226520.7747401PLM014	PLM014
	4781	7753176001403		6	2	71584402	2019-02-06 02:02:23	2:02 AM	7158440226520.7747401PLM014	PLM014
	4342	7502247331549		1	2	71584402	2019-02-06 02:06:36	2:06 AM	7158440226520.7747401PLM014	PLM014
