	4758	2000416087693		10	2	71985246	2019-02-06 03:48:57	3:48 AM	7198524649380.7090379PLM009	PLM009
	4758	2000416087686		12	2	71985246	2019-02-06 03:49:15	3:49 AM	7198524649380.7090379PLM009	PLM009
	4758	2000416087693		6	2	71985246	2019-02-06 03:49:39	3:49 AM	7198524649380.7090379PLM009	PLM009
	4758	2000416087686		4	2	71985246	2019-02-06 03:50:16	3:50 AM	7198524649380.7090379PLM009	PLM009
	4758	2000416087693		5	2	71985246	2019-02-06 03:51:23	3:51 AM	7198524649380.7090379PLM009	PLM009
	4758	2000416087686		6	2	71985246	2019-02-06 03:51:35	3:51 AM	7198524649380.7090379PLM009	PLM009
	4758	2000416087686		4	2	71985246	2019-02-06 03:51:46	3:51 AM	7198524649380.7090379PLM009	PLM009
	4758	2000416087693		9	2	71985246	2019-02-06 03:52:04	3:52 AM	7198524649380.7090379PLM009	PLM009
	4758	2000416087723		10	2	71985246	2019-02-06 03:53:12	3:53 AM	7198524649380.7090379PLM009	PLM009
	4758	2000416087723		8	2	71985246	2019-02-06 03:53:36	3:53 AM	7198524649380.7090379PLM009	PLM009
	4758	2000416087686		1	2	71985246	2019-02-06 03:53:51	3:53 AM	7198524649380.7090379PLM009	PLM009
	4758	2000416087730		1	2	71985246	2019-02-06 03:53:53	3:53 AM	7198524649380.7090379PLM009	PLM009
	4758	2000416087686		2	2	71985246	2019-02-06 03:53:57	3:53 AM	7198524649380.7090379PLM009	PLM009
	4758	2000416087723		10	2	71985246	2019-02-06 03:54:52	3:54 AM	7198524649380.7090379PLM009	PLM009
	4758	2000416087723		10	2	71985246	2019-02-06 03:55:26	3:55 AM	7198524649380.7090379PLM009	PLM009
	4758	2000416087723		3	2	71985246	2019-02-06 03:55:39	3:55 AM	7198524649380.7090379PLM009	PLM009
	4758	2000416087648		3	2	71985246	2019-02-06 03:55:52	3:55 AM	7198524649380.7090379PLM009	PLM009
	4758	2000416087693		2	2	71985246	2019-02-06 03:55:56	3:55 AM	7198524649380.7090379PLM009	PLM009
	4758	2000416087723		7	2	71985246	2019-02-06 03:56:25	3:56 AM	7198524649380.7090379PLM009	PLM009
	4758	2000416087723		6	2	71985246	2019-02-06 03:56:41	3:56 AM	7198524649380.7090379PLM009	PLM009
	4758	2000416087723		4	2	71985246	2019-02-06 03:56:54	3:56 AM	7198524649380.7090379PLM009	PLM009
	4758	2000416087600		8	2	71985246	2019-02-06 03:57:20	3:57 AM	7198524649380.7090379PLM009	PLM009
	4758	2000416087617		1	2	71985246	2019-02-06 03:57:29	3:57 AM	7198524649380.7090379PLM009	PLM009
	4757	2000416087600		13	2	71985246	2019-02-06 04:00:46	4:00 AM	7198524649380.7090379PLM009	PLM009
	4757	2000416087600		14	2	71985246	2019-02-06 04:01:55	4:01 AM	7198524649380.7090379PLM009	PLM009
	4757	2000416087600		6	2	71985246	2019-02-06 04:02:30	4:02 AM	7198524649380.7090379PLM009	PLM009
	4757	2000416087600		6	2	71985246	2019-02-06 04:02:50	4:02 AM	7198524649380.7090379PLM009	PLM009
	4757	2000416087730		1	2	71985246	2019-02-06 04:02:57	4:02 AM	7198524649380.7090379PLM009	PLM009
	4757	2000416087648		1	2	71985246	2019-02-06 04:03:06	4:03 AM	7198524649380.7090379PLM009	PLM009
	4757	2000416087617		1	2	71985246	2019-02-06 04:03:11	4:03 AM	7198524649380.7090379PLM009	PLM009
	4757	2000416087600		7	2	71985246	2019-02-06 04:03:48	4:03 AM	7198524649380.7090379PLM009	PLM009
	4757	2000416087723		1	2	71985246	2019-02-06 04:03:51	4:03 AM	7198524649380.7090379PLM009	PLM009
	4757	2000416087693		3	2	71985246	2019-02-06 04:06:16	4:06 AM	7198524649380.7090379PLM009	PLM009
	4757	2000416087617		45	2	71985246	2019-02-06 04:07:54	4:07 AM	7198524649380.7090379PLM009	PLM009
	4757	2000416087723		4	2	71985246	2019-02-06 04:08:06	4:08 AM	7198524649380.7090379PLM009	PLM009
	4757	2000416087600		1	2	71985246	2019-02-06 04:08:15	4:08 AM	7198524649380.7090379PLM009	PLM009
	4757	2000416087648		2	2	71985246	2019-02-06 04:08:22	4:08 AM	7198524649380.7090379PLM009	PLM009
