	3539	2000416597413		1	1	72270681	2019-02-06 05:00:47	5:00:47 AM	72270681535580.7747401PLM027	PLM027
	3539	2000409866014		1	1	72270681	2019-02-06 05:01:01	5:01:01 AM	72270681535580.7747401PLM027	PLM027
	3536	2000411442527		1	1	72270681	2019-02-06 05:02:50	5:02:50 AM	72270681535580.7747401PLM027	PLM027
	3536	191726000617		1	1	72270681	2019-02-06 05:02:56	5:02:56 AM	72270681535580.7747401PLM027	PLM027
	3536	2000411936927		1	1	72270681	2019-02-06 05:03:04	5:03:04 AM	72270681535580.7747401PLM027	PLM027
	3536	2000414491379		1	1	72270681	2019-02-06 05:03:11	5:03:11 AM	72270681535580.7747401PLM027	PLM027
	3536	2000413771885		1	1	72270681	2019-02-06 05:03:14	5:03:14 AM	72270681535580.7747401PLM027	PLM027
	3536	7804915006378		1	1	72270681	2019-02-06 05:03:20	5:03:20 AM	72270681535580.7747401PLM027	PLM027
	3536	630509617296		1	1	72270681	2019-02-06 05:03:26	5:03:26 AM	72270681535580.7747401PLM027	PLM027
	3536	2000409698578		1	1	72270681	2019-02-06 05:03:32	5:03:32 AM	72270681535580.7747401PLM027	PLM027
	3536	2000415958406		1	1	72270681	2019-02-06 05:03:38	5:03:38 AM	72270681535580.7747401PLM027	PLM027
	3536	2000416088898		1	1	72270681	2019-02-06 05:03:43	5:03:43 AM	72270681535580.7747401PLM027	PLM027
	3536	2000413518480		1	1	72270681	2019-02-06 05:03:49	5:03:49 AM	72270681535580.7747401PLM027	PLM027
	3536	2000417646875		1	1	72270681	2019-02-06 05:03:56	5:03:56 AM	72270681535580.7747401PLM027	PLM027
	3536	2000416201693		1	1	72270681	2019-02-06 05:04:01	5:04:01 AM	72270681535580.7747401PLM027	PLM027
	3536	2000407121269		1	1	72270681	2019-02-06 05:04:04	5:04:04 AM	72270681535580.7747401PLM027	PLM027
	3536	2000417215576		1	1	72270681	2019-02-06 05:04:11	5:04:11 AM	72270681535580.7747401PLM027	PLM027
	3536	818736002768		1	1	72270681	2019-02-06 05:04:22	5:04:22 AM	72270681535580.7747401PLM027	PLM027
	3536	2000416527991		1	1	72270681	2019-02-06 05:04:32	5:04:32 AM	72270681535580.7747401PLM027	PLM027
	3536	2000416089864		1	1	72270681	2019-02-06 05:04:37	5:04:37 AM	72270681535580.7747401PLM027	PLM027
	3536	2000417253073		1	1	72270681	2019-02-06 05:04:40	5:04:40 AM	72270681535580.7747401PLM027	PLM027
	3536	2000406745503		1	1	72270681	2019-02-06 05:04:46	5:04:46 AM	72270681535580.7747401PLM027	PLM027
	3536	2000411783408		1	1	72270681	2019-02-06 05:04:50	5:04:50 AM	72270681535580.7747401PLM027	PLM027
	3536	2000415599753		1	1	72270681	2019-02-06 05:04:56	5:04:56 AM	72270681535580.7747401PLM027	PLM027
	3536	2000415481485		1	1	72270681	2019-02-06 05:05:18	5:05:18 AM	72270681535580.7747401PLM027	PLM027
	3536	2000415182368		1	1	72270681	2019-02-06 05:05:41	5:05:41 AM	72270681535580.7747401PLM027	PLM027
	3536	2000417657123		1	1	72270681	2019-02-06 05:05:50	5:05:50 AM	72270681535580.7747401PLM027	PLM027
	3536	2000415487890		1	1	72270681	2019-02-06 05:05:55	5:05:55 AM	72270681535580.7747401PLM027	PLM027
	3536	2000415648215		1	1	72270681	2019-02-06 05:06:25	5:06:25 AM	72270681535580.7747401PLM027	PLM027
	3536	2000415804918		1	1	72270681	2019-02-06 05:06:33	5:06:33 AM	72270681535580.7747401PLM027	PLM027
	3536	887961538908		1	1	72270681	2019-02-06 05:06:37	5:06:37 AM	72270681535580.7747401PLM027	PLM027
	3536	2000413868295		1	1	72270681	2019-02-06 05:06:42	5:06:42 AM	72270681535580.7747401PLM027	PLM027
	3536	2000416597888		1	1	72270681	2019-02-06 05:06:55	5:06:55 AM	72270681535580.7747401PLM027	PLM027
	3536	2000409158737		1	1	72270681	2019-02-06 05:07:01	5:07:01 AM	72270681535580.7747401PLM027	PLM027
	3536	41205634621		1	1	72270681	2019-02-06 05:07:08	5:07:08 AM	72270681535580.7747401PLM027	PLM027
	3536	2000405469899		1	1	72270681	2019-02-06 05:07:14	5:07:14 AM	72270681535580.7747401PLM027	PLM027
	3536	2000405469899		1	1	72270681	2019-02-06 05:07:17	5:07:17 AM	72270681535580.7747401PLM027	PLM027
	3536	7752131000130		1	1	72270681	2019-02-06 05:07:35	5:07:35 AM	72270681535580.7747401PLM027	PLM027
	3536	2000415092933		1	1	72270681	2019-02-06 05:07:44	5:07:44 AM	72270681535580.7747401PLM027	PLM027
	3536	2000406884561		1	1	72270681	2019-02-06 05:07:57	5:07:57 AM	72270681535580.7747401PLM027	PLM027
	3536	2000416435562		1	1	72270681	2019-02-06 05:08:06	5:08:06 AM	72270681535580.7747401PLM027	PLM027
	3536	2000415182313		1	1	72270681	2019-02-06 05:08:15	5:08:15 AM	72270681535580.7747401PLM027	PLM027
	3536	2000417388843		1	1	72270681	2019-02-06 05:08:23	5:08:23 AM	72270681535580.7747401PLM027	PLM027
	3536	7750062002292		1	1	72270681	2019-02-06 05:09:03	5:09:03 AM	72270681535580.7747401PLM027	PLM027
	3536	7750308806646		1	1	72270681	2019-02-06 05:09:11	5:09:11 AM	72270681535580.7747401PLM027	PLM027
	3536	2000416205356		1	1	72270681	2019-02-06 05:09:23	5:09:23 AM	72270681535580.7747401PLM027	PLM027
	3536	2000416201686		1	1	72270681	2019-02-06 05:09:32	5:09:32 AM	72270681535580.7747401PLM027	PLM027
	3536	7751035000505		1	1	72270681	2019-02-06 05:09:40	5:09:40 AM	72270681535580.7747401PLM027	PLM027
	3536	2000403433564		1	1	72270681	2019-02-06 05:09:46	5:09:46 AM	72270681535580.7747401PLM027	PLM027
	3536	7755206001520		1	1	72270681	2019-02-06 05:09:48	5:09:48 AM	72270681535580.7747401PLM027	PLM027
	3536	2000414151815		1	1	72270681	2019-02-06 05:10:02	5:10:02 AM	72270681535580.7747401PLM027	PLM027
	3536	2000415092940		1	1	72270681	2019-02-06 05:10:10	5:10:10 AM	72270681535580.7747401PLM027	PLM027
	3536	2000410000667		1	1	72270681	2019-02-06 05:10:24	5:10:24 AM	72270681535580.7747401PLM027	PLM027
	3536	2000402970381		1	1	72270681	2019-02-06 05:10:30	5:10:30 AM	72270681535580.7747401PLM027	PLM027
	3536	7806810262033		1	1	72270681	2019-02-06 05:10:36	5:10:36 AM	72270681535580.7747401PLM027	PLM027
	3536	2000416180639		1	1	72270681	2019-02-06 05:10:53	5:10:53 AM	72270681535580.7747401PLM027	PLM027
	3536	2000415012337		1	1	72270681	2019-02-06 05:11:14	5:11:14 AM	72270681535580.7747401PLM027	PLM027
	3536	2000406356747		1	1	72270681	2019-02-06 05:11:26	5:11:26 AM	72270681535580.7747401PLM027	PLM027
	3536	2000414143995		1	1	72270681	2019-02-06 05:12:00	5:12:00 AM	72270681535580.7747401PLM027	PLM027
	3536	2000414143995		1	1	72270681	2019-02-06 05:12:05	5:12:05 AM	72270681535580.7747401PLM027	PLM027
	3536	2000414143995		1	1	72270681	2019-02-06 05:12:23	5:12:23 AM	72270681535580.7747401PLM027	PLM027
	3536	2000414143995		1	1	72270681	2019-02-06 05:12:30	5:12:30 AM	72270681535580.7747401PLM027	PLM027
	3536	2000416201549		1	1	72270681	2019-02-06 05:12:36	5:12:36 AM	72270681535580.7747401PLM027	PLM027
	3536	2000414017890		1	1	72270681	2019-02-06 05:12:38	5:12:38 AM	72270681535580.7747401PLM027	PLM027
	3536	2000414442692		1	1	72270681	2019-02-06 05:14:01	5:14:01 AM	72270681535580.7747401PLM027	PLM027
	3536	7750062950364		1	1	72270681	2019-02-06 05:14:08	5:14:08 AM	72270681535580.7747401PLM027	PLM027
	3536	2000405637083		1	1	72270681	2019-02-06 05:14:16	5:14:16 AM	72270681535580.7747401PLM027	PLM027
	3536	41205634621		1	1	72270681	2019-02-06 05:14:23	5:14:23 AM	72270681535580.7747401PLM027	PLM027
	3536	41205679028		1	1	72270681	2019-02-06 05:14:32	5:14:32 AM	72270681535580.7747401PLM027	PLM027
	3536	2000416089864		1	1	72270681	2019-02-06 05:14:39	5:14:39 AM	72270681535580.7747401PLM027	PLM027
	3536	2000416180363		1	1	72270681	2019-02-06 05:15:03	5:15:03 AM	72270681535580.7747401PLM027	PLM027
	3536	2000415182368		1	1	72270681	2019-02-06 05:15:10	5:15:10 AM	72270681535580.7747401PLM027	PLM027
	3536	2000415182368		1	1	72270681	2019-02-06 05:15:14	5:15:14 AM	72270681535580.7747401PLM027	PLM027
	3536	2000414510049		1	1	72270681	2019-02-06 05:15:16	5:15:16 AM	72270681535580.7747401PLM027	PLM027
	3536	8803733721127		1	1	72270681	2019-02-06 05:15:25	5:15:25 AM	72270681535580.7747401PLM027	PLM027
	3536	7750308403647		1	1	72270681	2019-02-06 05:15:29	5:15:29 AM	72270681535580.7747401PLM027	PLM027
	3536	2000416535934		1	1	72270681	2019-02-06 05:15:35	5:15:35 AM	72270681535580.7747401PLM027	PLM027
	3536	2000402467966		1	1	72270681	2019-02-06 05:15:42	5:15:42 AM	72270681535580.7747401PLM027	PLM027
	3536	7750277121979		1	1	72270681	2019-02-06 05:16:02	5:16:02 AM	72270681535580.7747401PLM027	PLM027
	3536	2000415487890		1	1	72270681	2019-02-06 05:16:05	5:16:05 AM	72270681535580.7747401PLM027	PLM027
	3536	2000415182368		1	1	72270681	2019-02-06 05:16:09	5:16:09 AM	72270681535580.7747401PLM027	PLM027
	3536	2000415487890		1	1	72270681	2019-02-06 05:16:13	5:16:13 AM	72270681535580.7747401PLM027	PLM027
	3536	2000416531370		1	1	72270681	2019-02-06 05:16:15	5:16:15 AM	72270681535580.7747401PLM027	PLM027
	3536	2000415182375		1	1	72270681	2019-02-06 05:16:18	5:16:18 AM	72270681535580.7747401PLM027	PLM027
	3536	2000414037638		1	1	72270681	2019-02-06 05:16:20	5:16:20 AM	72270681535580.7747401PLM027	PLM027
	3536	2000415012344		1	1	72270681	2019-02-06 05:16:30	5:16:30 AM	72270681535580.7747401PLM027	PLM027
	3537	2000416200955		1	1	72270681	2019-02-06 05:17:13	5:17:13 AM	72270681535580.7747401PLM027	PLM027
	3537	2000416000012		1	1	72270681	2019-02-06 05:17:23	5:17:23 AM	72270681535580.7747401PLM027	PLM027
	3537	2000416007387		1	1	72270681	2019-02-06 05:17:32	5:17:32 AM	72270681535580.7747401PLM027	PLM027
	3537	2000411479875		1	1	72270681	2019-02-06 05:17:40	5:17:40 AM	72270681535580.7747401PLM027	PLM027
	3537	4894060606229		1	1	72270681	2019-02-06 05:17:50	5:17:50 AM	72270681535580.7747401PLM027	PLM027
	3537	2000411936927		1	1	72270681	2019-02-06 05:17:57	5:17:57 AM	72270681535580.7747401PLM027	PLM027
	3537	2000404709637		1	1	72270681	2019-02-06 05:18:02	5:18:02 AM	72270681535580.7747401PLM027	PLM027
	3537	2000416278107		1	1	72270681	2019-02-06 05:18:05	5:18:05 AM	72270681535580.7747401PLM027	PLM027
	3537	39897643816		1	1	72270681	2019-02-06 05:18:08	5:18:08 AM	72270681535580.7747401PLM027	PLM027
	3537	884978610641		1	1	72270681	2019-02-06 05:18:13	5:18:13 AM	72270681535580.7747401PLM027	PLM027
	3537	7751551000355		1	1	72270681	2019-02-06 05:18:18	5:18:18 AM	72270681535580.7747401PLM027	PLM027
	3537	2000413868288		1	1	72270681	2019-02-06 05:18:26	5:18:26 AM	72270681535580.7747401PLM027	PLM027
	3537	2000418336386		1	1	72270681	2019-02-06 05:18:34	5:18:34 AM	72270681535580.7747401PLM027	PLM027
	3537	2000416566006		1	1	72270681	2019-02-06 05:18:57	5:18:57 AM	72270681535580.7747401PLM027	PLM027
	3537	2000416464630		1	1	72270681	2019-02-06 05:19:00	5:19:00 AM	72270681535580.7747401PLM027	PLM027
	3537	2000416464647		1	1	72270681	2019-02-06 05:19:09	5:19:09 AM	72270681535580.7747401PLM027	PLM027
	3537	2000416464647		1	1	72270681	2019-02-06 05:19:17	5:19:17 AM	72270681535580.7747401PLM027	PLM027
	3537	2000414996874		1	1	72270681	2019-02-06 05:19:21	5:19:21 AM	72270681535580.7747401PLM027	PLM027
	3537	6942138920536		1	1	72270681	2019-02-06 05:19:25	5:19:25 AM	72270681535580.7747401PLM027	PLM027
	3537	39897643816		1	1	72270681	2019-02-06 05:19:30	5:19:30 AM	72270681535580.7747401PLM027	PLM027
	3537	887961321746		1	1	72270681	2019-02-06 05:19:35	5:19:35 AM	72270681535580.7747401PLM027	PLM027
	3537	887961439540		1	1	72270681	2019-02-06 05:19:39	5:19:39 AM	72270681535580.7747401PLM027	PLM027
	3537	887961216820		1	1	72270681	2019-02-06 05:19:44	5:19:44 AM	72270681535580.7747401PLM027	PLM027
	3537	2000417801991		1	1	72270681	2019-02-06 05:19:53	5:19:53 AM	72270681535580.7747401PLM027	PLM027
	3537	2000416511839		1	1	72270681	2019-02-06 05:20:03	5:20:03 AM	72270681535580.7747401PLM027	PLM027
	3537	2000418355585		1	1	72270681	2019-02-06 05:20:08	5:20:08 AM	72270681535580.7747401PLM027	PLM027
	3537	2000409660711		1	1	72270681	2019-02-06 05:20:11	5:20:11 AM	72270681535580.7747401PLM027	PLM027
	3537	2000415390848		1	1	72270681	2019-02-06 05:20:14	5:20:14 AM	72270681535580.7747401PLM027	PLM027
	3537	887961241372		1	1	72270681	2019-02-06 05:20:41	5:20:41 AM	72270681535580.7747401PLM027	PLM027
	3537	630509455560		1	1	72270681	2019-02-06 05:20:44	5:20:44 AM	72270681535580.7747401PLM027	PLM027
	3537	2000412637359		1	1	72270681	2019-02-06 05:21:04	5:21:04 AM	72270681535580.7747401PLM027	PLM027
	3537	7702010420962		1	1	72270681	2019-02-06 05:21:07	5:21:07 AM	72270681535580.7747401PLM027	PLM027
	3544	2000415040477		1	1	72270681	2019-02-06 05:23:21	5:23:21 AM	72270681535580.7747401PLM027	PLM027
	3544	2000415040422		1	1	72270681	2019-02-06 05:23:29	5:23:29 AM	72270681535580.7747401PLM027	PLM027
	3544	2000415040422		1	1	72270681	2019-02-06 05:23:33	5:23:33 AM	72270681535580.7747401PLM027	PLM027
	3544	2000415040422		1	1	72270681	2019-02-06 05:23:40	5:23:40 AM	72270681535580.7747401PLM027	PLM027
	3544	2000415040422		1	1	72270681	2019-02-06 05:23:44	5:23:44 AM	72270681535580.7747401PLM027	PLM027
	3544	2000415040422		1	1	72270681	2019-02-06 05:23:48	5:23:48 AM	72270681535580.7747401PLM027	PLM027
	3544	2000413459738		1	1	72270681	2019-02-06 05:24:15	5:24:15 AM	72270681535580.7747401PLM027	PLM027
	3544	2000413459738		1	1	72270681	2019-02-06 05:24:19	5:24:19 AM	72270681535580.7747401PLM027	PLM027
	3544	2000413459738		1	1	72270681	2019-02-06 05:24:23	5:24:23 AM	72270681535580.7747401PLM027	PLM027
	3544	2000413459738		1	1	72270681	2019-02-06 05:24:29	5:24:29 AM	72270681535580.7747401PLM027	PLM027
	3544	2000413459738		1	1	72270681	2019-02-06 05:24:34	5:24:34 AM	72270681535580.7747401PLM027	PLM027
	3544	2000413459738		1	1	72270681	2019-02-06 05:24:47	5:24:47 AM	72270681535580.7747401PLM027	PLM027
	3544	2000409050017		1	1	72270681	2019-02-06 05:25:02	5:25:02 AM	72270681535580.7747401PLM027	PLM027
	3544	2000409050017		1	1	72270681	2019-02-06 05:25:07	5:25:07 AM	72270681535580.7747401PLM027	PLM027
	3544	2000409050017		1	1	72270681	2019-02-06 05:25:23	5:25:23 AM	72270681535580.7747401PLM027	PLM027
	3544	2000409050017		1	1	72270681	2019-02-06 05:25:38	5:25:38 AM	72270681535580.7747401PLM027	PLM027
	3544	2000413459738		1	1	72270681	2019-02-06 05:26:03	5:26:03 AM	72270681535580.7747401PLM027	PLM027
	3544	2000413459738		1	1	72270681	2019-02-06 05:26:12	5:26:12 AM	72270681535580.7747401PLM027	PLM027
	3544	2000413459738		1	1	72270681	2019-02-06 05:26:17	5:26:17 AM	72270681535580.7747401PLM027	PLM027
	3544	2000413459738		1	1	72270681	2019-02-06 05:26:27	5:26:27 AM	72270681535580.7747401PLM027	PLM027
	3544	2000409050017		1	1	72270681	2019-02-06 05:26:33	5:26:33 AM	72270681535580.7747401PLM027	PLM027
	3544	2000416689217		1	1	72270681	2019-02-06 05:26:45	5:26:45 AM	72270681535580.7747401PLM027	PLM027
	3544	2000413459738		1	1	72270681	2019-02-06 05:26:57	5:26:57 AM	72270681535580.7747401PLM027	PLM027
	3544	2000413459738		1	1	72270681	2019-02-06 05:27:02	5:27:02 AM	72270681535580.7747401PLM027	PLM027
	3544	2000415040460		1	1	72270681	2019-02-06 05:27:17	5:27:17 AM	72270681535580.7747401PLM027	PLM027
	3544	2000415040460		1	1	72270681	2019-02-06 05:27:20	5:27:20 AM	72270681535580.7747401PLM027	PLM027
	3544	2000415040460		1	1	72270681	2019-02-06 05:27:33	5:27:33 AM	72270681535580.7747401PLM027	PLM027
	3544	2000415040460		1	1	72270681	2019-02-06 05:27:39	5:27:39 AM	72270681535580.7747401PLM027	PLM027
	3544	2000414093863		1	1	72270681	2019-02-06 05:27:49	5:27:49 AM	72270681535580.7747401PLM027	PLM027
	3544	2000414093863		1	1	72270681	2019-02-06 05:27:57	5:27:57 AM	72270681535580.7747401PLM027	PLM027
	3544	2000414093863		1	1	72270681	2019-02-06 05:28:10	5:28:10 AM	72270681535580.7747401PLM027	PLM027
	3544	2000414093863		1	1	72270681	2019-02-06 05:28:27	5:28:27 AM	72270681535580.7747401PLM027	PLM027
	3544	2000413860763		1	1	72270681	2019-02-06 05:28:43	5:28:43 AM	72270681535580.7747401PLM027	PLM027
	3544	2000414093863		1	1	72270681	2019-02-06 05:28:55	5:28:55 AM	72270681535580.7747401PLM027	PLM027
	3544	2000416689217		1	1	72270681	2019-02-06 05:29:17	5:29:17 AM	72270681535580.7747401PLM027	PLM027
	3544	2000416689217		1	1	72270681	2019-02-06 05:29:28	5:29:28 AM	72270681535580.7747401PLM027	PLM027
	3544	2000414093887		1	1	72270681	2019-02-06 05:29:46	5:29:46 AM	72270681535580.7747401PLM027	PLM027
	3544	2000414093863		1	1	72270681	2019-02-06 05:30:06	5:30:06 AM	72270681535580.7747401PLM027	PLM027
	3544	2000414093863		1	1	72270681	2019-02-06 05:30:25	5:30:25 AM	72270681535580.7747401PLM027	PLM027
	3544	2000414093863		1	1	72270681	2019-02-06 05:30:40	5:30:40 AM	72270681535580.7747401PLM027	PLM027
	3544	2000413860763		1	1	72270681	2019-02-06 05:30:49	5:30:49 AM	72270681535580.7747401PLM027	PLM027
	3544	2000413860763		1	1	72270681	2019-02-06 05:30:54	5:30:54 AM	72270681535580.7747401PLM027	PLM027
	3544	2000414203231		1	1	72270681	2019-02-06 05:31:02	5:31:02 AM	72270681535580.7747401PLM027	PLM027
	3544	2000413860763		1	1	72270681	2019-02-06 05:31:12	5:31:12 AM	72270681535580.7747401PLM027	PLM027
	3544	2000402928047		1	1	72270681	2019-02-06 05:31:20	5:31:20 AM	72270681535580.7747401PLM027	PLM027
	3544	2000413860763		1	1	72270681	2019-02-06 05:31:25	5:31:25 AM	72270681535580.7747401PLM027	PLM027
	3544	7750203000156		1	1	72270681	2019-02-06 05:31:30	5:31:30 AM	72270681535580.7747401PLM027	PLM027
	3544	7891116002858		1	1	72270681	2019-02-06 05:31:36	5:31:36 AM	72270681535580.7747401PLM027	PLM027
	3544	2000416152438		1	1	72270681	2019-02-06 05:31:58	5:31:58 AM	72270681535580.7747401PLM027	PLM027
	3544	7750885013642		1	1	72270681	2019-02-06 05:32:02	5:32:02 AM	72270681535580.7747401PLM027	PLM027
	3544	7755206015015		1	1	72270681	2019-02-06 05:32:05	5:32:05 AM	72270681535580.7747401PLM027	PLM027
	3544	7753688001526		1	1	72270681	2019-02-06 05:32:10	5:32:10 AM	72270681535580.7747401PLM027	PLM027
	3544	7750062013946		1	1	72270681	2019-02-06 05:32:16	5:32:16 AM	72270681535580.7747401PLM027	PLM027
	3544	7750308009573		1	1	72270681	2019-02-06 05:32:23	5:32:23 AM	72270681535580.7747401PLM027	PLM027
	3544	8803733181433		1	1	72270681	2019-02-06 05:32:28	5:32:28 AM	72270681535580.7747401PLM027	PLM027
	3544	5010576359827		1	1	72270681	2019-02-06 05:32:33	5:32:33 AM	72270681535580.7747401PLM027	PLM027
	3544	5010576359827		1	1	72270681	2019-02-06 05:32:37	5:32:37 AM	72270681535580.7747401PLM027	PLM027
	3544	7755206015015		1	1	72270681	2019-02-06 05:32:43	5:32:43 AM	72270681535580.7747401PLM027	PLM027
	3544	7755206015015		1	1	72270681	2019-02-06 05:32:49	5:32:49 AM	72270681535580.7747401PLM027	PLM027
	3544	7751551000355		1	1	72270681	2019-02-06 05:32:54	5:32:54 AM	72270681535580.7747401PLM027	PLM027
	3544	7751551000393		1	1	72270681	2019-02-06 05:33:06	5:33:06 AM	72270681535580.7747401PLM027	PLM027
	3544	2000416390830		1	1	72270681	2019-02-06 05:33:24	5:33:24 AM	72270681535580.7747401PLM027	PLM027
	3544	2000416390854		1	1	72270681	2019-02-06 05:33:28	5:33:28 AM	72270681535580.7747401PLM027	PLM027
	3544	2000416390854		1	1	72270681	2019-02-06 05:33:34	5:33:34 AM	72270681535580.7747401PLM027	PLM027
