	4717	2000410813328		45	2	72918148	2019-02-06 02:39:23	2:39 AM	72918148312560.301948PLM029	PLM029
	4717	7755019000123		52	2	72918148	2019-02-06 02:41:16	2:41 AM	72918148312560.301948PLM029	PLM029
	4716	2000410813335		12	2	72918148	2019-02-06 02:42:17	2:42 AM	72918148312560.301948PLM029	PLM029
	4716	7755019000123		46	2	72918148	2019-02-06 02:45:12	2:45 AM	72918148312560.301948PLM029	PLM029
	4715	2000410813335		11	2	72918148	2019-02-06 02:46:01	2:46 AM	72918148312560.301948PLM029	PLM029
	4715	7754487116367		72	2	72918148	2019-02-06 02:48:58	2:48 AM	72918148312560.301948PLM029	PLM029
	4714	2000405593983		1	2	72918148	2019-02-06 02:50:35	2:50 AM	72918148312560.301948PLM029	PLM029
	4714	2000405593983		3	2	72918148	2019-02-06 02:50:45	2:50 AM	72918148312560.301948PLM029	PLM029
	4714	2000405594003		55	2	72918148	2019-02-06 02:52:47	2:52 AM	72918148312560.301948PLM029	PLM029
	4714	2000416201556		1	2	72918148	2019-02-06 02:53:01	2:53 AM	72918148312560.301948PLM029	PLM029
	4714	2000405594058		43	2	72918148	2019-02-06 02:54:44	2:54 AM	72918148312560.301948PLM029	PLM029
	4714	2000405593907		28	2	72918148	2019-02-06 02:55:44	2:55 AM	72918148312560.301948PLM029	PLM029
	4714	2000405594034		16	2	72918148	2019-02-06 02:56:37	2:56 AM	72918148312560.301948PLM029	PLM029
	4714	2000405593969		36	2	72918148	2019-02-06 02:57:26	2:57 AM	72918148312560.301948PLM029	PLM029
	4714	2000405593945		8	2	72918148	2019-02-06 02:57:46	2:57 AM	72918148312560.301948PLM029	PLM029
	4714	2000405594041		36	2	72918148	2019-02-06 02:58:51	2:58 AM	72918148312560.301948PLM029	PLM029
	4714	7753121000352		5	2	72918148	2019-02-06 02:59:14	2:59 AM	72918148312560.301948PLM029	PLM029
	4713	2000405593983		27	2	72918148	2019-02-06 03:05:30	3:05 AM	72918148312560.301948PLM029	PLM029
	4713	2000405594034		40	2	72918148	2019-02-06 03:07:14	3:07 AM	72918148312560.301948PLM029	PLM029
	4713	2000405593969		49	2	72918148	2019-02-06 03:08:41	3:08 AM	72918148312560.301948PLM029	PLM029
	4713	2000405593945		5	2	72918148	2019-02-06 03:09:39	3:09 AM	72918148312560.301948PLM029	PLM029
	4713	2000405593907		7	2	72918148	2019-02-06 03:10:46	3:10 AM	72918148312560.301948PLM029	PLM029
