	3532	887961202571		1	1	72918148	2019-02-06 05:13:51	5:13:51 AM	72918148532420.04535276PLM038	PLM038
	3532	2000414108703		1	1	72918148	2019-02-06 05:13:58	5:13:58 AM	72918148532420.04535276PLM038	PLM038
	3532	2000413654980		1	1	72918148	2019-02-06 05:14:02	5:14:02 AM	72918148532420.04535276PLM038	PLM038
	3532	630509532742		1	1	72918148	2019-02-06 05:14:06	5:14:06 AM	72918148532420.04535276PLM038	PLM038
	3532	7750062010525		1	1	72918148	2019-02-06 05:14:47	5:14:47 AM	72918148532420.04535276PLM038	PLM038
	3532	2000411478571		1	1	72918148	2019-02-06 05:14:52	5:14:52 AM	72918148532420.04535276PLM038	PLM038
	3532	2000409670208		1	1	72918148	2019-02-06 05:14:58	5:14:58 AM	72918148532420.04535276PLM038	PLM038
	3532	2000413654980		1	1	72918148	2019-02-06 05:15:04	5:15:04 AM	72918148532420.04535276PLM038	PLM038
	3532	2000413634227		1	1	72918148	2019-02-06 05:15:08	5:15:08 AM	72918148532420.04535276PLM038	PLM038
	3532	887961415858		1	1	72918148	2019-02-06 05:15:21	5:15:21 AM	72918148532420.04535276PLM038	PLM038
	3532	2000413634227		1	1	72918148	2019-02-06 05:15:25	5:15:25 AM	72918148532420.04535276PLM038	PLM038
	3532	2000411783767		1	1	72918148	2019-02-06 05:15:47	5:15:47 AM	72918148532420.04535276PLM038	PLM038
	3532	2000413634203		1	1	72918148	2019-02-06 05:15:51	5:15:51 AM	72918148532420.04535276PLM038	PLM038
	3532	4895038544208		1	1	72918148	2019-02-06 05:16:13	5:16:13 AM	72918148532420.04535276PLM038	PLM038
	3532	2000411783408		1	1	72918148	2019-02-06 05:16:20	5:16:20 AM	72918148532420.04535276PLM038	PLM038
	3532	2000414151815		1	1	72918148	2019-02-06 05:16:27	5:16:27 AM	72918148532420.04535276PLM038	PLM038
	3532	2000414151815		1	1	72918148	2019-02-06 05:16:31	5:16:31 AM	72918148532420.04535276PLM038	PLM038
	3532	630509612512		1	1	72918148	2019-02-06 05:16:36	5:16:36 AM	72918148532420.04535276PLM038	PLM038
	3532	2000407058008		1	1	72918148	2019-02-06 05:16:42	5:16:42 AM	72918148532420.04535276PLM038	PLM038
	3532	191726000617		1	1	72918148	2019-02-06 05:17:07	5:17:07 AM	72918148532420.04535276PLM038	PLM038
	3532	2000417118457		1	1	72918148	2019-02-06 05:17:13	5:17:13 AM	72918148532420.04535276PLM038	PLM038
	3532	2000414442692		1	1	72918148	2019-02-06 05:17:37	5:17:37 AM	72918148532420.04535276PLM038	PLM038
	3532	2000414616277		1	1	72918148	2019-02-06 05:17:43	5:17:43 AM	72918148532420.04535276PLM038	PLM038
	3532	2000403274471		1	1	72918148	2019-02-06 05:17:52	5:17:52 AM	72918148532420.04535276PLM038	PLM038
	3532	2000416262694		1	1	72918148	2019-02-06 05:18:04	5:18:04 AM	72918148532420.04535276PLM038	PLM038
	3532	2000416262717		1	1	72918148	2019-02-06 05:18:12	5:18:12 AM	72918148532420.04535276PLM038	PLM038
	3532	2000411225618		1	1	72918148	2019-02-06 05:18:24	5:18:24 AM	72918148532420.04535276PLM038	PLM038
	3532	7750670244954		1	1	72918148	2019-02-06 05:18:31	5:18:31 AM	72918148532420.04535276PLM038	PLM038
	3534	2000411783682		1	1	72918148	2019-02-06 05:22:10	5:22:10 AM	72918148532420.04535276PLM038	PLM038
	3534	2000411783750		1	1	72918148	2019-02-06 05:22:26	5:22:26 AM	72918148532420.04535276PLM038	PLM038
	3534	4895038543164		1	1	72918148	2019-02-06 05:22:31	5:22:31 AM	72918148532420.04535276PLM038	PLM038
	3534	630509265176		1	1	72918148	2019-02-06 05:22:37	5:22:37 AM	72918148532420.04535276PLM038	PLM038
	3534	2000413654973		1	1	72918148	2019-02-06 05:22:41	5:22:41 AM	72918148532420.04535276PLM038	PLM038
	3534	4895038544949		1	1	72918148	2019-02-06 05:22:48	5:22:48 AM	72918148532420.04535276PLM038	PLM038
	3534	887961027327		1	1	72918148	2019-02-06 05:23:57	5:23:57 AM	72918148532420.04535276PLM038	PLM038
	3534	2000413634227		1	1	72918148	2019-02-06 05:25:00	5:25:00 AM	72918148532420.04535276PLM038	PLM038
	3534	2000413631776		1	1	72918148	2019-02-06 05:25:04	5:25:04 AM	72918148532420.04535276PLM038	PLM038
	3534	5013138668597		1	1	72918148	2019-02-06 05:25:28	5:25:28 AM	72918148532420.04535276PLM038	PLM038
	3534	2000413634234		1	1	72918148	2019-02-06 05:25:58	5:25:58 AM	72918148532420.04535276PLM038	PLM038
	3534	2000416040674		1	1	72918148	2019-02-06 05:26:02	5:26:02 AM	72918148532420.04535276PLM038	PLM038
	3534	5013138668597		1	1	72918148	2019-02-06 05:26:51	5:26:51 AM	72918148532420.04535276PLM038	PLM038
	3534	191726000624		1	1	72918148	2019-02-06 05:26:56	5:26:56 AM	72918148532420.04535276PLM038	PLM038
	3534	4894060606717		1	1	72918148	2019-02-06 05:27:43	5:27:43 AM	72918148532420.04535276PLM038	PLM038
	3534	2000407157305		1	1	72918148	2019-02-06 05:27:48	5:27:48 AM	72918148532420.04535276PLM038	PLM038
	3534	653569957188		1	1	72918148	2019-02-06 05:28:10	5:28:10 AM	72918148532420.04535276PLM038	PLM038
	3534	2000413626598		1	1	72918148	2019-02-06 05:28:31	5:28:31 AM	72918148532420.04535276PLM038	PLM038
	3534	2000416459988		1	1	72918148	2019-02-06 05:28:40	5:28:40 AM	72918148532420.04535276PLM038	PLM038
	3534	7755206012854		1	1	72918148	2019-02-06 05:28:44	5:28:44 AM	72918148532420.04535276PLM038	PLM038
	3534	2000413634227		1	1	72918148	2019-02-06 05:28:51	5:28:51 AM	72918148532420.04535276PLM038	PLM038
	3534	39897643816		1	1	72918148	2019-02-06 05:29:02	5:29:02 AM	72918148532420.04535276PLM038	PLM038
	3534	7750062010525		1	1	72918148	2019-02-06 05:29:55	5:29:55 AM	72918148532420.04535276PLM038	PLM038
	3534	2000415520726		1	1	72918148	2019-02-06 05:30:06	5:30:06 AM	72918148532420.04535276PLM038	PLM038
	3534	8803733181440		1	1	72918148	2019-02-06 05:30:11	5:30:11 AM	72918148532420.04535276PLM038	PLM038
	3534	4064700371149		1	1	72918148	2019-02-06 05:30:17	5:30:17 AM	72918148532420.04535276PLM038	PLM038
	3534	7750062010525		1	1	72918148	2019-02-06 05:30:38	5:30:38 AM	72918148532420.04535276PLM038	PLM038
	3534	2000409670321		1	1	72918148	2019-02-06 05:30:45	5:30:45 AM	72918148532420.04535276PLM038	PLM038
	3534	39897643816		1	1	72918148	2019-02-06 05:30:50	5:30:50 AM	72918148532420.04535276PLM038	PLM038
