	5680	2000410516663		37	2	72918148	2019-02-06 04:55:00	4:55 AM	72918148510510.7055475PLM029	PLM029
	5680	2000412642735		1	2	72918148	2019-02-06 04:55:20	4:55 AM	72918148510510.7055475PLM029	PLM029
	5357	2000410516663		1	2	72918148	2019-02-06 04:56:01	4:56 AM	72918148510510.7055475PLM029	PLM029
	5357	7804651840311		19	2	72918148	2019-02-06 04:57:01	4:57 AM	72918148510510.7055475PLM029	PLM029
	5357	7591057001070		13	2	72918148	2019-02-06 04:57:51	4:57 AM	72918148510510.7055475PLM029	PLM029
	5356	7750885016308		1	2	72918148	2019-02-06 04:58:47	4:58 AM	72918148510510.7055475PLM029	PLM029
	5356	7591057001070		4	2	72918148	2019-02-06 04:59:13	4:59 AM	72918148510510.7055475PLM029	PLM029
	5356	7804651840311		20	2	72918148	2019-02-06 04:59:40	4:59 AM	72918148510510.7055475PLM029	PLM029
	5355	7804651840304		1	2	72918148	2019-02-06 05:00:23	5:00 AM	72918148510510.7055475PLM029	PLM029
	5355	7750885016278		1	2	72918148	2019-02-06 05:00:30	5:00 AM	72918148510510.7055475PLM029	PLM029
	5355	7501058617439		13	2	72918148	2019-02-06 05:00:51	5:00 AM	72918148510510.7055475PLM029	PLM029
	5355	2000416634828		16	2	72918148	2019-02-06 05:01:09	5:01 AM	72918148510510.7055475PLM029	PLM029
	5354	7804651840328		5	2	72918148	2019-02-06 05:02:51	5:02 AM	72918148510510.7055475PLM029	PLM029
	5354	2000410516670		1	2	72918148	2019-02-06 05:03:00	5:03 AM	72918148510510.7055475PLM029	PLM029
	5354	2000416723294		6	2	72918148	2019-02-06 05:03:12	5:03 AM	72918148510510.7055475PLM029	PLM029
	5354	7501058617453		18	2	72918148	2019-02-06 05:04:00	5:04 AM	72918148510510.7055475PLM029	PLM029
	5353	7804651840335		18	2	72918148	2019-02-06 05:06:14	5:06 AM	72918148510510.7055475PLM029	PLM029
	5353	7804651840342		23	2	72918148	2019-02-06 05:07:07	5:07 AM	72918148510510.7055475PLM029	PLM029
	5353	7804651840366		30	2	72918148	2019-02-06 05:09:10	5:09 AM	72918148510510.7055475PLM029	PLM029
	5353	7750885016308		19	2	72918148	2019-02-06 05:09:59	5:09 AM	72918148510510.7055475PLM029	PLM029
	5353	7750885016278		10	2	72918148	2019-02-06 05:10:14	5:10 AM	72918148510510.7055475PLM029	PLM029
