	4769	2000413264455		1	2	72918148	2019-02-06 01:46:33	1:46 AM	72918148214100.5795186PLM029	PLM029
	4769	7754149000133		6	2	72918148	2019-02-06 01:47:47	1:47 AM	72918148214100.5795186PLM029	PLM029
	4770	7754149000133		6	2	72918148	2019-02-06 01:48:49	1:48 AM	72918148214100.5795186PLM029	PLM029
	4771	2000403238855		12	2	72918148	2019-02-06 01:49:35	1:49 AM	72918148214100.5795186PLM029	PLM029
	4772	2000413264448		3	2	72918148	2019-02-06 01:53:40	1:53 AM	72918148214100.5795186PLM029	PLM029
	4772	2000413264455		6	2	72918148	2019-02-06 01:53:53	1:53 AM	72918148214100.5795186PLM029	PLM029
	4772	2000413264431		21	2	72918148	2019-02-06 01:54:06	1:54 AM	72918148214100.5795186PLM029	PLM029
	4772	7751762000274		6	2	72918148	2019-02-06 01:54:41	1:54 AM	72918148214100.5795186PLM029	PLM029
	4772	2000406492339		4	2	72918148	2019-02-06 01:55:11	1:55 AM	72918148214100.5795186PLM029	PLM029
	4772	2000415857464		13	2	72918148	2019-02-06 01:55:54	1:55 AM	72918148214100.5795186PLM029	PLM029
	4772	7750810986720		6	2	72918148	2019-02-06 01:56:14	1:56 AM	72918148214100.5795186PLM029	PLM029
	4772	2000406492193		1	2	72918148	2019-02-06 01:56:32	1:56 AM	72918148214100.5795186PLM029	PLM029
	4773	2000411617321		13	2	72918148	2019-02-06 01:57:54	1:57 AM	72918148214100.5795186PLM029	PLM029
	4773	2000406492339		10	2	72918148	2019-02-06 01:59:15	1:59 AM	72918148214100.5795186PLM029	PLM029
	4773	7750810986720		2	2	72918148	2019-02-06 01:59:33	1:59 AM	72918148214100.5795186PLM029	PLM029
	4774	7753176001557		9	2	72918148	2019-02-06 02:01:49	2:01 AM	72918148214100.5795186PLM029	PLM029
	4774	7753176001496		6	2	72918148	2019-02-06 02:03:05	2:03 AM	72918148214100.5795186PLM029	PLM029
	4774	7753176001588		5	2	72918148	2019-02-06 02:03:23	2:03 AM	72918148214100.5795186PLM029	PLM029
	4774	7753176001083		6	2	72918148	2019-02-06 02:03:44	2:03 AM	72918148214100.5795186PLM029	PLM029
	4775	7753176002080		13	2	72918148	2019-02-06 02:04:56	2:04 AM	72918148214100.5795186PLM029	PLM029
	4775	7753176002073		24	2	72918148	2019-02-06 02:05:26	2:05 AM	72918148214100.5795186PLM029	PLM029
	4775	7753176002073		24	2	72918148	2019-02-06 02:09:06	2:09 AM	72918148214100.5795186PLM029	PLM029
	4775	7753176002073		16	2	72918148	2019-02-06 02:09:38	2:09 AM	72918148214100.5795186PLM029	PLM029
	4775	7753176002080		40	2	72918148	2019-02-06 02:10:07	2:10 AM	72918148214100.5795186PLM029	PLM029
	4775	7753176000789		26	2	72918148	2019-02-06 02:11:05	2:11 AM	72918148214100.5795186PLM029	PLM029
	4775	7753176000796		34	2	72918148	2019-02-06 02:11:31	2:11 AM	72918148214100.5795186PLM029	PLM029
	4776	2000406492339		8	2	72918148	2019-02-06 02:12:17	2:12 AM	72918148214100.5795186PLM029	PLM029
	4776	7750810986720		7	2	72918148	2019-02-06 02:12:28	2:12 AM	72918148214100.5795186PLM029	PLM029
	4776	7753176001090		4	2	72918148	2019-02-06 02:12:38	2:12 AM	72918148214100.5795186PLM029	PLM029
	4776	7753176001120		5	2	72918148	2019-02-06 02:12:46	2:12 AM	72918148214100.5795186PLM029	PLM029
