	5442	7750885006453		1	2	75067132	2019-02-06 03:35:44	3:35 AM	7506713243320.533424PLM082	PLM082
	5442	7752597001771		36	2	75067132	2019-02-06 03:37:01	3:37 AM	7506713243320.533424PLM082	PLM082
	5442	7751130781781		19	2	75067132	2019-02-06 03:37:55	3:37 AM	7506713243320.533424PLM082	PLM082
	5442	7751130140137		3	2	75067132	2019-02-06 03:38:08	3:38 AM	7506713243320.533424PLM082	PLM082
	5442	7755139001925		8	2	75067132	2019-02-06 03:38:29	3:38 AM	7506713243320.533424PLM082	PLM082
	5442	7755139001956		8	2	75067132	2019-02-06 03:39:02	3:39 AM	7506713243320.533424PLM082	PLM082
	5443	7752597001726		17	2	75067132	2019-02-06 03:40:10	3:40 AM	7506713243320.533424PLM082	PLM082
	5443	7751130140120		1	2	75067132	2019-02-06 03:40:23	3:40 AM	7506713243320.533424PLM082	PLM082
	5443	7751130000035		12	2	75067132	2019-02-06 03:40:57	3:40 AM	7506713243320.533424PLM082	PLM082
	5443	2000410016477		1	2	75067132	2019-02-06 03:41:04	3:41 AM	7506713243320.533424PLM082	PLM082
	5443	7751130781750		18	2	75067132	2019-02-06 03:42:38	3:42 AM	7506713243320.533424PLM082	PLM082
	5443	7755139001932		17	2	75067132	2019-02-06 03:43:36	3:43 AM	7506713243320.533424PLM082	PLM082
	5443	7755139002007		7	2	75067132	2019-02-06 03:43:54	3:43 AM	7506713243320.533424PLM082	PLM082
	5444	7752597001610		1	2	75067132	2019-02-06 03:44:59	3:44 AM	7506713243320.533424PLM082	PLM082
	5444	7752597001733		1	2	75067132	2019-02-06 03:45:27	3:45 AM	7506713243320.533424PLM082	PLM082
	5444	7752597001764		10	2	75067132	2019-02-06 03:48:20	3:48 AM	7506713243320.533424PLM082	PLM082
	5444	7752597001740		1	2	75067132	2019-02-06 03:49:14	3:49 AM	7506713243320.533424PLM082	PLM082
	5444	7752597001979		1	2	75067132	2019-02-06 03:49:27	3:49 AM	7506713243320.533424PLM082	PLM082
	5444	7751130000042		7	2	75067132	2019-02-06 03:49:50	3:49 AM	7506713243320.533424PLM082	PLM082
	5444	7751130140113		1	2	75067132	2019-02-06 03:49:55	3:49 AM	7506713243320.533424PLM082	PLM082
	5444	7751130781767		2	2	75067132	2019-02-06 03:50:02	3:50 AM	7506713243320.533424PLM082	PLM082
	5444	7755139548697		3	2	75067132	2019-02-06 03:50:10	3:50 AM	7506713243320.533424PLM082	PLM082
	5444	7755139001918		1	2	75067132	2019-02-06 03:50:17	3:50 AM	7506713243320.533424PLM082	PLM082
	5444	7751130140120		2	2	75067132	2019-02-06 03:50:21	3:50 AM	7506713243320.533424PLM082	PLM082
	5444	2000406944883		1	2	75067132	2019-02-06 03:50:25	3:50 AM	7506713243320.533424PLM082	PLM082
	5444	7755139001918		10	2	75067132	2019-02-06 03:50:48	3:50 AM	7506713243320.533424PLM082	PLM082
	5445	7752597001757		37	2	75067132	2019-02-06 03:52:48	3:52 AM	7506713243320.533424PLM082	PLM082
	5445	7751130781774		13	2	75067132	2019-02-06 03:53:26	3:53 AM	7506713243320.533424PLM082	PLM082
	5445	7755139002007		1	2	75067132	2019-02-06 03:53:48	3:53 AM	7506713243320.533424PLM082	PLM082
	5445	7751130781811		11	2	75067132	2019-02-06 03:54:35	3:54 AM	7506713243320.533424PLM082	PLM082
	5445	7751130140120		19	2	75067132	2019-02-06 03:55:23	3:55 AM	7506713243320.533424PLM082	PLM082
	5445	7751130000035		1	2	75067132	2019-02-06 03:55:32	3:55 AM	7506713243320.533424PLM082	PLM082
	5445	7755139001994		12	2	75067132	2019-02-06 03:56:15	3:56 AM	7506713243320.533424PLM082	PLM082
	5445	7755139001918		20	2	75067132	2019-02-06 03:57:09	3:57 AM	7506713243320.533424PLM082	PLM082
	5446	7752597001597		31	2	75067132	2019-02-06 03:59:10	3:59 AM	7506713243320.533424PLM082	PLM082
	5446	7752597001610		2	2	75067132	2019-02-06 03:59:17	3:59 AM	7506713243320.533424PLM082	PLM082
	5446	7751130140113		17	2	75067132	2019-02-06 04:00:06	4:00 AM	7506713243320.533424PLM082	PLM082
	5446	7751130140113		10	2	75067132	2019-02-06 04:00:33	4:00 AM	7506713243320.533424PLM082	PLM082
	5446	7755139001994		20	2	75067132	2019-02-06 04:02:30	4:02 AM	7506713243320.533424PLM082	PLM082
	5446	7755139001949		15	2	75067132	2019-02-06 04:03:05	4:03 AM	7506713243320.533424PLM082	PLM082
