	3912	2000416435173		1	1	75437171	2019-02-06 01:07:14	1:07:14 AM	7543717126440.2895625PLM011	PLM011
	3912	2000416435173		1	1	75437171	2019-02-06 01:07:22	1:07:22 AM	7543717126440.2895625PLM011	PLM011
	3912	2000416435173		1	1	75437171	2019-02-06 01:07:34	1:07:34 AM	7543717126440.2895625PLM011	PLM011
	3912	2000416435173		1	1	75437171	2019-02-06 01:07:47	1:07:47 AM	7543717126440.2895625PLM011	PLM011
	3912	2000416435173		1	1	75437171	2019-02-06 01:07:51	1:07:51 AM	7543717126440.2895625PLM011	PLM011
	3912	2000416435173		1	1	75437171	2019-02-06 01:07:54	1:07:54 AM	7543717126440.2895625PLM011	PLM011
	3912	2000416435173		1	1	75437171	2019-02-06 01:07:58	1:07:58 AM	7543717126440.2895625PLM011	PLM011
	3912	2000416435173		1	1	75437171	2019-02-06 01:08:03	1:08:03 AM	7543717126440.2895625PLM011	PLM011
	3912	2000416435173		1	1	75437171	2019-02-06 01:08:08	1:08:08 AM	7543717126440.2895625PLM011	PLM011
	3912	2000416435173		1	1	75437171	2019-02-06 01:08:13	1:08:13 AM	7543717126440.2895625PLM011	PLM011
	3912	2000416435173		1	1	75437171	2019-02-06 01:08:18	1:08:18 AM	7543717126440.2895625PLM011	PLM011
	3912	2000416435173		1	1	75437171	2019-02-06 01:08:23	1:08:23 AM	7543717126440.2895625PLM011	PLM011
	3912	2000416435173		1	1	75437171	2019-02-06 01:08:26	1:08:26 AM	7543717126440.2895625PLM011	PLM011
	3912	2000416435173		1	1	75437171	2019-02-06 01:08:29	1:08:29 AM	7543717126440.2895625PLM011	PLM011
	3912	2000416435173		1	1	75437171	2019-02-06 01:08:33	1:08:33 AM	7543717126440.2895625PLM011	PLM011
	3912	2000416435173		1	1	75437171	2019-02-06 01:08:36	1:08:36 AM	7543717126440.2895625PLM011	PLM011
	3912	2000416435173		1	1	75437171	2019-02-06 01:08:39	1:08:39 AM	7543717126440.2895625PLM011	PLM011
	3912	2000416435173		1	1	75437171	2019-02-06 01:08:44	1:08:44 AM	7543717126440.2895625PLM011	PLM011
	3912	2000416435173		1	1	75437171	2019-02-06 01:08:47	1:08:47 AM	7543717126440.2895625PLM011	PLM011
	3912	2000417227807		1	1	75437171	2019-02-06 01:09:13	1:09:13 AM	7543717126440.2895625PLM011	PLM011
	3912	2000417227807		1	1	75437171	2019-02-06 01:09:19	1:09:19 AM	7543717126440.2895625PLM011	PLM011
	3912	2000417227807		1	1	75437171	2019-02-06 01:09:24	1:09:24 AM	7543717126440.2895625PLM011	PLM011
	3912	2000417227807		1	1	75437171	2019-02-06 01:09:28	1:09:28 AM	7543717126440.2895625PLM011	PLM011
	3912	2000417227807		1	1	75437171	2019-02-06 01:09:32	1:09:32 AM	7543717126440.2895625PLM011	PLM011
	3912	2000417227807		1	1	75437171	2019-02-06 01:09:39	1:09:39 AM	7543717126440.2895625PLM011	PLM011
	3912	2000417227807		1	1	75437171	2019-02-06 01:09:48	1:09:48 AM	7543717126440.2895625PLM011	PLM011
	3912	2000417227807		1	1	75437171	2019-02-06 01:09:51	1:09:51 AM	7543717126440.2895625PLM011	PLM011
	3912	2000417227807		1	1	75437171	2019-02-06 01:10:05	1:10:05 AM	7543717126440.2895625PLM011	PLM011
	3912	2000417227807		1	1	75437171	2019-02-06 01:10:12	1:10:12 AM	7543717126440.2895625PLM011	PLM011
	3912	2000417227807		1	1	75437171	2019-02-06 01:10:16	1:10:16 AM	7543717126440.2895625PLM011	PLM011
	3912	2000417227807		1	1	75437171	2019-02-06 01:10:21	1:10:21 AM	7543717126440.2895625PLM011	PLM011
	3912	2000417227807		1	1	75437171	2019-02-06 01:10:32	1:10:32 AM	7543717126440.2895625PLM011	PLM011
	3912	2000417227807		1	1	75437171	2019-02-06 01:10:33	1:10:33 AM	7543717126440.2895625PLM011	PLM011
	3912	2000417227807		1	1	75437171	2019-02-06 01:10:42	1:10:42 AM	7543717126440.2895625PLM011	PLM011
	3912	2000416431755		1	1	75437171	2019-02-06 01:11:12	1:11:12 AM	7543717126440.2895625PLM011	PLM011
	3912	2000416431755		1	1	75437171	2019-02-06 01:11:28	1:11:28 AM	7543717126440.2895625PLM011	PLM011
	3912	2000416431755		1	1	75437171	2019-02-06 01:11:46	1:11:46 AM	7543717126440.2895625PLM011	PLM011
	3912	2000416431755		1	1	75437171	2019-02-06 01:12:03	1:12:03 AM	7543717126440.2895625PLM011	PLM011
	3912	2000416431755		1	1	75437171	2019-02-06 01:12:13	1:12:13 AM	7543717126440.2895625PLM011	PLM011
	3912	2000416431755		1	1	75437171	2019-02-06 01:12:22	1:12:22 AM	7543717126440.2895625PLM011	PLM011
	3912	2000416686186		1	1	75437171	2019-02-06 01:12:27	1:12:27 AM	7543717126440.2895625PLM011	PLM011
	3912	2000416431755		1	1	75437171	2019-02-06 01:12:34	1:12:34 AM	7543717126440.2895625PLM011	PLM011
	3912	2000416431755		1	1	75437171	2019-02-06 01:12:43	1:12:43 AM	7543717126440.2895625PLM011	PLM011
	3912	2000416431755		1	1	75437171	2019-02-06 01:13:36	1:13:36 AM	7543717126440.2895625PLM011	PLM011
	3912	2000416431755		1	1	75437171	2019-02-06 01:14:20	1:14:20 AM	7543717126440.2895625PLM011	PLM011
	3912	2000416431755		1	1	75437171	2019-02-06 01:14:29	1:14:29 AM	7543717126440.2895625PLM011	PLM011
	3912	2000416431755		1	1	75437171	2019-02-06 01:14:45	1:14:45 AM	7543717126440.2895625PLM011	PLM011
	3912	2000416431755		1	1	75437171	2019-02-06 01:15:04	1:15:04 AM	7543717126440.2895625PLM011	PLM011
	3912	2000416431755		1	1	75437171	2019-02-06 01:15:07	1:15:07 AM	7543717126440.2895625PLM011	PLM011
	3913	2000415457763		1	1	75437171	2019-02-06 01:16:50	1:16:50 AM	7543717126440.2895625PLM011	PLM011
	3913	2000415457763		1	1	75437171	2019-02-06 01:16:51	1:16:51 AM	7543717126440.2895625PLM011	PLM011
	3913	2000415457763		1	1	75437171	2019-02-06 01:17:05	1:17:05 AM	7543717126440.2895625PLM011	PLM011
	3913	2000415457763		1	1	75437171	2019-02-06 01:17:06	1:17:06 AM	7543717126440.2895625PLM011	PLM011
	3913	2000416401901		1	1	75437171	2019-02-06 01:17:11	1:17:11 AM	7543717126440.2895625PLM011	PLM011
	3913	2000416401987		1	1	75437171	2019-02-06 01:17:15	1:17:15 AM	7543717126440.2895625PLM011	PLM011
	3913	2000416401901		1	1	75437171	2019-02-06 01:17:18	1:17:18 AM	7543717126440.2895625PLM011	PLM011
	3913	2000416401901		1	1	75437171	2019-02-06 01:17:20	1:17:20 AM	7543717126440.2895625PLM011	PLM011
	3913	2000416401901		1	1	75437171	2019-02-06 01:17:24	1:17:24 AM	7543717126440.2895625PLM011	PLM011
	3913	2000416401901		1	1	75437171	2019-02-06 01:17:30	1:17:30 AM	7543717126440.2895625PLM011	PLM011
	3913	2000416401901		1	1	75437171	2019-02-06 01:17:34	1:17:34 AM	7543717126440.2895625PLM011	PLM011
	3913	2000416431748		1	1	75437171	2019-02-06 01:17:49	1:17:49 AM	7543717126440.2895625PLM011	PLM011
	3913	2000416431748		1	1	75437171	2019-02-06 01:17:53	1:17:53 AM	7543717126440.2895625PLM011	PLM011
	3913	2000416431748		1	1	75437171	2019-02-06 01:18:00	1:18:00 AM	7543717126440.2895625PLM011	PLM011
	3913	2000416431748		1	1	75437171	2019-02-06 01:18:09	1:18:09 AM	7543717126440.2895625PLM011	PLM011
	3913	2000416431748		1	1	75437171	2019-02-06 01:18:12	1:18:12 AM	7543717126440.2895625PLM011	PLM011
	3913	2000416431748		1	1	75437171	2019-02-06 01:18:22	1:18:22 AM	7543717126440.2895625PLM011	PLM011
	3913	2000416431748		1	1	75437171	2019-02-06 01:18:26	1:18:26 AM	7543717126440.2895625PLM011	PLM011
	3913	2000416431748		1	1	75437171	2019-02-06 01:18:31	1:18:31 AM	7543717126440.2895625PLM011	PLM011
	3913	2000416431748		1	1	75437171	2019-02-06 01:18:37	1:18:37 AM	7543717126440.2895625PLM011	PLM011
	3913	2000416431748		1	1	75437171	2019-02-06 01:18:40	1:18:40 AM	7543717126440.2895625PLM011	PLM011
	3913	2000416431748		1	1	75437171	2019-02-06 01:18:44	1:18:44 AM	7543717126440.2895625PLM011	PLM011
	3913	2000416431748		1	1	75437171	2019-02-06 01:18:49	1:18:49 AM	7543717126440.2895625PLM011	PLM011
	3913	2000416431748		1	1	75437171	2019-02-06 01:18:53	1:18:53 AM	7543717126440.2895625PLM011	PLM011
	3913	2000416493494		1	1	75437171	2019-02-06 01:19:03	1:19:03 AM	7543717126440.2895625PLM011	PLM011
	3913	2000416493487		1	1	75437171	2019-02-06 01:19:14	1:19:14 AM	7543717126440.2895625PLM011	PLM011
	3913	2000416493487		1	1	75437171	2019-02-06 01:19:30	1:19:30 AM	7543717126440.2895625PLM011	PLM011
	3913	2000416493494		1	1	75437171	2019-02-06 01:19:34	1:19:34 AM	7543717126440.2895625PLM011	PLM011
	3914	2000416392919		1	1	75437171	2019-02-06 01:20:31	1:20:31 AM	7543717126440.2895625PLM011	PLM011
	3914	2000416392919		1	1	75437171	2019-02-06 01:20:32	1:20:32 AM	7543717126440.2895625PLM011	PLM011
	3914	2000416494668		1	1	75437171	2019-02-06 01:20:40	1:20:40 AM	7543717126440.2895625PLM011	PLM011
	3914	2000416494668		1	1	75437171	2019-02-06 01:20:50	1:20:50 AM	7543717126440.2895625PLM011	PLM011
	3914	2000416494668		1	1	75437171	2019-02-06 01:20:55	1:20:55 AM	7543717126440.2895625PLM011	PLM011
	3914	2000416494675		1	1	75437171	2019-02-06 01:20:58	1:20:58 AM	7543717126440.2895625PLM011	PLM011
	3914	2000416494668		1	1	75437171	2019-02-06 01:21:04	1:21:04 AM	7543717126440.2895625PLM011	PLM011
	3914	2000416494668		1	1	75437171	2019-02-06 01:21:09	1:21:09 AM	7543717126440.2895625PLM011	PLM011
	3914	2000416494651		1	1	75437171	2019-02-06 01:21:17	1:21:17 AM	7543717126440.2895625PLM011	PLM011
	3914	2000416494651		1	1	75437171	2019-02-06 01:21:29	1:21:29 AM	7543717126440.2895625PLM011	PLM011
	3914	2000416494651		1	1	75437171	2019-02-06 01:21:30	1:21:30 AM	7543717126440.2895625PLM011	PLM011
	3914	2000416686148		1	1	75437171	2019-02-06 01:21:38	1:21:38 AM	7543717126440.2895625PLM011	PLM011
	3914	2000416401987		1	1	75437171	2019-02-06 01:21:42	1:21:42 AM	7543717126440.2895625PLM011	PLM011
	3914	2000416686186		1	1	75437171	2019-02-06 01:21:45	1:21:45 AM	7543717126440.2895625PLM011	PLM011
	3914	2000416686186		1	1	75437171	2019-02-06 01:21:53	1:21:53 AM	7543717126440.2895625PLM011	PLM011
	3914	2000416686186		1	1	75437171	2019-02-06 01:22:00	1:22:00 AM	7543717126440.2895625PLM011	PLM011
	3914	2000416686186		1	1	75437171	2019-02-06 01:22:07	1:22:07 AM	7543717126440.2895625PLM011	PLM011
	3914	2000416686186		1	1	75437171	2019-02-06 01:22:12	1:22:12 AM	7543717126440.2895625PLM011	PLM011
	3914	2000416686186		1	1	75437171	2019-02-06 01:22:16	1:22:16 AM	7543717126440.2895625PLM011	PLM011
	3914	2000416686186		1	1	75437171	2019-02-06 01:22:19	1:22:19 AM	7543717126440.2895625PLM011	PLM011
	3914	2000416686186		1	1	75437171	2019-02-06 01:22:23	1:22:23 AM	7543717126440.2895625PLM011	PLM011
	3915	2000416739554		1	1	75437171	2019-02-06 01:23:15	1:23:15 AM	7543717126440.2895625PLM011	PLM011
	3915	2000416739554		1	1	75437171	2019-02-06 01:23:17	1:23:17 AM	7543717126440.2895625PLM011	PLM011
	3915	2000416686148		1	1	75437171	2019-02-06 01:23:30	1:23:30 AM	7543717126440.2895625PLM011	PLM011
	3915	2000416748549		1	1	75437171	2019-02-06 01:23:38	1:23:38 AM	7543717126440.2895625PLM011	PLM011
	3915	2000416748549		1	1	75437171	2019-02-06 01:23:44	1:23:44 AM	7543717126440.2895625PLM011	PLM011
	3915	2000416748549		1	1	75437171	2019-02-06 01:23:57	1:23:57 AM	7543717126440.2895625PLM011	PLM011
	3915	2000416748549		1	1	75437171	2019-02-06 01:23:58	1:23:58 AM	7543717126440.2895625PLM011	PLM011
	3915	2000416748549		1	1	75437171	2019-02-06 01:23:59	1:23:59 AM	7543717126440.2895625PLM011	PLM011
	3916	2000416686162		1	1	75437171	2019-02-06 01:25:06	1:25:06 AM	7543717126440.2895625PLM011	PLM011
	3916	2000416686162		1	1	75437171	2019-02-06 01:25:18	1:25:18 AM	7543717126440.2895625PLM011	PLM011
	3916	2000416686162		1	1	75437171	2019-02-06 01:25:50	1:25:50 AM	7543717126440.2895625PLM011	PLM011
	3916	2000416686162		1	1	75437171	2019-02-06 01:25:50	1:25:50 AM	7543717126440.2895625PLM011	PLM011
	3916	2000416686162		1	1	75437171	2019-02-06 01:25:51	1:25:51 AM	7543717126440.2895625PLM011	PLM011
	3916	2000416686162		1	1	75437171	2019-02-06 01:25:52	1:25:52 AM	7543717126440.2895625PLM011	PLM011
	3916	2000416686162		1	1	75437171	2019-02-06 01:25:53	1:25:53 AM	7543717126440.2895625PLM011	PLM011
	3916	2000416686162		1	1	75437171	2019-02-06 01:25:54	1:25:54 AM	7543717126440.2895625PLM011	PLM011
	3916	2000416686162		1	1	75437171	2019-02-06 01:26:17	1:26:17 AM	7543717126440.2895625PLM011	PLM011
	3916	2000416686162		1	1	75437171	2019-02-06 01:26:18	1:26:18 AM	7543717126440.2895625PLM011	PLM011
	3916	2000416686162		1	1	75437171	2019-02-06 01:26:19	1:26:19 AM	7543717126440.2895625PLM011	PLM011
	3916	2000416686162		1	1	75437171	2019-02-06 01:26:19	1:26:19 AM	7543717126440.2895625PLM011	PLM011
	3916	2000416686162		1	1	75437171	2019-02-06 01:26:20	1:26:20 AM	7543717126440.2895625PLM011	PLM011
	3916	2000416686162		1	1	75437171	2019-02-06 01:26:26	1:26:26 AM	7543717126440.2895625PLM011	PLM011
	3916	2000416686162		1	1	75437171	2019-02-06 01:26:27	1:26:27 AM	7543717126440.2895625PLM011	PLM011
	3916	2000416686162		1	1	75437171	2019-02-06 01:26:33	1:26:33 AM	7543717126440.2895625PLM011	PLM011
	3916	2000416686179		1	1	75437171	2019-02-06 01:26:40	1:26:40 AM	7543717126440.2895625PLM011	PLM011
	3916	2000416686179		1	1	75437171	2019-02-06 01:26:47	1:26:47 AM	7543717126440.2895625PLM011	PLM011
	3916	2000416686131		1	1	75437171	2019-02-06 01:26:54	1:26:54 AM	7543717126440.2895625PLM011	PLM011
	3916	2000416686179		1	1	75437171	2019-02-06 01:27:21	1:27:21 AM	7543717126440.2895625PLM011	PLM011
	3916	2000416686179		1	1	75437171	2019-02-06 01:27:22	1:27:22 AM	7543717126440.2895625PLM011	PLM011
	3916	2000416686179		1	1	75437171	2019-02-06 01:27:23	1:27:23 AM	7543717126440.2895625PLM011	PLM011
	3916	2000416686179		1	1	75437171	2019-02-06 01:27:26	1:27:26 AM	7543717126440.2895625PLM011	PLM011
	3916	2000416686179		1	1	75437171	2019-02-06 01:27:27	1:27:27 AM	7543717126440.2895625PLM011	PLM011
	3916	2000416686179		1	1	75437171	2019-02-06 01:27:28	1:27:28 AM	7543717126440.2895625PLM011	PLM011
	3916	2000416686155		1	1	75437171	2019-02-06 01:28:02	1:28:02 AM	7543717126440.2895625PLM011	PLM011
	3916	2000416686155		1	1	75437171	2019-02-06 01:28:08	1:28:08 AM	7543717126440.2895625PLM011	PLM011
	3916	2000416686155		1	1	75437171	2019-02-06 01:28:12	1:28:12 AM	7543717126440.2895625PLM011	PLM011
	3916	2000416686155		1	1	75437171	2019-02-06 01:28:17	1:28:17 AM	7543717126440.2895625PLM011	PLM011
	3916	2000416686155		1	1	75437171	2019-02-06 01:28:21	1:28:21 AM	7543717126440.2895625PLM011	PLM011
	3916	2000416686155		1	1	75437171	2019-02-06 01:28:25	1:28:25 AM	7543717126440.2895625PLM011	PLM011
	3916	2000416686131		1	1	75437171	2019-02-06 01:28:46	1:28:46 AM	7543717126440.2895625PLM011	PLM011
	3916	2000416686131		1	1	75437171	2019-02-06 01:29:47	1:29:47 AM	7543717126440.2895625PLM011	PLM011
	3916	2000416686131		1	1	75437171	2019-02-06 01:29:48	1:29:48 AM	7543717126440.2895625PLM011	PLM011
	3916	2000416686131		1	1	75437171	2019-02-06 01:29:57	1:29:57 AM	7543717126440.2895625PLM011	PLM011
	3916	2000416686131		1	1	75437171	2019-02-06 01:29:57	1:29:57 AM	7543717126440.2895625PLM011	PLM011
	3916	2000416686131		1	1	75437171	2019-02-06 01:29:58	1:29:58 AM	7543717126440.2895625PLM011	PLM011
	3916	2000416686131		1	1	75437171	2019-02-06 01:30:02	1:30:02 AM	7543717126440.2895625PLM011	PLM011
	3916	2000416686131		1	1	75437171	2019-02-06 01:30:02	1:30:02 AM	7543717126440.2895625PLM011	PLM011
	3916	2000416686131		1	1	75437171	2019-02-06 01:30:03	1:30:03 AM	7543717126440.2895625PLM011	PLM011
	3916	2000416686131		1	1	75437171	2019-02-06 01:30:38	1:30:38 AM	7543717126440.2895625PLM011	PLM011
	3916	2000416686131		1	1	75437171	2019-02-06 01:30:38	1:30:38 AM	7543717126440.2895625PLM011	PLM011
	3916	2000416686131		1	1	75437171	2019-02-06 01:30:39	1:30:39 AM	7543717126440.2895625PLM011	PLM011
	3916	2000416686131		1	1	75437171	2019-02-06 01:30:40	1:30:40 AM	7543717126440.2895625PLM011	PLM011
	3916	2000416686131		1	1	75437171	2019-02-06 01:30:42	1:30:42 AM	7543717126440.2895625PLM011	PLM011
	3916	2000416686131		1	1	75437171	2019-02-06 01:30:44	1:30:44 AM	7543717126440.2895625PLM011	PLM011
	3916	2000416686131		1	1	75437171	2019-02-06 01:30:47	1:30:47 AM	7543717126440.2895625PLM011	PLM011
	3917	2000416748587		1	1	75437171	2019-02-06 01:31:40	1:31:40 AM	7543717126440.2895625PLM011	PLM011
	3917	2000416748587		1	1	75437171	2019-02-06 01:31:55	1:31:55 AM	7543717126440.2895625PLM011	PLM011
	3917	2000416748587		1	1	75437171	2019-02-06 01:31:55	1:31:55 AM	7543717126440.2895625PLM011	PLM011
	3917	2000416748587		1	1	75437171	2019-02-06 01:31:56	1:31:56 AM	7543717126440.2895625PLM011	PLM011
	3917	2000416748587		1	1	75437171	2019-02-06 01:31:57	1:31:57 AM	7543717126440.2895625PLM011	PLM011
	3917	2000416748587		1	1	75437171	2019-02-06 01:31:58	1:31:58 AM	7543717126440.2895625PLM011	PLM011
	3917	2000416748587		1	1	75437171	2019-02-06 01:31:59	1:31:59 AM	7543717126440.2895625PLM011	PLM011
	3917	2000416748587		1	1	75437171	2019-02-06 01:32:00	1:32:00 AM	7543717126440.2895625PLM011	PLM011
	3917	2000416748662		1	1	75437171	2019-02-06 01:32:24	1:32:24 AM	7543717126440.2895625PLM011	PLM011
	3917	2000416748662		1	1	75437171	2019-02-06 01:32:47	1:32:47 AM	7543717126440.2895625PLM011	PLM011
	3917	2000416748662		1	1	75437171	2019-02-06 01:32:47	1:32:47 AM	7543717126440.2895625PLM011	PLM011
	3917	2000416748662		1	1	75437171	2019-02-06 01:33:10	1:33:10 AM	7543717126440.2895625PLM011	PLM011
	3917	2000416748662		1	1	75437171	2019-02-06 01:33:12	1:33:12 AM	7543717126440.2895625PLM011	PLM011
	3917	2000416748662		1	1	75437171	2019-02-06 01:33:13	1:33:13 AM	7543717126440.2895625PLM011	PLM011
	3917	2000416748662		1	1	75437171	2019-02-06 01:33:14	1:33:14 AM	7543717126440.2895625PLM011	PLM011
	3917	2000416748662		1	1	75437171	2019-02-06 01:33:14	1:33:14 AM	7543717126440.2895625PLM011	PLM011
	3917	2000416748662		1	1	75437171	2019-02-06 01:33:35	1:33:35 AM	7543717126440.2895625PLM011	PLM011
	3917	2000416748662		1	1	75437171	2019-02-06 01:33:36	1:33:36 AM	7543717126440.2895625PLM011	PLM011
	3917	2000416394456		1	1	75437171	2019-02-06 01:34:01	1:34:01 AM	7543717126440.2895625PLM011	PLM011
	3917	2000416394449		1	1	75437171	2019-02-06 01:34:16	1:34:16 AM	7543717126440.2895625PLM011	PLM011
	3917	2000416394470		1	1	75437171	2019-02-06 01:34:27	1:34:27 AM	7543717126440.2895625PLM011	PLM011
	3917	2000416394449		1	1	75437171	2019-02-06 01:34:32	1:34:32 AM	7543717126440.2895625PLM011	PLM011
	3917	2000416394449		1	1	75437171	2019-02-06 01:34:41	1:34:41 AM	7543717126440.2895625PLM011	PLM011
	3917	2000416394449		1	1	75437171	2019-02-06 01:34:48	1:34:48 AM	7543717126440.2895625PLM011	PLM011
	3917	2000417227814		1	1	75437171	2019-02-06 01:35:23	1:35:23 AM	7543717126440.2895625PLM011	PLM011
	3917	2000417227814		1	1	75437171	2019-02-06 01:35:31	1:35:31 AM	7543717126440.2895625PLM011	PLM011
	3917	2000417227814		1	1	75437171	2019-02-06 01:35:38	1:35:38 AM	7543717126440.2895625PLM011	PLM011
	3917	2000417227814		1	1	75437171	2019-02-06 01:35:44	1:35:44 AM	7543717126440.2895625PLM011	PLM011
	3917	2000417227807		1	1	75437171	2019-02-06 01:35:50	1:35:50 AM	7543717126440.2895625PLM011	PLM011
	3917	2000417227814		1	1	75437171	2019-02-06 01:36:16	1:36:16 AM	7543717126440.2895625PLM011	PLM011
	3917	2000417227814		1	1	75437171	2019-02-06 01:36:23	1:36:23 AM	7543717126440.2895625PLM011	PLM011
	3917	2000417227814		1	1	75437171	2019-02-06 01:36:23	1:36:23 AM	7543717126440.2895625PLM011	PLM011
	3917	2000417227807		1	1	75437171	2019-02-06 01:36:26	1:36:26 AM	7543717126440.2895625PLM011	PLM011
	3917	2000417227807		1	1	75437171	2019-02-06 01:36:31	1:36:31 AM	7543717126440.2895625PLM011	PLM011
	3917	2000417227814		1	1	75437171	2019-02-06 01:36:38	1:36:38 AM	7543717126440.2895625PLM011	PLM011
	3917	2000417227814		1	1	75437171	2019-02-06 01:36:38	1:36:38 AM	7543717126440.2895625PLM011	PLM011
	3920	2000416739387		1	1	75437171	2019-02-06 01:39:48	1:39:48 AM	7543717126440.2895625PLM011	PLM011
	3920	2000416739370		1	1	75437171	2019-02-06 01:39:55	1:39:55 AM	7543717126440.2895625PLM011	PLM011
	3920	2000416739363		1	1	75437171	2019-02-06 01:40:01	1:40:01 AM	7543717126440.2895625PLM011	PLM011
	3920	2000416739370		1	1	75437171	2019-02-06 01:40:08	1:40:08 AM	7543717126440.2895625PLM011	PLM011
	3920	2000416739370		1	1	75437171	2019-02-06 01:40:12	1:40:12 AM	7543717126440.2895625PLM011	PLM011
	3920	2000416739370		1	1	75437171	2019-02-06 01:40:16	1:40:16 AM	7543717126440.2895625PLM011	PLM011
	3920	2000416739370		1	1	75437171	2019-02-06 01:40:49	1:40:49 AM	7543717126440.2895625PLM011	PLM011
	3920	2000416739370		1	1	75437171	2019-02-06 01:40:49	1:40:49 AM	7543717126440.2895625PLM011	PLM011
	3920	2000416739370		1	1	75437171	2019-02-06 01:40:50	1:40:50 AM	7543717126440.2895625PLM011	PLM011
	3920	2000416739370		1	1	75437171	2019-02-06 01:40:52	1:40:52 AM	7543717126440.2895625PLM011	PLM011
	3920	2000416739370		1	1	75437171	2019-02-06 01:40:52	1:40:52 AM	7543717126440.2895625PLM011	PLM011
	3920	2000416739370		1	1	75437171	2019-02-06 01:40:53	1:40:53 AM	7543717126440.2895625PLM011	PLM011
	3920	2000416739363		1	1	75437171	2019-02-06 01:40:57	1:40:57 AM	7543717126440.2895625PLM011	PLM011
	3920	2000416739363		1	1	75437171	2019-02-06 01:40:57	1:40:57 AM	7543717126440.2895625PLM011	PLM011
	3920	2000416739363		1	1	75437171	2019-02-06 01:40:58	1:40:58 AM	7543717126440.2895625PLM011	PLM011
	3920	2000416739363		1	1	75437171	2019-02-06 01:41:00	1:41:00 AM	7543717126440.2895625PLM011	PLM011
	3920	2000416739370		1	1	75437171	2019-02-06 01:41:05	1:41:05 AM	7543717126440.2895625PLM011	PLM011
	3920	2000416739370		1	1	75437171	2019-02-06 01:41:05	1:41:05 AM	7543717126440.2895625PLM011	PLM011
	3920	2000416739370		1	1	75437171	2019-02-06 01:41:06	1:41:06 AM	7543717126440.2895625PLM011	PLM011
	3920	2000416739370		1	1	75437171	2019-02-06 01:41:08	1:41:08 AM	7543717126440.2895625PLM011	PLM011
	3920	2000416739387		1	1	75437171	2019-02-06 01:41:34	1:41:34 AM	7543717126440.2895625PLM011	PLM011
	3920	2000416739387		1	1	75437171	2019-02-06 01:41:36	1:41:36 AM	7543717126440.2895625PLM011	PLM011
	3921	2000415443520		1	1	75437171	2019-02-06 01:42:40	1:42:40 AM	7543717126440.2895625PLM011	PLM011
	3921	2000416458011		1	1	75437171	2019-02-06 01:42:45	1:42:45 AM	7543717126440.2895625PLM011	PLM011
	3921	2000416458011		1	1	75437171	2019-02-06 01:42:50	1:42:50 AM	7543717126440.2895625PLM011	PLM011
	3921	2000416458011		1	1	75437171	2019-02-06 01:42:59	1:42:59 AM	7543717126440.2895625PLM011	PLM011
	3921	2000416457960		1	1	75437171	2019-02-06 01:43:03	1:43:03 AM	7543717126440.2895625PLM011	PLM011
	3921	2000416458387		1	1	75437171	2019-02-06 01:43:09	1:43:09 AM	7543717126440.2895625PLM011	PLM011
	3921	2000416458387		1	1	75437171	2019-02-06 01:43:14	1:43:14 AM	7543717126440.2895625PLM011	PLM011
	3921	2000415466994		1	1	75437171	2019-02-06 01:43:31	1:43:31 AM	7543717126440.2895625PLM011	PLM011
	3921	2000416739493		1	1	75437171	2019-02-06 01:43:46	1:43:46 AM	7543717126440.2895625PLM011	PLM011
	3921	2000416739479		1	1	75437171	2019-02-06 01:43:53	1:43:53 AM	7543717126440.2895625PLM011	PLM011
	3921	2000416739479		1	1	75437171	2019-02-06 01:43:57	1:43:57 AM	7543717126440.2895625PLM011	PLM011
	3921	2000416739493		1	1	75437171	2019-02-06 01:44:04	1:44:04 AM	7543717126440.2895625PLM011	PLM011
	3921	2000416739493		1	1	75437171	2019-02-06 01:44:07	1:44:07 AM	7543717126440.2895625PLM011	PLM011
	3921	2000416739455		1	1	75437171	2019-02-06 01:44:15	1:44:15 AM	7543717126440.2895625PLM011	PLM011
	3921	2000416739455		1	1	75437171	2019-02-06 01:44:18	1:44:18 AM	7543717126440.2895625PLM011	PLM011
	3921	2000416739462		1	1	75437171	2019-02-06 01:44:22	1:44:22 AM	7543717126440.2895625PLM011	PLM011
	3921	2000416739462		1	1	75437171	2019-02-06 01:44:37	1:44:37 AM	7543717126440.2895625PLM011	PLM011
	3921	2000416739400		1	1	75437171	2019-02-06 01:45:00	1:45:00 AM	7543717126440.2895625PLM011	PLM011
	3921	2000416739400		1	1	75437171	2019-02-06 01:45:39	1:45:39 AM	7543717126440.2895625PLM011	PLM011
	3921	2000416739431		1	1	75437171	2019-02-06 01:45:44	1:45:44 AM	7543717126440.2895625PLM011	PLM011
	3921	2000416739431		1	1	75437171	2019-02-06 01:45:45	1:45:45 AM	7543717126440.2895625PLM011	PLM011
	3921	2000416739431		1	1	75437171	2019-02-06 01:45:45	1:45:45 AM	7543717126440.2895625PLM011	PLM011
	3921	2000416739431		1	1	75437171	2019-02-06 01:45:46	1:45:46 AM	7543717126440.2895625PLM011	PLM011
	3921	2000416739431		1	1	75437171	2019-02-06 01:45:46	1:45:46 AM	7543717126440.2895625PLM011	PLM011
	3921	2000416739424		1	1	75437171	2019-02-06 01:45:52	1:45:52 AM	7543717126440.2895625PLM011	PLM011
	3921	2000416739424		1	1	75437171	2019-02-06 01:46:08	1:46:08 AM	7543717126440.2895625PLM011	PLM011
	3921	2000416739424		1	1	75437171	2019-02-06 01:46:09	1:46:09 AM	7543717126440.2895625PLM011	PLM011
	3921	2000416739424		1	1	75437171	2019-02-06 01:46:10	1:46:10 AM	7543717126440.2895625PLM011	PLM011
	3921	2000416739424		1	1	75437171	2019-02-06 01:46:16	1:46:16 AM	7543717126440.2895625PLM011	PLM011
	3921	2000416739424		1	1	75437171	2019-02-06 01:46:53	1:46:53 AM	7543717126440.2895625PLM011	PLM011
	3921	2000416739417		1	1	75437171	2019-02-06 01:46:56	1:46:56 AM	7543717126440.2895625PLM011	PLM011
	3921	2000416739431		1	1	75437171	2019-02-06 01:47:01	1:47:01 AM	7543717126440.2895625PLM011	PLM011
	3921	2000416739431		1	1	75437171	2019-02-06 01:47:02	1:47:02 AM	7543717126440.2895625PLM011	PLM011
	3923	2000416739332		1	1	75437171	2019-02-06 01:48:18	1:48:18 AM	7543717126440.2895625PLM011	PLM011
	3923	2000416739332		1	1	75437171	2019-02-06 01:48:23	1:48:23 AM	7543717126440.2895625PLM011	PLM011
	3923	2000416739332		1	1	75437171	2019-02-06 01:48:27	1:48:27 AM	7543717126440.2895625PLM011	PLM011
	3923	2000416739318		1	1	75437171	2019-02-06 01:48:30	1:48:30 AM	7543717126440.2895625PLM011	PLM011
	3923	2000416739325		1	1	75437171	2019-02-06 01:48:34	1:48:34 AM	7543717126440.2895625PLM011	PLM011
	3923	2000416739325		1	1	75437171	2019-02-06 01:48:42	1:48:42 AM	7543717126440.2895625PLM011	PLM011
	3923	2000416739325		1	1	75437171	2019-02-06 01:48:56	1:48:56 AM	7543717126440.2895625PLM011	PLM011
	3923	2000416739325		1	1	75437171	2019-02-06 01:49:15	1:49:15 AM	7543717126440.2895625PLM011	PLM011
	3923	2000416739325		1	1	75437171	2019-02-06 01:49:19	1:49:19 AM	7543717126440.2895625PLM011	PLM011
	3923	2000416739035		1	1	75437171	2019-02-06 01:50:06	1:50:06 AM	7543717126440.2895625PLM011	PLM011
	3923	2000416739035		1	1	75437171	2019-02-06 01:50:23	1:50:23 AM	7543717126440.2895625PLM011	PLM011
	3923	2000416739035		1	1	75437171	2019-02-06 01:50:26	1:50:26 AM	7543717126440.2895625PLM011	PLM011
	3923	2000416739165		1	1	75437171	2019-02-06 01:50:31	1:50:31 AM	7543717126440.2895625PLM011	PLM011
	3923	2000416739356		1	1	75437171	2019-02-06 01:50:46	1:50:46 AM	7543717126440.2895625PLM011	PLM011
	3923	2000416739165		1	1	75437171	2019-02-06 01:50:49	1:50:49 AM	7543717126440.2895625PLM011	PLM011
	3987	2000415471325		1	1	75437171	2019-02-06 01:52:26	1:52:26 AM	7543717126440.2895625PLM011	PLM011
	3987	2000415471325		1	1	75437171	2019-02-06 01:52:30	1:52:30 AM	7543717126440.2895625PLM011	PLM011
	3987	2000415471325		1	1	75437171	2019-02-06 01:52:35	1:52:35 AM	7543717126440.2895625PLM011	PLM011
	3987	2000417190392		1	1	75437171	2019-02-06 01:52:41	1:52:41 AM	7543717126440.2895625PLM011	PLM011
	3987	2000417190378		1	1	75437171	2019-02-06 01:53:19	1:53:19 AM	7543717126440.2895625PLM011	PLM011
	3987	2000417190385		1	1	75437171	2019-02-06 01:53:26	1:53:26 AM	7543717126440.2895625PLM011	PLM011
	3988	2000415474456		1	1	75437171	2019-02-06 01:54:04	1:54:04 AM	7543717126440.2895625PLM011	PLM011
	3988	2000416524037		1	1	75437171	2019-02-06 01:54:12	1:54:12 AM	7543717126440.2895625PLM011	PLM011
	3988	2000416524037		1	1	75437171	2019-02-06 01:54:29	1:54:29 AM	7543717126440.2895625PLM011	PLM011
	3988	2000416524037		1	1	75437171	2019-02-06 01:56:01	1:56:01 AM	7543717126440.2895625PLM011	PLM011
	3988	2000416524037		1	1	75437171	2019-02-06 01:56:16	1:56:16 AM	7543717126440.2895625PLM011	PLM011
	3988	2000416524037		1	1	75437171	2019-02-06 01:56:22	1:56:22 AM	7543717126440.2895625PLM011	PLM011
	3988	2000416524037		1	1	75437171	2019-02-06 01:56:25	1:56:25 AM	7543717126440.2895625PLM011	PLM011
	3988	2000416524037		1	1	75437171	2019-02-06 01:56:32	1:56:32 AM	7543717126440.2895625PLM011	PLM011
	3988	2000416524037		1	1	75437171	2019-02-06 01:56:36	1:56:36 AM	7543717126440.2895625PLM011	PLM011
	3988	2000416524037		1	1	75437171	2019-02-06 01:56:39	1:56:39 AM	7543717126440.2895625PLM011	PLM011
	3988	2000416524037		1	1	75437171	2019-02-06 01:56:43	1:56:43 AM	7543717126440.2895625PLM011	PLM011
	3988	2000416523993		1	1	75437171	2019-02-06 01:56:50	1:56:50 AM	7543717126440.2895625PLM011	PLM011
	3988	2000416523993		1	1	75437171	2019-02-06 01:56:53	1:56:53 AM	7543717126440.2895625PLM011	PLM011
	3988	2000416523993		1	1	75437171	2019-02-06 01:56:57	1:56:57 AM	7543717126440.2895625PLM011	PLM011
	3988	2000416523993		1	1	75437171	2019-02-06 01:57:00	1:57:00 AM	7543717126440.2895625PLM011	PLM011
	3988	2000416523993		1	1	75437171	2019-02-06 01:57:04	1:57:04 AM	7543717126440.2895625PLM011	PLM011
	3988	2000416523993		1	1	75437171	2019-02-06 01:57:07	1:57:07 AM	7543717126440.2895625PLM011	PLM011
	3988	2000416523993		1	1	75437171	2019-02-06 01:57:27	1:57:27 AM	7543717126440.2895625PLM011	PLM011
	3988	2000416523993		1	1	75437171	2019-02-06 01:57:32	1:57:32 AM	7543717126440.2895625PLM011	PLM011
	3988	2000416523993		1	1	75437171	2019-02-06 01:57:40	1:57:40 AM	7543717126440.2895625PLM011	PLM011
	3988	2000416523993		1	1	75437171	2019-02-06 01:57:45	1:57:45 AM	7543717126440.2895625PLM011	PLM011
	3988	2000416523993		1	1	75437171	2019-02-06 01:57:52	1:57:52 AM	7543717126440.2895625PLM011	PLM011
	3988	2000416523993		1	1	75437171	2019-02-06 01:57:58	1:57:58 AM	7543717126440.2895625PLM011	PLM011
	3988	2000416523993		1	1	75437171	2019-02-06 01:59:41	1:59:41 AM	7543717126440.2895625PLM011	PLM011
	3988	2000417388188		1	1	75437171	2019-02-06 01:59:53	1:59:53 AM	7543717126440.2895625PLM011	PLM011
	3990	2000415479697		1	1	75437171	2019-02-06 02:00:56	2:00:56 AM	7543717126440.2895625PLM011	PLM011
	3990	2000415479697		1	1	75437171	2019-02-06 02:01:09	2:01:09 AM	7543717126440.2895625PLM011	PLM011
	3990	2000415479697		1	1	75437171	2019-02-06 02:01:18	2:01:18 AM	7543717126440.2895625PLM011	PLM011
	3990	2000415479697		1	1	75437171	2019-02-06 02:01:23	2:01:23 AM	7543717126440.2895625PLM011	PLM011
	3990	2000415479697		1	1	75437171	2019-02-06 02:01:27	2:01:27 AM	7543717126440.2895625PLM011	PLM011
	3990	2000417294984		1	1	75437171	2019-02-06 02:01:36	2:01:36 AM	7543717126440.2895625PLM011	PLM011
	3990	2000415479680		1	1	75437171	2019-02-06 02:01:40	2:01:40 AM	7543717126440.2895625PLM011	PLM011
	3990	2000415479697		1	1	75437171	2019-02-06 02:01:46	2:01:46 AM	7543717126440.2895625PLM011	PLM011
	3990	2000415479697		1	1	75437171	2019-02-06 02:01:51	2:01:51 AM	7543717126440.2895625PLM011	PLM011
	3990	2000415478225		1	1	75437171	2019-02-06 02:02:07	2:02:07 AM	7543717126440.2895625PLM011	PLM011
	3990	2000415478225		1	1	75437171	2019-02-06 02:02:15	2:02:15 AM	7543717126440.2895625PLM011	PLM011
	3990	2000415478225		1	1	75437171	2019-02-06 02:02:29	2:02:29 AM	7543717126440.2895625PLM011	PLM011
	3990	2000416528004		1	1	75437171	2019-02-06 02:02:47	2:02:47 AM	7543717126440.2895625PLM011	PLM011
	3990	2000416528004		1	1	75437171	2019-02-06 02:02:55	2:02:55 AM	7543717126440.2895625PLM011	PLM011
	3990	2000416528004		1	1	75437171	2019-02-06 02:03:08	2:03:08 AM	7543717126440.2895625PLM011	PLM011
	3990	2000416528004		1	1	75437171	2019-02-06 02:03:15	2:03:15 AM	7543717126440.2895625PLM011	PLM011
	3990	2000416528004		1	1	75437171	2019-02-06 02:03:20	2:03:20 AM	7543717126440.2895625PLM011	PLM011
	3990	2000416528004		1	1	75437171	2019-02-06 02:03:26	2:03:26 AM	7543717126440.2895625PLM011	PLM011
	3990	2000416528004		1	1	75437171	2019-02-06 02:03:38	2:03:38 AM	7543717126440.2895625PLM011	PLM011
	3990	2000416528004		1	1	75437171	2019-02-06 02:03:41	2:03:41 AM	7543717126440.2895625PLM011	PLM011
	3990	2000416528004		1	1	75437171	2019-02-06 02:03:46	2:03:46 AM	7543717126440.2895625PLM011	PLM011
	3990	2000416528004		1	1	75437171	2019-02-06 02:03:51	2:03:51 AM	7543717126440.2895625PLM011	PLM011
	3990	2000416528004		1	1	75437171	2019-02-06 02:04:02	2:04:02 AM	7543717126440.2895625PLM011	PLM011
	3990	2000416528004		1	1	75437171	2019-02-06 02:04:06	2:04:06 AM	7543717126440.2895625PLM011	PLM011
	3990	2000416528004		1	1	75437171	2019-02-06 02:04:24	2:04:24 AM	7543717126440.2895625PLM011	PLM011
	3990	2000416528004		1	1	75437171	2019-02-06 02:04:28	2:04:28 AM	7543717126440.2895625PLM011	PLM011
	3990	2000416528004		1	1	75437171	2019-02-06 02:04:32	2:04:32 AM	7543717126440.2895625PLM011	PLM011
	3990	2000416528004		1	1	75437171	2019-02-06 02:04:37	2:04:37 AM	7543717126440.2895625PLM011	PLM011
	3990	2000416528004		1	1	75437171	2019-02-06 02:04:43	2:04:43 AM	7543717126440.2895625PLM011	PLM011
	3990	2000416528004		1	1	75437171	2019-02-06 02:04:47	2:04:47 AM	7543717126440.2895625PLM011	PLM011
	3990	2000416528004		1	1	75437171	2019-02-06 02:04:50	2:04:50 AM	7543717126440.2895625PLM011	PLM011
	3990	2000416528004		1	1	75437171	2019-02-06 02:05:02	2:05:02 AM	7543717126440.2895625PLM011	PLM011
	3990	2000416528004		1	1	75437171	2019-02-06 02:05:08	2:05:08 AM	7543717126440.2895625PLM011	PLM011
	3990	2000416528004		1	1	75437171	2019-02-06 02:05:15	2:05:15 AM	7543717126440.2895625PLM011	PLM011
	3990	2000416528004		1	1	75437171	2019-02-06 02:05:21	2:05:21 AM	7543717126440.2895625PLM011	PLM011
	3990	2000416400041		1	1	75437171	2019-02-06 02:06:12	2:06:12 AM	7543717126440.2895625PLM011	PLM011
