	5648	2000407411520		1	1	76215184	2019-02-06 05:34:32	5:34:32 AM	76215184536350.01401764PLM081	PLM081
	5648	2000407411520		18	2	76215184	2019-02-06 05:34:54	5:34 AM	76215184536350.01401764PLM081	PLM081
	5648	2000406141558		36	2	76215184	2019-02-06 05:35:02	5:35 AM	76215184536350.01401764PLM081	PLM081
	5648	2000408541745		59	2	76215184	2019-02-06 05:35:26	5:35 AM	76215184536350.01401764PLM081	PLM081
	5648	2000408521716		48	2	76215184	2019-02-06 05:35:32	5:35 AM	76215184536350.01401764PLM081	PLM081
	5648	7759185002448		24	2	76215184	2019-02-06 05:35:54	5:35 AM	76215184536350.01401764PLM081	PLM081
