	3996	2000415488026		1	1	76921785	2019-02-06 03:35:43	3:35:43 AM	7692178542770.7747401PLM062	PLM062
	3996	2000415488033		1	1	76921785	2019-02-06 03:35:56	3:35:56 AM	7692178542770.7747401PLM062	PLM062
	3996	2000415488033		1	1	76921785	2019-02-06 03:36:02	3:36:02 AM	7692178542770.7747401PLM062	PLM062
	3996	2000417390037		1	1	76921785	2019-02-06 03:36:07	3:36:07 AM	7692178542770.7747401PLM062	PLM062
	3996	2000415388999		1	1	76921785	2019-02-06 03:36:15	3:36:15 AM	7692178542770.7747401PLM062	PLM062
	3996	2000415521969		1	1	76921785	2019-02-06 03:36:20	3:36:20 AM	7692178542770.7747401PLM062	PLM062
	3996	2000415487890		1	1	76921785	2019-02-06 03:36:31	3:36:31 AM	7692178542770.7747401PLM062	PLM062
	3996	2000415487890		1	1	76921785	2019-02-06 03:36:39	3:36:39 AM	7692178542770.7747401PLM062	PLM062
	3996	2000415487913		1	1	76921785	2019-02-06 03:36:44	3:36:44 AM	7692178542770.7747401PLM062	PLM062
	3996	2000415488033		1	1	76921785	2019-02-06 03:36:54	3:36:54 AM	7692178542770.7747401PLM062	PLM062
	3996	2000415488033		1	1	76921785	2019-02-06 03:37:02	3:37:02 AM	7692178542770.7747401PLM062	PLM062
	3996	2000417388843		1	1	76921785	2019-02-06 03:37:08	3:37:08 AM	7692178542770.7747401PLM062	PLM062
	3996	2000416584697		1	1	76921785	2019-02-06 03:37:16	3:37:16 AM	7692178542770.7747401PLM062	PLM062
	3996	2000407689448		1	1	76921785	2019-02-06 03:37:41	3:37:41 AM	7692178542770.7747401PLM062	PLM062
	3996	2000407689448		1	1	76921785	2019-02-06 03:37:49	3:37:49 AM	7692178542770.7747401PLM062	PLM062
	3996	2000414404652		1	1	76921785	2019-02-06 03:38:18	3:38:18 AM	7692178542770.7747401PLM062	PLM062
	3996	2000415388968		1	1	76921785	2019-02-06 03:39:01	3:39:01 AM	7692178542770.7747401PLM062	PLM062
	3996	2000407689325		1	1	76921785	2019-02-06 03:39:09	3:39:09 AM	7692178542770.7747401PLM062	PLM062
	3996	2000417387853		1	1	76921785	2019-02-06 03:39:37	3:39:37 AM	7692178542770.7747401PLM062	PLM062
	3996	2000415488170		1	1	76921785	2019-02-06 03:39:51	3:39:51 AM	7692178542770.7747401PLM062	PLM062
	3996	2000416597765		1	1	76921785	2019-02-06 03:40:08	3:40:08 AM	7692178542770.7747401PLM062	PLM062
	3996	2000417388119		1	1	76921785	2019-02-06 03:40:20	3:40:20 AM	7692178542770.7747401PLM062	PLM062
	3996	2000415487845		1	1	76921785	2019-02-06 03:40:39	3:40:39 AM	7692178542770.7747401PLM062	PLM062
	3996	2000417149888		1	1	76921785	2019-02-06 03:40:51	3:40:51 AM	7692178542770.7747401PLM062	PLM062
	3996	2000416583843		1	1	76921785	2019-02-06 03:40:58	3:40:58 AM	7692178542770.7747401PLM062	PLM062
	3996	2000417388898		1	1	76921785	2019-02-06 03:41:16	3:41:16 AM	7692178542770.7747401PLM062	PLM062
	3996	2000417388867		1	1	76921785	2019-02-06 03:41:22	3:41:22 AM	7692178542770.7747401PLM062	PLM062
	3996	2000415483472		1	1	76921785	2019-02-06 03:41:27	3:41:27 AM	7692178542770.7747401PLM062	PLM062
	3996	2000415487876		1	1	76921785	2019-02-06 03:41:48	3:41:48 AM	7692178542770.7747401PLM062	PLM062
	3996	2000417387983		1	1	76921785	2019-02-06 03:42:02	3:42:02 AM	7692178542770.7747401PLM062	PLM062
	3996	2000417387983		1	1	76921785	2019-02-06 03:42:09	3:42:09 AM	7692178542770.7747401PLM062	PLM062
	3996	2000415188469		1	1	76921785	2019-02-06 03:42:19	3:42:19 AM	7692178542770.7747401PLM062	PLM062
	3996	2000415388937		1	1	76921785	2019-02-06 03:42:37	3:42:37 AM	7692178542770.7747401PLM062	PLM062
	3996	2000407689424		1	1	76921785	2019-02-06 03:42:44	3:42:44 AM	7692178542770.7747401PLM062	PLM062
	3996	2000415488026		1	1	76921785	2019-02-06 03:42:54	3:42:54 AM	7692178542770.7747401PLM062	PLM062
	3996	2000417388133		1	1	76921785	2019-02-06 03:43:05	3:43:05 AM	7692178542770.7747401PLM062	PLM062
	3996	2000415487937		1	1	76921785	2019-02-06 03:43:20	3:43:20 AM	7692178542770.7747401PLM062	PLM062
	3996	2000415712244		1	1	76921785	2019-02-06 03:43:26	3:43:26 AM	7692178542770.7747401PLM062	PLM062
	3996	2000416586813		1	1	76921785	2019-02-06 03:43:35	3:43:35 AM	7692178542770.7747401PLM062	PLM062
	3996	2000416344215		1	1	76921785	2019-02-06 03:43:42	3:43:42 AM	7692178542770.7747401PLM062	PLM062
	3996	2000415487845		1	1	76921785	2019-02-06 03:43:51	3:43:51 AM	7692178542770.7747401PLM062	PLM062
	3996	2000415712237		1	1	76921785	2019-02-06 03:44:04	3:44:04 AM	7692178542770.7747401PLM062	PLM062
	3996	2000415487876		1	1	76921785	2019-02-06 03:44:09	3:44:09 AM	7692178542770.7747401PLM062	PLM062
	3996	2000415487876		1	1	76921785	2019-02-06 03:44:16	3:44:16 AM	7692178542770.7747401PLM062	PLM062
	3996	2000407689448		1	1	76921785	2019-02-06 03:44:25	3:44:25 AM	7692178542770.7747401PLM062	PLM062
	3996	2000407689448		1	1	76921785	2019-02-06 03:46:37	3:46:37 AM	7692178542770.7747401PLM062	PLM062
	3996	2000417387822		1	1	76921785	2019-02-06 03:46:52	3:46:52 AM	7692178542770.7747401PLM062	PLM062
	3996	2000415388982		1	1	76921785	2019-02-06 03:47:09	3:47:09 AM	7692178542770.7747401PLM062	PLM062
	3996	2000415487944		1	1	76921785	2019-02-06 03:47:15	3:47:15 AM	7692178542770.7747401PLM062	PLM062
	3996	2000417390037		1	1	76921785	2019-02-06 03:47:22	3:47:22 AM	7692178542770.7747401PLM062	PLM062
	3996	2000407689325		1	1	76921785	2019-02-06 03:47:29	3:47:29 AM	7692178542770.7747401PLM062	PLM062
	3996	2000415487883		1	1	76921785	2019-02-06 03:47:36	3:47:36 AM	7692178542770.7747401PLM062	PLM062
	3996	2000415712183		1	1	76921785	2019-02-06 03:47:51	3:47:51 AM	7692178542770.7747401PLM062	PLM062
	3996	2000417387815		1	1	76921785	2019-02-06 03:49:58	3:49:58 AM	7692178542770.7747401PLM062	PLM062
	3996	2000416393206		1	1	76921785	2019-02-06 03:50:07	3:50:07 AM	7692178542770.7747401PLM062	PLM062
	3996	2000415487944		1	1	76921785	2019-02-06 03:50:14	3:50:14 AM	7692178542770.7747401PLM062	PLM062
	3996	2000407689417		1	1	76921785	2019-02-06 03:50:48	3:50:48 AM	7692178542770.7747401PLM062	PLM062
	3996	2000415521952		1	1	76921785	2019-02-06 03:51:03	3:51:03 AM	7692178542770.7747401PLM062	PLM062
	3996	2000415487937		1	1	76921785	2019-02-06 03:51:45	3:51:45 AM	7692178542770.7747401PLM062	PLM062
	3996	2000407689448		1	1	76921785	2019-02-06 03:51:52	3:51:52 AM	7692178542770.7747401PLM062	PLM062
	3996	2000415487876		1	1	76921785	2019-02-06 03:52:11	3:52:11 AM	7692178542770.7747401PLM062	PLM062
	3996	2000407689448		1	1	76921785	2019-02-06 03:52:20	3:52:20 AM	7692178542770.7747401PLM062	PLM062
	3996	2000407689301		1	1	76921785	2019-02-06 03:52:31	3:52:31 AM	7692178542770.7747401PLM062	PLM062
	3996	2000415712183		1	1	76921785	2019-02-06 03:53:04	3:53:04 AM	7692178542770.7747401PLM062	PLM062
	3996	2000407689448		1	1	76921785	2019-02-06 03:53:20	3:53:20 AM	7692178542770.7747401PLM062	PLM062
	3996	2000407689295		1	1	76921785	2019-02-06 03:53:29	3:53:29 AM	7692178542770.7747401PLM062	PLM062
	3996	2000407689448		1	1	76921785	2019-02-06 03:53:39	3:53:39 AM	7692178542770.7747401PLM062	PLM062
	3996	2000415388968		1	1	76921785	2019-02-06 03:54:10	3:54:10 AM	7692178542770.7747401PLM062	PLM062
	3996	2000416460809		1	1	76921785	2019-02-06 03:54:35	3:54:35 AM	7692178542770.7747401PLM062	PLM062
	3996	2000407689325		1	1	76921785	2019-02-06 03:54:42	3:54:42 AM	7692178542770.7747401PLM062	PLM062
	3996	2000407689448		1	1	76921785	2019-02-06 03:55:15	3:55:15 AM	7692178542770.7747401PLM062	PLM062
	3996	2000407689325		1	1	76921785	2019-02-06 03:55:30	3:55:30 AM	7692178542770.7747401PLM062	PLM062
	3996	2000407689325		1	1	76921785	2019-02-06 03:55:38	3:55:38 AM	7692178542770.7747401PLM062	PLM062
	3996	2000415488026		1	1	76921785	2019-02-06 03:55:45	3:55:45 AM	7692178542770.7747401PLM062	PLM062
	3996	2000415487876		1	1	76921785	2019-02-06 03:55:54	3:55:54 AM	7692178542770.7747401PLM062	PLM062
	3996	2000415388944		1	1	76921785	2019-02-06 03:56:00	3:56:00 AM	7692178542770.7747401PLM062	PLM062
	3996	2000415521952		1	1	76921785	2019-02-06 03:56:07	3:56:07 AM	7692178542770.7747401PLM062	PLM062
	3996	2000407689448		1	1	76921785	2019-02-06 03:56:23	3:56:23 AM	7692178542770.7747401PLM062	PLM062
	3996	2000415487883		1	1	76921785	2019-02-06 03:56:40	3:56:40 AM	7692178542770.7747401PLM062	PLM062
	3996	2000415487845		1	1	76921785	2019-02-06 03:56:50	3:56:50 AM	7692178542770.7747401PLM062	PLM062
	3996	2000407689417		1	1	76921785	2019-02-06 03:57:02	3:57:02 AM	7692178542770.7747401PLM062	PLM062
	3996	2000407689448		1	1	76921785	2019-02-06 03:57:15	3:57:15 AM	7692178542770.7747401PLM062	PLM062
	3996	2000416583843		1	1	76921785	2019-02-06 03:57:20	3:57:20 AM	7692178542770.7747401PLM062	PLM062
	3996	2000415712244		1	1	76921785	2019-02-06 03:57:34	3:57:34 AM	7692178542770.7747401PLM062	PLM062
	3996	2000415487920		1	1	76921785	2019-02-06 03:57:50	3:57:50 AM	7692178542770.7747401PLM062	PLM062
	3996	2000414404683		1	1	76921785	2019-02-06 03:58:57	3:58:57 AM	7692178542770.7747401PLM062	PLM062
	3996	2000416584680		1	1	76921785	2019-02-06 03:59:26	3:59:26 AM	7692178542770.7747401PLM062	PLM062
	3996	2000407689448		1	1	76921785	2019-02-06 03:59:42	3:59:42 AM	7692178542770.7747401PLM062	PLM062
	3996	2000415487944		1	1	76921785	2019-02-06 03:59:49	3:59:49 AM	7692178542770.7747401PLM062	PLM062
	3996	2000414404683		1	1	76921785	2019-02-06 04:00:18	4:00:18 AM	7692178542770.7747401PLM062	PLM062
	3996	2000407689424		1	1	76921785	2019-02-06 04:00:33	4:00:33 AM	7692178542770.7747401PLM062	PLM062
	3996	2000415487883		1	1	76921785	2019-02-06 04:00:46	4:00:46 AM	7692178542770.7747401PLM062	PLM062
	3996	2000416897025		1	1	76921785	2019-02-06 04:00:51	4:00:51 AM	7692178542770.7747401PLM062	PLM062
	3996	2000416205882		1	1	76921785	2019-02-06 04:00:56	4:00:56 AM	7692178542770.7747401PLM062	PLM062
	3996	2000416531417		1	1	76921785	2019-02-06 04:01:05	4:01:05 AM	7692178542770.7747401PLM062	PLM062
	3996	2000415653332		1	1	76921785	2019-02-06 04:01:08	4:01:08 AM	7692178542770.7747401PLM062	PLM062
	3996	630509490974		1	1	76921785	2019-02-06 04:01:19	4:01:19 AM	7692178542770.7747401PLM062	PLM062
	3996	2000416462933		1	1	76921785	2019-02-06 04:01:26	4:01:26 AM	7692178542770.7747401PLM062	PLM062
	3996	2000407689448		1	1	76921785	2019-02-06 04:01:31	4:01:31 AM	7692178542770.7747401PLM062	PLM062
	3996	2000407689417		1	1	76921785	2019-02-06 04:01:38	4:01:38 AM	7692178542770.7747401PLM062	PLM062
	3996	2000407689424		1	1	76921785	2019-02-06 04:01:48	4:01:48 AM	7692178542770.7747401PLM062	PLM062
	3996	2000407689424		1	1	76921785	2019-02-06 04:01:54	4:01:54 AM	7692178542770.7747401PLM062	PLM062
	3996	2000417388980		1	1	76921785	2019-02-06 04:02:06	4:02:06 AM	7692178542770.7747401PLM062	PLM062
	3996	2000407689417		1	1	76921785	2019-02-06 04:02:21	4:02:21 AM	7692178542770.7747401PLM062	PLM062
	3996	2000416583843		1	1	76921785	2019-02-06 04:02:26	4:02:26 AM	7692178542770.7747401PLM062	PLM062
	3996	2000415487937		1	1	76921785	2019-02-06 04:02:33	4:02:33 AM	7692178542770.7747401PLM062	PLM062
	3996	2000415487890		1	1	76921785	2019-02-06 04:02:38	4:02:38 AM	7692178542770.7747401PLM062	PLM062
	3996	2000415487890		1	1	76921785	2019-02-06 04:02:44	4:02:44 AM	7692178542770.7747401PLM062	PLM062
	3996	2000416386567		1	1	76921785	2019-02-06 04:02:49	4:02:49 AM	7692178542770.7747401PLM062	PLM062
	3996	2000407689325		1	1	76921785	2019-02-06 04:03:04	4:03:04 AM	7692178542770.7747401PLM062	PLM062
	3996	2000417388737		1	1	76921785	2019-02-06 04:03:09	4:03:09 AM	7692178542770.7747401PLM062	PLM062
	3996	2000416527991		1	1	76921785	2019-02-06 04:03:21	4:03:21 AM	7692178542770.7747401PLM062	PLM062
	3996	2000407689424		1	1	76921785	2019-02-06 04:03:34	4:03:34 AM	7692178542770.7747401PLM062	PLM062
	3996	2000417388836		1	1	76921785	2019-02-06 04:03:38	4:03:38 AM	7692178542770.7747401PLM062	PLM062
	3996	2000417388805		1	1	76921785	2019-02-06 04:03:43	4:03:43 AM	7692178542770.7747401PLM062	PLM062
	3996	2000417388768		1	1	76921785	2019-02-06 04:03:52	4:03:52 AM	7692178542770.7747401PLM062	PLM062
	3996	2000415487920		1	1	76921785	2019-02-06 04:04:02	4:04:02 AM	7692178542770.7747401PLM062	PLM062
	3996	2000416583843		1	1	76921785	2019-02-06 04:04:08	4:04:08 AM	7692178542770.7747401PLM062	PLM062
	3996	2000416381296		1	1	76921785	2019-02-06 04:04:14	4:04:14 AM	7692178542770.7747401PLM062	PLM062
	3996	2000416583843		1	1	76921785	2019-02-06 04:04:19	4:04:19 AM	7692178542770.7747401PLM062	PLM062
	3996	2000415389002		1	1	76921785	2019-02-06 04:04:25	4:04:25 AM	7692178542770.7747401PLM062	PLM062
	3996	2000407689448		1	1	76921785	2019-02-06 04:05:41	4:05:41 AM	7692178542770.7747401PLM062	PLM062
	3996	2000415712183		1	1	76921785	2019-02-06 04:05:47	4:05:47 AM	7692178542770.7747401PLM062	PLM062
	3996	2000415487937		1	1	76921785	2019-02-06 04:05:57	4:05:57 AM	7692178542770.7747401PLM062	PLM062
	3996	2000415487944		1	1	76921785	2019-02-06 04:06:02	4:06:02 AM	7692178542770.7747401PLM062	PLM062
	3996	2000415388944		1	1	76921785	2019-02-06 04:06:40	4:06:40 AM	7692178542770.7747401PLM062	PLM062
	3996	2000417390037		1	1	76921785	2019-02-06 04:06:50	4:06:50 AM	7692178542770.7747401PLM062	PLM062
	3996	2000415487944		1	1	76921785	2019-02-06 04:06:58	4:06:58 AM	7692178542770.7747401PLM062	PLM062
	3996	2000414436448		1	1	76921785	2019-02-06 04:07:11	4:07:11 AM	7692178542770.7747401PLM062	PLM062
	3996	2000407689325		1	1	76921785	2019-02-06 04:07:24	4:07:24 AM	7692178542770.7747401PLM062	PLM062
	3996	2000417390037		1	1	76921785	2019-02-06 04:07:30	4:07:30 AM	7692178542770.7747401PLM062	PLM062
	3996	2000416531370		1	1	76921785	2019-02-06 04:07:37	4:07:37 AM	7692178542770.7747401PLM062	PLM062
	3996	2000407689417		1	1	76921785	2019-02-06 04:09:02	4:09:02 AM	7692178542770.7747401PLM062	PLM062
	3996	2000415712237		1	1	76921785	2019-02-06 04:09:09	4:09:09 AM	7692178542770.7747401PLM062	PLM062
	3996	2000415487876		1	1	76921785	2019-02-06 04:09:15	4:09:15 AM	7692178542770.7747401PLM062	PLM062
	3996	2000415487937		1	1	76921785	2019-02-06 04:09:23	4:09:23 AM	7692178542770.7747401PLM062	PLM062
	3996	2000414033739		1	1	76921785	2019-02-06 04:09:40	4:09:40 AM	7692178542770.7747401PLM062	PLM062
	3996	2000415487951		1	1	76921785	2019-02-06 04:09:53	4:09:53 AM	7692178542770.7747401PLM062	PLM062
	3996	2000415469087		1	1	76921785	2019-02-06 04:10:10	4:10:10 AM	7692178542770.7747401PLM062	PLM062
	3996	2000415521990		1	1	76921785	2019-02-06 04:10:15	4:10:15 AM	7692178542770.7747401PLM062	PLM062
	3996	2000415487944		1	1	76921785	2019-02-06 04:10:20	4:10:20 AM	7692178542770.7747401PLM062	PLM062
	3996	2000416960804		1	1	76921785	2019-02-06 04:10:25	4:10:25 AM	7692178542770.7747401PLM062	PLM062
	3996	2000407689325		1	1	76921785	2019-02-06 04:10:30	4:10:30 AM	7692178542770.7747401PLM062	PLM062
	3996	2000415487944		1	1	76921785	2019-02-06 04:10:35	4:10:35 AM	7692178542770.7747401PLM062	PLM062
	3996	2000415488033		1	1	76921785	2019-02-06 04:10:41	4:10:41 AM	7692178542770.7747401PLM062	PLM062
	3996	2000414404683		1	1	76921785	2019-02-06 04:10:46	4:10:46 AM	7692178542770.7747401PLM062	PLM062
	3996	2000407689448		1	1	76921785	2019-02-06 04:10:53	4:10:53 AM	7692178542770.7747401PLM062	PLM062
	3996	2000415389002		1	1	76921785	2019-02-06 04:10:59	4:10:59 AM	7692178542770.7747401PLM062	PLM062
	3996	2000417388010		1	1	76921785	2019-02-06 04:11:23	4:11:23 AM	7692178542770.7747401PLM062	PLM062
	3996	2000407689417		1	1	76921785	2019-02-06 04:11:35	4:11:35 AM	7692178542770.7747401PLM062	PLM062
	3996	2000414404683		1	1	76921785	2019-02-06 04:11:40	4:11:40 AM	7692178542770.7747401PLM062	PLM062
	3996	2000415522119		1	1	76921785	2019-02-06 04:11:46	4:11:46 AM	7692178542770.7747401PLM062	PLM062
	3996	2000416539420		1	1	76921785	2019-02-06 04:11:52	4:11:52 AM	7692178542770.7747401PLM062	PLM062
	3996	2000415712183		1	1	76921785	2019-02-06 04:12:06	4:12:06 AM	7692178542770.7747401PLM062	PLM062
	3996	2000414404683		1	1	76921785	2019-02-06 04:12:12	4:12:12 AM	7692178542770.7747401PLM062	PLM062
	3996	2000407689325		1	1	76921785	2019-02-06 04:12:23	4:12:23 AM	7692178542770.7747401PLM062	PLM062
	3996	2000416344048		1	1	76921785	2019-02-06 04:12:33	4:12:33 AM	7692178542770.7747401PLM062	PLM062
	3996	2000415488002		1	1	76921785	2019-02-06 04:12:44	4:12:44 AM	7692178542770.7747401PLM062	PLM062
	3996	2000416107506		1	1	76921785	2019-02-06 04:12:49	4:12:49 AM	7692178542770.7747401PLM062	PLM062
	3996	2000416539420		1	1	76921785	2019-02-06 04:12:58	4:12:58 AM	7692178542770.7747401PLM062	PLM062
	3996	2000415712183		1	1	76921785	2019-02-06 04:13:03	4:13:03 AM	7692178542770.7747401PLM062	PLM062
	3996	2000415487944		1	1	76921785	2019-02-06 04:13:08	4:13:08 AM	7692178542770.7747401PLM062	PLM062
	3996	2000415522119		1	1	76921785	2019-02-06 04:13:14	4:13:14 AM	7692178542770.7747401PLM062	PLM062
	3996	2000407689448		1	1	76921785	2019-02-06 04:13:19	4:13:19 AM	7692178542770.7747401PLM062	PLM062
	3996	2000407689325		1	1	76921785	2019-02-06 04:13:22	4:13:22 AM	7692178542770.7747401PLM062	PLM062
	3996	2000416539420		1	1	76921785	2019-02-06 04:13:26	4:13:26 AM	7692178542770.7747401PLM062	PLM062
	4000	2000407689295		1	1	76921785	2019-02-06 04:14:59	4:14:59 AM	7692178542770.7747401PLM062	PLM062
	4000	2000407689325		1	1	76921785	2019-02-06 04:15:17	4:15:17 AM	7692178542770.7747401PLM062	PLM062
	4000	2000407689295		1	1	76921785	2019-02-06 04:15:20	4:15:20 AM	7692178542770.7747401PLM062	PLM062
	4000	2000407689325		1	1	76921785	2019-02-06 04:15:24	4:15:24 AM	7692178542770.7747401PLM062	PLM062
	4000	2000407689295		1	1	76921785	2019-02-06 04:15:28	4:15:28 AM	7692178542770.7747401PLM062	PLM062
	4000	2000415712244		1	1	76921785	2019-02-06 04:15:32	4:15:32 AM	7692178542770.7747401PLM062	PLM062
	4000	2000407689295		1	1	76921785	2019-02-06 04:15:34	4:15:34 AM	7692178542770.7747401PLM062	PLM062
	4000	2000407689295		1	1	76921785	2019-02-06 04:15:37	4:15:37 AM	7692178542770.7747401PLM062	PLM062
	4000	2000407689295		1	1	76921785	2019-02-06 04:15:39	4:15:39 AM	7692178542770.7747401PLM062	PLM062
	4000	2000407689295		1	1	76921785	2019-02-06 04:15:41	4:15:41 AM	7692178542770.7747401PLM062	PLM062
	4000	2000407689295		1	1	76921785	2019-02-06 04:15:45	4:15:45 AM	7692178542770.7747401PLM062	PLM062
	4000	2000407689295		1	1	76921785	2019-02-06 04:15:47	4:15:47 AM	7692178542770.7747401PLM062	PLM062
	4000	2000407689295		1	1	76921785	2019-02-06 04:15:49	4:15:49 AM	7692178542770.7747401PLM062	PLM062
	4000	2000407689295		1	1	76921785	2019-02-06 04:15:53	4:15:53 AM	7692178542770.7747401PLM062	PLM062
	4000	2000407689295		1	1	76921785	2019-02-06 04:15:58	4:15:58 AM	7692178542770.7747401PLM062	PLM062
	4000	2000407689295		1	1	76921785	2019-02-06 04:16:01	4:16:01 AM	7692178542770.7747401PLM062	PLM062
	4000	2000407689295		1	1	76921785	2019-02-06 04:16:05	4:16:05 AM	7692178542770.7747401PLM062	PLM062
	4000	2000407689295		1	1	76921785	2019-02-06 04:16:09	4:16:09 AM	7692178542770.7747401PLM062	PLM062
	4000	2000407689295		1	1	76921785	2019-02-06 04:16:12	4:16:12 AM	7692178542770.7747401PLM062	PLM062
	4000	2000407689295		1	1	76921785	2019-02-06 04:16:16	4:16:16 AM	7692178542770.7747401PLM062	PLM062
	4000	2000407689295		1	1	76921785	2019-02-06 04:16:18	4:16:18 AM	7692178542770.7747401PLM062	PLM062
	4000	2000407689295		1	1	76921785	2019-02-06 04:16:20	4:16:20 AM	7692178542770.7747401PLM062	PLM062
	4000	2000407689295		1	1	76921785	2019-02-06 04:16:22	4:16:22 AM	7692178542770.7747401PLM062	PLM062
	4000	2000407689295		1	1	76921785	2019-02-06 04:16:26	4:16:26 AM	7692178542770.7747401PLM062	PLM062
	4000	2000407689295		1	1	76921785	2019-02-06 04:16:28	4:16:28 AM	7692178542770.7747401PLM062	PLM062
	4000	2000407689295		1	1	76921785	2019-02-06 04:18:44	4:18:44 AM	7692178542770.7747401PLM062	PLM062
	4000	2000407689295		1	1	76921785	2019-02-06 04:18:47	4:18:47 AM	7692178542770.7747401PLM062	PLM062
	4000	2000407689295		1	1	76921785	2019-02-06 04:18:51	4:18:51 AM	7692178542770.7747401PLM062	PLM062
	4000	2000407689295		1	1	76921785	2019-02-06 04:18:54	4:18:54 AM	7692178542770.7747401PLM062	PLM062
	4000	2000407689295		1	1	76921785	2019-02-06 04:19:00	4:19:00 AM	7692178542770.7747401PLM062	PLM062
	4000	2000407689301		1	1	76921785	2019-02-06 04:19:09	4:19:09 AM	7692178542770.7747401PLM062	PLM062
	4000	2000416512331		1	1	76921785	2019-02-06 04:19:18	4:19:18 AM	7692178542770.7747401PLM062	PLM062
	4000	2000407689301		1	1	76921785	2019-02-06 04:19:25	4:19:25 AM	7692178542770.7747401PLM062	PLM062
	4000	2000407689325		1	1	76921785	2019-02-06 04:19:28	4:19:28 AM	7692178542770.7747401PLM062	PLM062
	4000	2000407689325		1	1	76921785	2019-02-06 04:19:42	4:19:42 AM	7692178542770.7747401PLM062	PLM062
	4000	2000407689325		1	1	76921785	2019-02-06 04:19:49	4:19:49 AM	7692178542770.7747401PLM062	PLM062
	4000	2000407689325		1	1	76921785	2019-02-06 04:20:07	4:20:07 AM	7692178542770.7747401PLM062	PLM062
	4000	2000407689325		1	1	76921785	2019-02-06 04:20:12	4:20:12 AM	7692178542770.7747401PLM062	PLM062
	4000	2000407689325		1	1	76921785	2019-02-06 04:20:15	4:20:15 AM	7692178542770.7747401PLM062	PLM062
	4000	2000407689325		1	1	76921785	2019-02-06 04:20:20	4:20:20 AM	7692178542770.7747401PLM062	PLM062
	4000	2000407689325		1	1	76921785	2019-02-06 04:20:25	4:20:25 AM	7692178542770.7747401PLM062	PLM062
	4000	2000407689325		1	1	76921785	2019-02-06 04:20:28	4:20:28 AM	7692178542770.7747401PLM062	PLM062
	4000	2000407689301		1	1	76921785	2019-02-06 04:20:45	4:20:45 AM	7692178542770.7747401PLM062	PLM062
	4000	2000407689301		1	1	76921785	2019-02-06 04:20:49	4:20:49 AM	7692178542770.7747401PLM062	PLM062
	4000	2000407689301		1	1	76921785	2019-02-06 04:20:53	4:20:53 AM	7692178542770.7747401PLM062	PLM062
	4000	2000407689301		1	1	76921785	2019-02-06 04:21:00	4:21:00 AM	7692178542770.7747401PLM062	PLM062
	4000	2000407689301		1	1	76921785	2019-02-06 04:21:04	4:21:04 AM	7692178542770.7747401PLM062	PLM062
	4000	2000407689301		1	1	76921785	2019-02-06 04:22:27	4:22:27 AM	7692178542770.7747401PLM062	PLM062
	4000	2000407689301		1	1	76921785	2019-02-06 04:22:32	4:22:32 AM	7692178542770.7747401PLM062	PLM062
	4000	2000407689301		1	1	76921785	2019-02-06 04:22:35	4:22:35 AM	7692178542770.7747401PLM062	PLM062
	4000	2000407689301		1	1	76921785	2019-02-06 04:22:38	4:22:38 AM	7692178542770.7747401PLM062	PLM062
	4000	2000407689301		1	1	76921785	2019-02-06 04:22:42	4:22:42 AM	7692178542770.7747401PLM062	PLM062
	4000	2000407689301		1	1	76921785	2019-02-06 04:22:45	4:22:45 AM	7692178542770.7747401PLM062	PLM062
	4000	2000407689301		1	1	76921785	2019-02-06 04:22:48	4:22:48 AM	7692178542770.7747401PLM062	PLM062
	4000	2000407689301		1	1	76921785	2019-02-06 04:22:56	4:22:56 AM	7692178542770.7747401PLM062	PLM062
	4000	2000407689301		1	1	76921785	2019-02-06 04:22:59	4:22:59 AM	7692178542770.7747401PLM062	PLM062
	4000	2000407689301		1	1	76921785	2019-02-06 04:23:04	4:23:04 AM	7692178542770.7747401PLM062	PLM062
	4000	2000407689301		1	1	76921785	2019-02-06 04:23:11	4:23:11 AM	7692178542770.7747401PLM062	PLM062
	4000	2000407689301		1	1	76921785	2019-02-06 04:23:17	4:23:17 AM	7692178542770.7747401PLM062	PLM062
	4000	2000407689301		1	1	76921785	2019-02-06 04:23:20	4:23:20 AM	7692178542770.7747401PLM062	PLM062
	4000	2000407689301		1	1	76921785	2019-02-06 04:23:23	4:23:23 AM	7692178542770.7747401PLM062	PLM062
	4000	2000407689301		1	1	76921785	2019-02-06 04:23:28	4:23:28 AM	7692178542770.7747401PLM062	PLM062
	4000	2000407689301		1	1	76921785	2019-02-06 04:23:37	4:23:37 AM	7692178542770.7747401PLM062	PLM062
	4000	2000407689301		1	1	76921785	2019-02-06 04:23:43	4:23:43 AM	7692178542770.7747401PLM062	PLM062
	4000	2000407689301		1	1	76921785	2019-02-06 04:23:54	4:23:54 AM	7692178542770.7747401PLM062	PLM062
	4000	2000407689301		1	1	76921785	2019-02-06 04:23:58	4:23:58 AM	7692178542770.7747401PLM062	PLM062
	4000	2000407689301		1	1	76921785	2019-02-06 04:24:03	4:24:03 AM	7692178542770.7747401PLM062	PLM062
	4000	2000407689301		1	1	76921785	2019-02-06 04:24:07	4:24:07 AM	7692178542770.7747401PLM062	PLM062
	4000	2000417388911		1	1	76921785	2019-02-06 04:24:17	4:24:17 AM	7692178542770.7747401PLM062	PLM062
	4000	2000417388874		1	1	76921785	2019-02-06 04:24:29	4:24:29 AM	7692178542770.7747401PLM062	PLM062
	4000	2000417388751		1	1	76921785	2019-02-06 04:24:36	4:24:36 AM	7692178542770.7747401PLM062	PLM062
	4000	2000417388904		1	1	76921785	2019-02-06 04:24:39	4:24:39 AM	7692178542770.7747401PLM062	PLM062
	4000	2000417388928		1	1	76921785	2019-02-06 04:24:43	4:24:43 AM	7692178542770.7747401PLM062	PLM062
	4000	2000417388928		1	1	76921785	2019-02-06 04:25:24	4:25:24 AM	7692178542770.7747401PLM062	PLM062
	4000	2000417388881		1	1	76921785	2019-02-06 04:25:39	4:25:39 AM	7692178542770.7747401PLM062	PLM062
	4000	2000417388881		1	1	76921785	2019-02-06 04:25:44	4:25:44 AM	7692178542770.7747401PLM062	PLM062
	4000	2000417388881		1	1	76921785	2019-02-06 04:25:47	4:25:47 AM	7692178542770.7747401PLM062	PLM062
	4000	2000417388935		1	1	76921785	2019-02-06 04:25:50	4:25:50 AM	7692178542770.7747401PLM062	PLM062
	4000	2000417388935		1	1	76921785	2019-02-06 04:25:52	4:25:52 AM	7692178542770.7747401PLM062	PLM062
	4000	2000417388935		1	1	76921785	2019-02-06 04:25:55	4:25:55 AM	7692178542770.7747401PLM062	PLM062
	4000	2000417388898		1	1	76921785	2019-02-06 04:25:58	4:25:58 AM	7692178542770.7747401PLM062	PLM062
	4000	2000417388898		1	1	76921785	2019-02-06 04:26:00	4:26:00 AM	7692178542770.7747401PLM062	PLM062
	4000	2000417388904		1	1	76921785	2019-02-06 04:26:03	4:26:03 AM	7692178542770.7747401PLM062	PLM062
	4000	2000417388904		1	1	76921785	2019-02-06 04:26:06	4:26:06 AM	7692178542770.7747401PLM062	PLM062
	4000	2000417388911		1	1	76921785	2019-02-06 04:26:08	4:26:08 AM	7692178542770.7747401PLM062	PLM062
	4000	2000417388874		1	1	76921785	2019-02-06 04:26:19	4:26:19 AM	7692178542770.7747401PLM062	PLM062
